<?xml version="1.0" encoding="UTF-8"?>
<svg width="129px" height="152px" viewBox="0 0 129 152" version="1.1" xmlns="http://www.w3.org/2000/svg" xmlns:xlink="http://www.w3.org/1999/xlink">
    <title>Group</title>
    <g id="Page-1" stroke="none" stroke-width="1" fill="none" fill-rule="evenodd">
        <g id="Group" fill-rule="nonzero">
            <g id="logo__item--business" transform="translate(0.000000, 112.000000)" fill="#2C3B39" font-family="Montserrat-Bold, Montserrat" font-size="32" font-weight="bold">
                <g id="Group" transform="translate(0.015625, 0.764032)">
                    <text id="Banana">
                        <tspan x="0" y="31">Banana</tspan>
                    </text>
                </g>
            </g>
            <g id="logo__item--logo_0">
                <g id="Group" transform="translate(0.910110, 0.786517)">
                    <g id="Path">
                        <path d="M35.8651685,14.2921348 L35.8651685,57.1685393 C35.8651685,69.0337079 21.0337079,79.1011236 0.0898876404,83.3258427 L0.0898876404,95.1011236 C24.7191011,91.9550562 43.0561798,80.988764 43.0561798,67.8651685 L43.0561798,7.73033708 L35.8651685,14.2921348 Z" fill="#2C3B39"></path>
                        <path d="M49.5280899,6.92134831 L49.5280899,67.5955056 C49.5280899,82.0674157 34.6966292,94.4719101 13.6629213,99.5955056 L13.6629213,113.977528 C38.3820225,110.11236 56.7191011,96.7191011 56.7191011,80.6292135 L56.7191011,0.359550562 L49.5280899,6.92134831 Z" fill="#153037"></path>
                        <path d="M84.3146067,14.2921348 L84.3146067,57.1685393 C84.3146067,69.0337079 99.1460674,79.1011236 120.089888,83.3258427 L120.089888,95.1011236 C95.4606742,91.9550562 77.2134831,80.988764 77.2134831,67.8651685 L77.2134831,8.98876404 L84.3146067,14.2921348 Z" fill="#2C3B39"></path>
                        <path d="M70.741573,6.92134831 L70.741573,67.5955056 C70.741573,82.0674157 85.5730337,94.4719101 106.606742,99.5955056 L106.606742,113.977528 C81.8876404,110.11236 63.5505618,96.7191011 63.5505618,80.6292135 L63.5505618,0.359550562 L70.741573,6.92134831 Z" fill="#153037"></path>
                    </g>
                </g>
            </g>
            <g id="logo__item--shape_1" transform="translate(116.000000, 103.000000)" fill="#091117">
                <g id="Group" transform="translate(0.789042, 0.789042)">
                    <g>
                        <path d="M4.29999931,8.65890272 C1.92420061,8.65890272 0,6.73470212 0,4.35890341 C0,1.98310471 1.92420061,0.0589041002 4.29999931,0.0589041002 C6.67579802,0.0589041002 8.59999862,1.99292206 8.59999862,4.35890341 C8.59999862,6.72488477 6.67579802,8.65890272 4.29999931,8.65890272 Z M4.29999931,0.638127752 C2.24817316,0.638127752 0.579223652,2.30707726 0.579223652,4.35890341 C0.579223652,6.41072957 2.24817316,8.07967907 4.29999931,8.07967907 C6.35182547,8.07967907 8.02077497,6.41072957 8.02077497,4.35890341 C8.02077497,2.30707726 6.35182547,0.638127752 4.29999931,0.638127752 Z" id="Shape"></path>
                        <g transform="translate(1.178082, 3.043379)" id="Path">
                            <polygon points="0.932648253 3.03356116 0.932648253 0.520319551 0.0294520501 0.520319551 0.0294520501 0 2.43470281 0 2.43470281 0.510502201 1.54132395 0.510502201 1.54132395 3.02374381 0.932648253 3.02374381"></polygon>
                            <polygon points="2.82739681 3.03356116 2.82739681 0 3.74041036 0 4.29018196 2.07146086 4.83013621 0 5.74314977 0 5.74314977 3.03356116 5.17374346 3.03356116 5.17374346 0.647945102 4.57488511 3.03356116 3.98584411 3.03356116 3.38698576 0.647945102 3.38698576 3.03356116"></polygon>
                        </g>
                    </g>
                </g>
            </g>
        </g>
    </g>
</svg>