<?xml version="1.0" encoding="UTF-8"?>
<svg width="98px" height="87px" viewBox="0 0 98 87" version="1.1" xmlns="http://www.w3.org/2000/svg" xmlns:xlink="http://www.w3.org/1999/xlink">
    <title>Group</title>
    <g id="Page-1" stroke="none" stroke-width="1" fill="none" fill-rule="evenodd">
        <g id="Group" fill-rule="nonzero">
            <g id="logo__item--business" transform="translate(5.000000, 48.000000)" fill="#000000" font-family="Montserrat-Bold, Montserrat" font-size="32" font-weight="bold">
                <g id="Group">
                    <text id="Berry">
                        <tspan x="0" y="31">Berry</tspan>
                    </text>
                </g>
            </g>
            <g id="logo__item--shape_1" fill="#231F20">
                <g id="Group" transform="translate(0.000000, 0.700558)">
                    <g id="Path">
                        <g>
                            <g transform="translate(48.000000, 0.000000)">
                                <path d="M0.1,49.3 C19.2,49.3 34.8,33.8 34.8,14.7 L34.1,14.7 C34.1,33.4 18.8,48.6 0.1,48.6 L0.1,49.3 Z"></path>
                                <path d="M39.3,31 C39.3,31 35.7,38 29.2,35.6 C29.2,35.7 31.6,29.4 39.3,31 Z"></path>
                                <path d="M25.9,21.5 C25.9,21.5 31.6,27 27.3,32.5 C27.3,32.5 22,28.3 25.9,21.5 Z"></path>
                                <path d="M33.4,39.3 C33.4,39.3 29,45.9 22.8,42.7 C22.9,42.7 26,36.8 33.4,39.3 Z"></path>
                                <path d="M22,28 C22,28 27,34.1 22.1,39.1 C22.1,39.1 17.3,34.3 22,28 Z"></path>
                                <path d="M42.7,21.6 C42.7,21.6 40.2,29.1 33.4,27.7 C33.4,27.7 34.9,21.1 42.7,21.6 Z"></path>
                                <path d="M28.4,13.4 C28.4,13.4 34.8,18 31.4,24.1 C31.4,24 25.5,20.7 28.4,13.4 Z"></path>
                                <path d="M33,0.9 C33,0.9 39.4,7.3 34.5,13.5 C34.5,13.5 28.4,8.6 33,0.9 Z"></path>
                                <path d="M44.4,11.9 C44.4,11.9 42.6,19.6 35.7,18.8 C35.8,18.9 36.6,12.2 44.4,11.9 Z"></path>
                                <path d="M25.4,47.3 C25.4,47.3 19.3,52.3 14.3,47.6 C14.3,47.6 19,42.7 25.4,47.3 Z"></path>
                                <path d="M17.7,33.2 C17.7,33.2 20.7,40.5 14.6,43.9 C14.6,43.9 11.4,37.9 17.7,33.2 Z"></path>
                                <path d="M15.5,52.3 C15.5,52.3 8.5,56 4.5,50.4 C4.5,50.4 10.1,46.6 15.5,52.3 Z"></path>
                                <path d="M10.7,37 C10.7,37 12.2,44.7 5.6,46.8 C5.6,46.8 3.6,40.4 10.7,37 Z"></path>
                            </g>
                            <g>
                                <path d="M44.7,49.3 C25.6,49.3 10,33.8 10,14.7 L10.7,14.7 C10.7,33.4 26,48.6 44.7,48.6 L44.7,49.3 Z"></path>
                                <path d="M5.5,31 C5.5,31 9.1,38 15.6,35.6 C15.6,35.7 13.2,29.4 5.5,31 Z"></path>
                                <path d="M18.9,21.5 C18.9,21.5 13.2,27 17.5,32.5 C17.5,32.5 22.8,28.3 18.9,21.5 Z"></path>
                                <path d="M11.4,39.3 C11.4,39.3 15.8,45.9 22,42.7 C21.9,42.7 18.8,36.8 11.4,39.3 Z"></path>
                                <path d="M22.8,28 C22.8,28 17.8,34.1 22.7,39.1 C22.7,39.1 27.5,34.3 22.8,28 Z"></path>
                                <path d="M2.1,21.6 C2.1,21.6 4.6,29.1 11.4,27.7 C11.4,27.7 9.9,21.1 2.1,21.6 Z"></path>
                                <path d="M16.4,13.4 C16.4,13.4 10,18 13.4,24.1 C13.4,24 19.3,20.7 16.4,13.4 Z"></path>
                                <path d="M11.8,0.9 C11.8,0.9 5.4,7.3 10.3,13.5 C10.3,13.5 16.4,8.6 11.8,0.9 Z"></path>
                                <path d="M0.4,11.9 C0.4,11.9 2.2,19.6 9.1,18.8 C9,18.9 8.2,12.2 0.4,11.9 Z"></path>
                                <path d="M19.4,47.3 C19.4,47.3 25.5,52.3 30.5,47.6 C30.5,47.6 25.8,42.7 19.4,47.3 Z"></path>
                                <path d="M27.1,33.2 C27.1,33.2 24.1,40.5 30.2,43.9 C30.2,43.9 33.4,37.9 27.1,33.2 Z"></path>
                                <path d="M29.3,52.3 C29.3,52.3 36.3,56 40.3,50.4 C40.3,50.4 34.7,46.6 29.3,52.3 Z"></path>
                                <path d="M34.1,37 C34.1,37 32.6,44.7 39.2,46.8 C39.2,46.8 41.2,40.4 34.1,37 Z"></path>
                            </g>
                        </g>
                    </g>
                </g>
            </g>
        </g>
    </g>
</svg>