<?xml version="1.0" encoding="UTF-8"?>
<svg width="226px" height="148px" viewBox="0 0 226 148" version="1.1" xmlns="http://www.w3.org/2000/svg" xmlns:xlink="http://www.w3.org/1999/xlink">
    <title>Group 2</title>
    <defs>
        <linearGradient x1="50%" y1="100%" x2="50%" y2="0%" id="linearGradient-1">
            <stop stop-color="#808080" stop-opacity="0.25" offset="0%"></stop>
            <stop stop-color="#808080" stop-opacity="0.12" offset="54%"></stop>
            <stop stop-color="#808080" stop-opacity="0.1" offset="100%"></stop>
        </linearGradient>
        <linearGradient x1="50%" y1="99.9764318%" x2="50%" y2="0%" id="linearGradient-2">
            <stop stop-color="#808080" stop-opacity="0.25" offset="0%"></stop>
            <stop stop-color="#808080" stop-opacity="0.12" offset="54%"></stop>
            <stop stop-color="#808080" stop-opacity="0.1" offset="100%"></stop>
        </linearGradient>
        <linearGradient x1="50%" y1="100%" x2="50%" y2="0%" id="linearGradient-3">
            <stop stop-color="#808080" stop-opacity="0.25" offset="0%"></stop>
            <stop stop-color="#808080" stop-opacity="0.12" offset="54%"></stop>
            <stop stop-color="#808080" stop-opacity="0.1" offset="100%"></stop>
        </linearGradient>
        <linearGradient x1="50%" y1="100%" x2="50%" y2="0%" id="linearGradient-4">
            <stop stop-color="#808080" stop-opacity="0.25" offset="0%"></stop>
            <stop stop-color="#808080" stop-opacity="0.12" offset="54%"></stop>
            <stop stop-color="#808080" stop-opacity="0.1" offset="100%"></stop>
        </linearGradient>
        <linearGradient x1="50%" y1="100%" x2="50%" y2="0%" id="linearGradient-5">
            <stop stop-color="#808080" stop-opacity="0.25" offset="0%"></stop>
            <stop stop-color="#808080" stop-opacity="0.12" offset="54%"></stop>
            <stop stop-color="#808080" stop-opacity="0.1" offset="100%"></stop>
        </linearGradient>
        <linearGradient x1="50%" y1="100%" x2="50%" y2="0%" id="linearGradient-6">
            <stop stop-color="#808080" stop-opacity="0.25" offset="0%"></stop>
            <stop stop-color="#808080" stop-opacity="0.12" offset="54%"></stop>
            <stop stop-color="#808080" stop-opacity="0.1" offset="100%"></stop>
        </linearGradient>
    </defs>
    <g id="Form" stroke="none" stroke-width="1" fill="none" fill-rule="evenodd">
        <g id="Tariff-finder-step1" transform="translate(-461.000000, -582.000000)" fill-rule="nonzero">
            <g id="Group-2" transform="translate(461.000000, 582.000000)">
                <g id="Group" opacity="0.7" transform="translate(11.688525, 42.628739)" fill="url(#linearGradient-1)">
                    <polygon id="Path" points="202.658399 104.646678 0.0618804271 104.646678 1.46450344 9.74960507 59.40521 0.158138869 141.321144 0.158138869 201.255776 6.95123464"></polygon>
                </g>
                <polygon id="Path" fill="#EEEEEE" points="211.541678 146.079062 14.5556516 146.079062 15.9582746 53.5746986 71.2793764 43.9832324 154.006632 43.9832324 210.139055 50.7763282"></polygon>
                <g id="Group" opacity="0.7" transform="translate(74.944073, 8.250724)" fill="url(#linearGradient-2)">
                    <rect id="Rectangle" x="0.34378015" y="0.57067505" width="14.7825465" height="29.1731836"></rect>
                </g>
                <g id="Group" opacity="0.7" transform="translate(0.000000, 43.316299)" fill="url(#linearGradient-3)">
                    <polygon id="Path" points="75.2809773 31.7996639 75.2809773 0.268148517 11.0697208 0.268148517 0.165014472 31.7996639 0.165014472 35.0311973 75.6866379 35.0311973 75.6866379 31.7996639"></polygon>
                </g>
                <polygon id="Path" fill="#4957B2" points="75.2878529 75.1503409 0.962584421 75.1503409 11.7504055 43.9832324 75.2878529 43.9832324"></polygon>
                <polygon id="Path" fill="#000000" opacity="0.1" points="75.2878529 75.1503409 0.962584421 75.1503409 11.7504055 43.9832324 75.2878529 43.9832324"></polygon>
                <rect id="Rectangle" fill="#4957B2" x="0.962584421" y="75.1503409" width="74.7240535" height="3.1971554"></rect>
                <g id="Group" opacity="0.7" transform="translate(148.513025, 42.628739)" fill="url(#linearGradient-4)">
                    <polygon id="Path" points="65.0844581 0.556923844 0.701311507 0.556923844 0.701311507 32.4459706 0.295650929 32.4459706 0.295650929 35.7187576 76.0235425 35.7187576 76.0235425 32.4459706"></polygon>
                </g>
                <polygon id="Path" fill="#4957B2" points="149.207461 75.1503409 223.532729 75.1503409 212.744908 43.9832324 149.207461 43.9832324"></polygon>
                <polygon id="Path" fill="#000000" opacity="0.1" points="149.207461 75.1503409 223.532729 75.1503409 212.744908 43.9832324 149.207461 43.9832324"></polygon>
                <rect id="Rectangle" fill="#4957B2" transform="translate(186.170703, 76.748919) rotate(-180.000000) translate(-186.170703, -76.748919) " x="148.808676" y="75.1503409" width="74.7240535" height="3.1971554"></rect>
                <rect id="Rectangle" fill="#4957B2" opacity="0.5" x="20.9430868" y="90.9367254" width="40.3597897" height="25.1715826"></rect>
                <rect id="Rectangle" fill="#000000" opacity="0.1" x="18.5435013" y="114.313776" width="45.152085" height="4.39351032"></rect>
                <rect id="Rectangle" fill="#535461" x="18.5435013" y="113.914991" width="45.152085" height="4.39351032"></rect>
                <g id="Group" opacity="0.1" transform="translate(20.626809, 90.757960)" fill="#000000">
                    <rect id="Rectangle" x="0.316277738" y="0.178765678" width="40.3597897" height="9.99025117"></rect>
                </g>
                <rect id="Rectangle" fill="#4957B2" opacity="0.5" x="163.598098" y="90.9367254" width="40.3597897" height="25.1715826"></rect>
                <rect id="Rectangle" fill="#000000" opacity="0.1" x="161.198513" y="114.313776" width="45.152085" height="4.39351032"></rect>
                <rect id="Rectangle" fill="#535461" x="161.198513" y="113.914991" width="45.152085" height="4.39351032"></rect>
                <g id="Group" opacity="0.1" transform="translate(162.951791, 90.757960)" fill="#000000">
                    <rect id="Rectangle" x="0.646306683" y="0.178765678" width="40.3597897" height="9.99025117"></rect>
                </g>
                <g id="Group" opacity="0.7" transform="translate(60.505306, 0.000000)" fill="url(#linearGradient-5)">
                    <polygon id="Path" points="101.160747 45.8533965 51.8695491 7.73505339 4.16661542 45.8258941 0.426287387 41.1436084 51.8145443 0.116885251 104.825443 41.116106"></polygon>
                </g>
                <rect id="Rectangle" fill="#000000" opacity="0.1" x="15.5457384" y="78.3474963" width="53.1484113" height="1"></rect>
                <rect id="Rectangle" fill="#000000" opacity="0.1" x="156.805002" y="78.3474963" width="53.7465887" height="1"></rect>
                <rect id="Rectangle" fill="#535461" x="75.6866379" y="9.22018363" width="13.9849765" height="28.767523"></rect>
                <g id="Group" opacity="0.7" transform="translate(66.693349, 35.065575)" fill="url(#linearGradient-6)">
                    <polygon id="Path" points="90.111653 111.013486 0.605053065 111.013486 0.605053065 1.52638387 45.7433868 0.529421432 90.111653 1.52638387"></polygon>
                </g>
                <polygon id="Path" fill="#FFFFFF" points="155.801164 146.079062 68.6941497 146.079062 68.6941497 36.5919592 112.251095 5.62424326 155.801164 36.5919592"></polygon>
                <rect id="Rectangle" fill="#535461" x="101.257006" y="109.315212" width="21.9744272" height="36.7638493"></rect>
                <circle id="Oval" fill="#E0E0E0" cx="120.242612" cy="128.262589" r="1.37324202"></circle>
                <rect id="Rectangle" fill="#000000" opacity="0.1" x="89.6716144" y="76.3535714" width="45.152085" height="4.39351032"></rect>
                <rect id="Rectangle" fill="#4957B2" opacity="0.5" x="92.0711999" y="52.9765212" width="40.3597897" height="25.1715826"></rect>
                <rect id="Rectangle" fill="#535461" x="89.6716144" y="75.9547864" width="45.152085" height="4.39351032"></rect>
                <g id="Group" opacity="0.1" transform="translate(91.445520, 52.942143)" fill="#000000">
                    <rect id="Rectangle" x="0.625679874" y="0.034378015" width="40.3597897" height="9.99025117"></rect>
                </g>
                <polygon id="Path" fill="#4957B2" points="161.666054 46.2521814 112.374856 8.13383836 64.6719219 46.224679 60.9315939 41.5423934 112.319851 0.515670226 165.33075 41.514891"></polygon>
            </g>
        </g>
    </g>
</svg>


