<?xml version="1.0" encoding="UTF-8"?>
<svg width="1156px" height="2964px" viewBox="0 0 1156 2964" version="1.1" xmlns="http://www.w3.org/2000/svg" xmlns:xlink="http://www.w3.org/1999/xlink">
    <title>Group 2</title>
    <defs>
        <path d="M12,9 C11.448,9 11,8.552 11,8 C11,7.448 11.448,7 12,7 C12.552,7 13,7.448 13,8 C13,8.552 12.552,9 12,9 L12,9 Z M13,16 C13,16.552 12.552,17 12,17 C11.448,17 11,16.552 11,16 L11,11 C11,10.448 11.448,10 12,10 C12.552,10 13,10.448 13,11 L13,16 Z M12,2 C6.477,2 2,6.477 2,12 C2,17.523 6.477,22 12,22 C17.522,22 22,17.523 22,12 C22,6.477 17.522,2 12,2 L12,2 Z" id="path-1"></path>
        <linearGradient x1="103.216871%" y1="36.0674737%" x2="0%" y2="36.0674737%" id="linearGradient-3">
            <stop stop-color="#77BD3E" offset="0.00273164336%"></stop>
            <stop stop-color="#AFD88B" offset="100%"></stop>
        </linearGradient>
        <linearGradient x1="100%" y1="75.2432938%" x2="0%" y2="75.2432938%" id="linearGradient-4">
            <stop stop-color="#547FBD" offset="0%"></stop>
            <stop stop-color="#002961" offset="100%"></stop>
        </linearGradient>
        <path d="M15.8333333,15 C15.8333333,15.46 15.46,15.8333333 15,15.8333333 C14.54,15.8333333 14.1666667,15.46 14.1666667,15 C14.1666667,14.54 14.54,14.1666667 15,14.1666667 C15.46,14.1666667 15.8333333,14.54 15.8333333,15 L15.8333333,15 Z M10,12.5 L3.33333333,12.5 L3.34666667,4.16666667 L12.5,4.16666667 L12.4866667,12.5 L10,12.5 Z M5.83333333,15 C5.83333333,15.46 5.46,15.8333333 5,15.8333333 C4.54,15.8333333 4.16666667,15.46 4.16666667,15 C4.16666667,14.54 4.54,14.1666667 5,14.1666667 C5.46,14.1666667 5.83333333,14.54 5.83333333,15 L5.83333333,15 Z M16.6666667,10.4 L16.6666667,12.5 L14.1666667,12.5 L14.1666667,8.40083333 L16.6666667,10.4 Z M18.0208333,9.34916667 L14.1666667,6.26583333 L14.1666667,4.16666667 C14.1666667,3.2475 13.4891667,2.5 12.6558333,2.5 L3.17666667,2.5 C2.34416667,2.5 1.66666667,3.2475 1.66666667,4.16666667 L1.66666667,12.5 C1.66666667,13.2275 2.09416667,13.8408333 2.68416667,14.0683333 C2.5675,14.3566667 2.5,14.67 2.5,15 C2.5,16.3783333 3.62166667,17.5 5,17.5 C6.37833333,17.5 7.5,16.3783333 7.5,15 C7.5,14.7058333 7.44,14.4283333 7.34583333,14.1666667 L10,14.1666667 L12.6541667,14.1666667 C12.56,14.4283333 12.5,14.7058333 12.5,15 C12.5,16.3783333 13.6216667,17.5 15,17.5 C16.3783333,17.5 17.5,16.3783333 17.5,15 C17.5,14.7058333 17.44,14.4283333 17.3458333,14.1666667 L17.5,14.1666667 C17.9608333,14.1666667 18.3333333,13.7941667 18.3333333,13.3333333 L18.3333333,10 C18.3333333,9.74666667 18.2183333,9.5075 18.0208333,9.34916667 L18.0208333,9.34916667 Z" id="path-5"></path>
        <rect id="path-7" x="0" y="0" width="1102" height="1"></rect>
        <rect id="path-9" x="0" y="0" width="1102" height="1"></rect>
        <rect id="path-11" x="0" y="0" width="1102" height="1"></rect>
        <rect id="path-13" x="0" y="0" width="1102" height="1"></rect>
        <rect id="path-15" x="0" y="0" width="1102" height="1"></rect>
        <rect id="path-17" x="0" y="0" width="1102" height="1"></rect>
        <rect id="path-19" x="0" y="0" width="1102" height="1"></rect>
        <rect id="path-21" x="0" y="0" width="1102" height="1"></rect>
        <rect id="path-23" x="0" y="0" width="1102" height="1"></rect>
        <rect id="path-25" x="0" y="0" width="1102" height="1"></rect>
        <rect id="path-27" x="0" y="0" width="1102" height="1"></rect>
        <rect id="path-29" x="0" y="0" width="1102" height="1"></rect>
        <rect id="path-31" x="0" y="0" width="1102" height="1"></rect>
        <polygon id="path-33" points="0.67545 0.0049 17.67545 0.0049 17.67545 16.8450805 0.67545 16.8450805"></polygon>
        <polygon id="path-35" points="0.3275 0.4839 26.3275 0.4839 26.3275 17.3240805 0.3275 17.3240805"></polygon>
        <polygon id="path-37" points="0.3275 0.9629 26.3275 0.9629 26.3275 17.8030805 0.3275 17.8030805"></polygon>
        <polygon id="path-39" points="0.3275 0.4419 26.3275 0.4419 26.3275 17.2819805 0.3275 17.2819805"></polygon>
        <polygon id="path-41" points="0.3275 0.9209 26.3275 0.9209 26.3275 17.7609805 0.3275 17.7609805"></polygon>
        <polygon id="path-43" points="0.97955 0.3999 34.97955 0.3999 34.97955 17.2399805 0.97955 17.2399805"></polygon>
        <polygon id="path-45" points="0.1102 0.4462 21.1102 0.4462 21.1102 17.2862805 0.1102 17.2862805"></polygon>
        <polygon id="path-47" points="0.8395 0.4462 25.8395 0.4462 25.8395 17.2862805 0.8395 17.2862805"></polygon>
        <polygon id="path-49" points="0.1213 0.4462 28.1213 0.4462 28.1213 17.2862805 0.1213 17.2862805"></polygon>
        <polygon id="path-51" points="0.2546 0.4462 25.2546 0.4462 25.2546 17.2862805 0.2546 17.2862805"></polygon>
        <polygon id="path-53" points="0.5739 0.4462 29.5739 0.4462 29.5739 17.2862805 0.5739 17.2862805"></polygon>
        <polygon id="path-55" points="0.5679 0.4462 22.5679 0.4462 22.5679 17.2862805 0.5679 17.2862805"></polygon>
        <polygon id="path-57" points="0.7777 0.4462 17.7777 0.4462 17.7777 17.2862805 0.7777 17.2862805"></polygon>
        <polygon id="path-59" points="0.5306 0.4462 27.5306 0.4462 27.5306 17.2862805 0.5306 17.2862805"></polygon>
        <polygon id="path-61" points="0.6303 0.4462 26.6303 0.4462 26.6303 17.2862805 0.6303 17.2862805"></polygon>
        <polygon id="path-63" points="0.0436 0.4462 24.0436 0.4462 24.0436 17.2862805 0.0436 17.2862805"></polygon>
        <polygon id="path-65" points="0.9332 0.4462 27.9332 0.4462 27.9332 17.2862805 0.9332 17.2862805"></polygon>
        <polygon id="path-67" points="0.04 0.4462 26.04 0.4462 26.04 17.2862805 0.04 17.2862805"></polygon>
        <path d="M28.6022,0 C31.0666,0 32.5451,0 33.5309,0.4115 C34.9519,0.9287 36.0713,2.0481 36.5885,3.4691 C37,4.4549 37,5.9334 37,8.3978 L37,157 L0,157 L0.0004115,7.6875638 C0.004115,5.642627 0.04115,4.35632 0.4115,3.4691 C0.9287,2.0481 2.0481,0.9287 3.4691,0.4115 C4.4549,0 5.9334,0 8.3978,0 L28.6022,0 Z" id="path-69"></path>
        <path d="M28.6022,0 C31.0666,0 32.5451,0 33.5309,0.4115 C34.9519,0.9287 36.0713,2.0481 36.5885,3.4691 C37,4.4549 37,5.9334 37,8.3978 L37,172 L0,172 L0.0004115,7.6875638 C0.004115,5.642627 0.04115,4.35632 0.4115,3.4691 C0.9287,2.0481 2.0481,0.9287 3.4691,0.4115 C4.4549,0 5.9334,0 8.3978,0 L28.6022,0 Z" id="path-71"></path>
        <path d="M28.6022,0 C31.0666,0 32.5451,0 33.5309,0.4115 C34.9519,0.9287 36.0713,2.0481 36.5885,3.4691 C37,4.4549 37,5.9334 37,8.3978 L37,242 L0,242 L0.0004115,7.6875638 C0.004115,5.642627 0.04115,4.35632 0.4115,3.4691 C0.9287,2.0481 2.0481,0.9287 3.4691,0.4115 C4.4549,0 5.9334,0 8.3978,0 L28.6022,0 Z" id="path-73"></path>
        <path d="M28.6022,0 C31.0666,0 32.5451,0 33.5309,0.4115 C34.9519,0.9287 36.0713,2.0481 36.5885,3.4691 C37,4.4549 37,5.9334 37,8.3978 L37,177 L0,177 L0.0004115,7.6875638 C0.004115,5.642627 0.04115,4.35632 0.4115,3.4691 C0.9287,2.0481 2.0481,0.9287 3.4691,0.4115 C4.4549,0 5.9334,0 8.3978,0 L28.6022,0 Z" id="path-75"></path>
        <path d="M29.3753,0 C31.9062,0 33.4247,0 34.4371,0.4227 C35.8965,0.9538 37.0462,2.1035 37.5773,3.5629 C38,4.5753 38,6.0938 38,8.6247 L38,157 L0,157 L0,7.92869665 C0.00383401361,5.80915238 0.0402571429,4.47888095 0.4227,3.5629 C0.9538,2.1035 2.1035,0.9538 3.5629,0.4227 C4.5753,0 6.0938,0 8.6247,0 L29.3753,0 Z" id="path-77"></path>
        <path d="M28.6022,0 C31.0666,0 32.5451,0 33.5309,0.4115 C34.9519,0.9287 36.0713,2.0481 36.5885,3.4691 C37,4.4549 37,5.9334 37,8.3978 L37,145 L0,145 L0.0004115,7.6875638 C0.004115,5.642627 0.04115,4.35632 0.4115,3.4691 C0.9287,2.0481 2.0481,0.9287 3.4691,0.4115 C4.4549,0 5.9334,0 8.3978,0 L28.6022,0 Z" id="path-79"></path>
        <path d="M29.3753,0 C31.9062,0 33.4247,0 34.4371,0.4227 C35.8965,0.9538 37.0462,2.1035 37.5773,3.5629 C38,4.5753 38,6.0938 38,8.6247 L38,130 L0,130 L0,7.92869665 C0.00383401361,5.80915238 0.0402571429,4.47888095 0.4227,3.5629 C0.9538,2.1035 2.1035,0.9538 3.5629,0.4227 C4.5753,0 6.0938,0 8.6247,0 L29.3753,0 Z" id="path-81"></path>
        <path d="M28.6022,0 C31.0666,0 32.5451,0 33.5309,0.4115 C34.9519,0.9287 36.0713,2.0481 36.5885,3.4691 C37,4.4549 37,5.9334 37,8.3978 L37,108 L0,108 L0.0004115,7.6875638 C0.004115,5.642627 0.04115,4.35632 0.4115,3.4691 C0.9287,2.0481 2.0481,0.9287 3.4691,0.4115 C4.4549,0 5.9334,0 8.3978,0 L28.6022,0 Z" id="path-83"></path>
        <path d="M28.6022,0 C31.0666,0 32.5451,0 33.5309,0.4115 C34.9519,0.9287 36.0713,2.0481 36.5885,3.4691 C37,4.4549 37,5.9334 37,8.3978 L37,115 L0,115 L0.0004115,7.6875638 C0.004115,5.642627 0.04115,4.35632 0.4115,3.4691 C0.9287,2.0481 2.0481,0.9287 3.4691,0.4115 C4.4549,0 5.9334,0 8.3978,0 L28.6022,0 Z" id="path-85"></path>
        <path d="M28.6022,0 C31.0666,0 32.5451,0 33.5309,0.4115 C34.9519,0.9287 36.0713,2.0481 36.5885,3.4691 C37,4.4549 37,5.9334 37,8.3978 L37,125 L0,125 L0.0004115,7.6875638 C0.004115,5.642627 0.04115,4.35632 0.4115,3.4691 C0.9287,2.0481 2.0481,0.9287 3.4691,0.4115 C4.4549,0 5.9334,0 8.3978,0 L28.6022,0 Z" id="path-87"></path>
        <path d="M28.6022,0 C31.0666,0 32.5451,0 33.531,0.4115 C34.952,0.9287 36.071,2.0481 36.588,3.4691 C37,4.4549 37,5.9334 37,8.3978 L37,145 L0,145 L0.0004115,7.6875638 C0.004115,5.642627 0.04115,4.35632 0.4115,3.4691 C0.9287,2.0481 2.0481,0.9287 3.4691,0.4115 C4.4549,0 5.9334,0 8.3978,0 L28.6022,0 Z" id="path-89"></path>
        <path d="M29.375,0 C31.906,0 33.425,0 34.437,0.4227 C35.897,0.9538 37.046,2.1035 37.577,3.5629 C38,4.5753 38,6.0938 38,8.6247 L38,153 L0,153 L0,7.92869665 C0.00383673469,5.80915238 0.0402857143,4.47888095 0.423,3.5629 C0.954,2.1035 2.103,0.9538 3.563,0.4227 C4.575,0 6.094,0 8.625,0 L29.375,0 Z" id="path-91"></path>
        <polygon id="path-93" points="4.00000005e-07 -3.1e-05 16 -3.1e-05 16 0.999969 4.00000005e-07 0.999969"></polygon>
        <path d="M12,15.5 C11.744,15.5 11.488,15.402 11.293,15.207 L7.293,11.207 C6.902,10.816 6.902,10.184 7.293,9.793 C7.684,9.402 8.316,9.402 8.707,9.793 L12.012,13.098 L15.305,9.918 C15.704,9.535 16.335,9.546 16.719,9.943 C17.103,10.34 17.092,10.974 16.695,11.357 L12.695,15.219 C12.5,15.407 12.25,15.5 12,15.5" id="path-95"></path>
        <path d="M12,9 C11.448,9 11,8.552 11,8 C11,7.448 11.448,7 12,7 C12.552,7 13,7.448 13,8 C13,8.552 12.552,9 12,9 L12,9 Z M13,16 C13,16.552 12.552,17 12,17 C11.448,17 11,16.552 11,16 L11,11 C11,10.448 11.448,10 12,10 C12.552,10 13,10.448 13,11 L13,16 Z M12,2 C6.477,2 2,6.477 2,12 C2,17.523 6.477,22 12,22 C17.522,22 22,17.523 22,12 C22,6.477 17.522,2 12,2 L12,2 Z" id="path-97"></path>
    </defs>
    <g id="2.-Results-Journey" stroke="none" stroke-width="1" fill="none" fill-rule="evenodd">
        <g id="STSC-Results3" transform="translate(-381.000000, -302.000000)">
            <g id="Group-2" transform="translate(381.250000, 302.000000)">
                <rect id="Rectangle" fill="#F7F9FC" x="1.75" y="0" width="1153" height="64"></rect>
                <text id="SSE-Online-Energy-4" font-family="Helvetica" font-size="26" font-weight="normal" line-spacing="32" fill="#222B45">
                    <tspan x="25.75" y="40">SSE Online Energy 4</tspan>
                </text>
                <rect id="Rectangle" fill="#FFFFFF" x="1" y="73.5" width="1153" height="354" rx="2"></rect>
                <rect id="Rectangle" fill="#FFFFFF" x="1" y="1385.88603" width="1153" height="1123" rx="2"></rect>
                <rect id="Rectangle" fill="#F7F9FC" x="1.75" y="73.5" width="1153" height="64"></rect>
                <text id="Overview" font-family="Helvetica" font-size="18" font-weight="normal" line-spacing="24" fill="#222B45">
                    <tspan x="26.25" y="112">Overview</tspan>
                </text>
                <rect id="Rectangle" fill="#F7F9FC" x="1" y="1385.88603" width="1153" height="64"></rect>
                <text id="Features" font-family="Helvetica" font-size="18" font-weight="normal" line-spacing="24" fill="#222B45">
                    <tspan x="25.5" y="1431.46638">Features</tspan>
                </text>
                <rect id="Rectangle" fill="#FFFFFF" x="0" y="474.5" width="1153" height="499" rx="2"></rect>
                <rect id="Rectangle" fill="#F7F9FC" x="1" y="474.5" width="1153" height="64"></rect>
                <text id="Forecast-tariff-perf" font-family="Helvetica" font-size="18" font-weight="normal" line-spacing="24" fill="#222B45">
                    <tspan x="25.5" y="512.080348">Forecast tariff performance</tspan>
                </text>
                <rect id="Rectangle" fill="#FFFFFF" x="0" y="1014.5" width="1153" height="310" rx="2"></rect>
                <g id="01)-Button:-Text/4)-48px---Large/1)-Filled/1)-Primary" transform="translate(870.250000, 349.372177)">
                    <g id="Setup/Button-Background-Color/-1)-Fill/-2)-Primary" fill="#6574CF" fill-rule="evenodd">
                        <g id="Setup/Button-Shape/-Background">
                            <path d="M5.1277704,-2.07168062e-16 L245.87223,2.07168062e-16 C247.655267,-1.2037061e-16 248.30184,0.185651222 248.953691,0.534265408 C249.605543,0.882879593 250.11712,1.39445674 250.465735,2.04630859 C250.814349,2.69816044 251,3.34473292 251,5.1277704 L251,42.8722296 C251,44.6552671 250.814349,45.3018396 250.465735,45.9536914 C250.11712,46.6055433 249.605543,47.1171204 248.953691,47.4657346 C248.30184,47.8143488 247.655267,48 245.87223,48 L5.1277704,48 C3.34473292,48 2.69816044,47.8143488 2.04630859,47.4657346 C1.39445674,47.1171204 0.882879593,46.6055433 0.534265408,45.9536914 C0.185651222,45.3018396 8.02470732e-17,44.6552671 -1.38112041e-16,42.8722296 L1.38112041e-16,5.1277704 C-8.02470732e-17,3.34473292 0.185651222,2.69816044 0.534265408,2.04630859 C0.882879593,1.39445674 1.39445674,0.882879593 2.04630859,0.534265408 C2.69816044,0.185651222 3.34473292,1.2037061e-16 5.1277704,-2.07168062e-16 Z" id="🎨-Background"></path>
                        </g>
                    </g>
                    <text id="↪︎🖋Content" font-family="Helvetica" font-size="16" font-weight="normal" line-spacing="20" fill="#FFFFFF">
                        <tspan x="50.2109375" y="29">VIEW SUPPLIER TO </tspan>
                        <tspan x="93.9492188" y="49">SWITCH</tspan>
                    </text>
                </g>
                <rect id="Rectangle" fill="#F7F9FC" x="1" y="1014.5" width="1153" height="64"></rect>
                <text id="Compare-forecast-to" font-family="Helvetica" font-size="18" font-weight="normal" line-spacing="24" fill="#222B45">
                    <tspan x="25.5" y="1052.08035">Compare forecast to actual</tspan>
                </text>
                <g id="27)-Icon/info-fill" transform="translate(1109.701731, 96.000000)">
                    <mask id="mask-2" fill="white">
                        <use xlink:href="#path-1"></use>
                    </mask>
                    <use id="🎨-Icon-Сolor" fill="#8F9BB3" fill-rule="evenodd" xlink:href="#path-1"></use>
                </g>
                <g id="01)-Button:-Text/4)-48px---Large/1)-Filled/1)-Primary" transform="translate(565.857842, 1226.023433)">
                    <g id="Setup/Button-Background-Color/-1)-Fill/-2)-Primary" fill="#6574CF" fill-rule="evenodd">
                        <g id="Setup/Button-Shape/-Background">
                            <path d="M5.1277704,-2.07168062e-16 L174.87223,2.07168062e-16 C176.655267,-1.2037061e-16 177.30184,0.185651222 177.953691,0.534265408 C178.605543,0.882879593 179.11712,1.39445674 179.465735,2.04630859 C179.814349,2.69816044 180,3.34473292 180,5.1277704 L180,42.8722296 C180,44.6552671 179.814349,45.3018396 179.465735,45.9536914 C179.11712,46.6055433 178.605543,47.1171204 177.953691,47.4657346 C177.30184,47.8143488 176.655267,48 174.87223,48 L5.1277704,48 C3.34473292,48 2.69816044,47.8143488 2.04630859,47.4657346 C1.39445674,47.1171204 0.882879593,46.6055433 0.534265408,45.9536914 C0.185651222,45.3018396 8.02470732e-17,44.6552671 -1.38112041e-16,42.8722296 L1.38112041e-16,5.1277704 C-8.02470732e-17,3.34473292 0.185651222,2.69816044 0.534265408,2.04630859 C0.882879593,1.39445674 1.39445674,0.882879593 2.04630859,0.534265408 C2.69816044,0.185651222 3.34473292,1.2037061e-16 5.1277704,-2.07168062e-16 Z" id="🎨-Background"></path>
                        </g>
                    </g>
                    <text id="↪︎🖋Content" font-family="Helvetica" font-size="16" font-weight="normal" line-spacing="20" fill="#FFFFFF">
                        <tspan x="58.140625" y="29">CREATE </tspan>
                        <tspan x="50.4453125" y="49">ACCOUNT</tspan>
                    </text>
                </g>
                <g id="sse" transform="translate(33.250000, 172.862736)" fill-rule="nonzero">
                    <path d="M8.82321429,17.91875 L20.5330357,17.91875 L20.5330357,4.30267857 L16.4482143,1.57946429 L13.725,0.580952381 L11.8005952,0.108928571 L11.9276786,0.181547619 C12.9625,0.490178571 14.7053571,1.21636905 14.7053571,2.72321429 C14.7053571,8.06071429 0,7.87916667 0,18.4452381 C0,27.4681548 9.45863095,29.8282738 12.2363095,30.3366071 L12.3633929,30.3184524 L8.82321429,29.0839286 L8.82321429,17.91875 Z" id="Path" fill="url(#linearGradient-3)"></path>
                    <path d="M24.1276786,11.9821429 C24.1276786,2.99553571 14.7053571,0.617261905 11.9276786,0.127083333 C11.8798788,0.116188752 11.8302403,0.116188752 11.7824405,0.127083333 C13.8157738,0.544642857 20.4604167,2.4327381 20.4604167,7.44345238 C20.4604167,14.5419643 3.68541667,15.8127976 3.68541667,22.9294643 C3.68541667,27.9401786 10.3300595,29.8282738 12.3633929,30.2821429 C12.3633929,30.2821429 12.3452381,30.2276786 12.2363095,30.2095238 C11.2014881,29.9008929 9.44047619,29.1565476 9.44047619,27.6497024 C9.44047619,22.3485119 24.1276786,22.5300595 24.1276786,11.9639881 L24.1276786,11.9821429 Z" id="Path" fill="url(#linearGradient-4)"></path>
                    <path d="M31.335119,11.8369048 C31.335119,10.6386905 32.3699405,10.0577381 33.6952381,10.0577381 C35.0205357,10.0577381 35.9645833,10.5479167 36.5636905,10.8565476 C37.0357143,11.128869 37.4714286,11.05625 37.7800595,10.5479167 L38.0342262,10.1485119 C38.3247024,9.64017857 38.2339286,9.24077381 37.7255952,8.9139881 C36.5636158,8.18176094 35.213755,7.80329528 33.8404762,7.82470238 C31.0809524,7.82470238 28.7571429,9.22261905 28.7571429,11.891369 C28.7571429,16.6479167 36.0190476,15.7401786 36.0190476,18.4815476 C36.0190476,19.6797619 35.002381,20.3514881 33.6044643,20.3514881 C31.9705357,20.3514881 30.808631,19.6252976 30.1550595,19.2077381 C29.6830357,18.8991071 29.2473214,18.9172619 28.8842262,19.4074405 L28.6119048,19.7886905 C28.285119,20.2607143 28.3395833,20.6964286 28.7934524,21.0595238 C30.162236,22.0616355 31.8173249,22.5963565 33.5136905,22.5845238 C36.5636905,22.5845238 38.5970238,20.8235119 38.5970238,18.4270833 C38.5970238,13.652381 31.335119,14.6508929 31.335119,11.8369048 M42.9541667,11.8369048 C42.9541667,10.6386905 43.9708333,10.0577381 45.3142857,10.0577381 C46.6577381,10.0577381 47.583631,10.5479167 48.1827381,10.8565476 C48.6547619,11.128869 49.0904762,11.05625 49.3991071,10.5479167 L49.6532738,10.1485119 C49.94375,9.64017857 49.8529762,9.24077381 49.3446429,8.9139881 C48.1826634,8.18176094 46.8328026,7.80329528 45.4595238,7.82470238 C42.7,7.82470238 40.3761905,9.22261905 40.3761905,11.891369 C40.3761905,16.6479167 47.6380952,15.7401786 47.6380952,18.4815476 C47.6380952,19.6797619 46.6214286,20.3514881 45.2235119,20.3514881 C43.5895833,20.3514881 42.4276786,19.6252976 41.7741071,19.2077381 C41.3020833,18.8991071 40.866369,18.9172619 40.5032738,19.4074405 L40.2309524,19.7886905 C39.9041667,20.2607143 39.958631,20.6964286 40.4125,21.0595238 C41.7812836,22.0616355 43.4363725,22.5963565 45.1327381,22.5845238 C48.1827381,22.5845238 50.2160714,20.8235119 50.2160714,18.4270833 C50.2160714,13.652381 42.9541667,14.6508929 42.9541667,11.8369048 M58.33125,7.82470238 C54.5005952,7.82470238 51.6502976,10.7294643 51.6502976,15.1955357 C51.6502976,19.371131 54.5550595,22.5845238 58.785119,22.5845238 C60.4183992,22.5694214 62.0058039,22.042403 63.3238095,21.0776786 C63.7958333,20.7327381 63.8684524,20.3333333 63.596131,19.8431548 L63.360119,19.4255952 C63.0877976,18.9535714 62.5613095,18.8083333 62.1619048,19.135119 C61.2344844,19.8471131 60.0995456,20.2360528 58.9303571,20.2425595 C56.6065476,20.2425595 54.3553571,18.7901786 54.1375,15.7401786 L63.2511905,15.7401786 C63.7232143,15.7401786 64.1407738,15.5041667 64.2315476,15.0502976 L64.2315476,15.0321429 C64.2448437,14.9725717 64.2509389,14.9116196 64.2497024,14.8505952 C64.2497024,11.0380952 62.2526786,7.82470238 58.33125,7.82470238 L58.33125,7.82470238 Z M54.210119,13.7068452 C54.3362087,11.5724636 56.1207809,9.91593242 58.258631,9.94880952 C60.7639881,9.94880952 61.8895833,12.1636905 61.8895833,13.7068452 L54.210119,13.7068452 Z" id="Shape" fill="#004586"></path>
                </g>
                <text id="SSE-is-now-part-of-t" font-family="Helvetica" font-size="18" font-weight="normal" line-spacing="24" fill="#222B45">
                    <tspan x="227.25" y="263.372177">SSE is now part of the OVO family, one of the UK's leading energy </tspan>
                    <tspan x="227.25" y="287.372177">companies, and is counted as one of the Big Six energy suppliers. With </tspan>
                    <tspan x="227.25" y="311.372177">SSE, you can spread the cost of energy and save money through paying by </tspan>
                    <tspan x="227.25" y="335.372177">Direct Debit, and you can get presale tickets or access to big events </tspan>
                    <tspan x="227.25" y="359.372177">through SSE Reward. Switching is easy, and SSE promises to complete </tspan>
                    <tspan x="227.25" y="383.372177">your switch in no more than 21 days.</tspan>
                </text>
                <text id="If-you-switch-to-&lt;ta" font-family="Helvetica" font-size="18" font-weight="normal" line-spacing="24" fill="#222B45">
                    <tspan x="26.25" y="1111.44308">If you switch to &lt;tariff name&gt; you can compare your actual data to the tariff forecast to better understand usage behaviour.</tspan>
                    <tspan x="26.25" y="1135.44308"></tspan>
                    <tspan x="26.25" y="1159.44308">Start by adding a password to your account, so you can access Smart Tariff, Smart Comparison at any time.</tspan>
                </text>
                <rect id="Rectangle" fill="#FFFFFF" x="1" y="2570.27206" width="1153" height="393" rx="2"></rect>
                <rect id="Rectangle" fill="#F7F9FC" x="1" y="2570.27206" width="1153" height="64"></rect>
                <text id="Electricity-and-Gas" font-family="Helvetica" font-size="18" font-weight="normal" line-spacing="24" fill="#222B45">
                    <tspan x="25.5" y="2606.6873">Electricity and Gas information</tspan>
                </text>
                <text id="SSE's-Online-Energy" font-family="Helvetica" font-size="18" font-weight="normal" line-spacing="24" fill="#222B45">
                    <tspan x="25.7515869" y="2680.17786">SSE's Online Energy v4 prices are fixed for 12 months beginning on the day SSE starts supplying your energy. In order for you to receive </tspan>
                    <tspan x="25.7515869" y="2704.17786">paperless billing you'll need to provide a valid email address. There is a cancellation fee of £30 per fuel if customers leave this tariff after </tspan>
                    <tspan x="25.7515869" y="2728.17786">the supply start date and 49 days prior to the tariff end date. After this date you will switch to their cheapest standard variable tariff. SSE </tspan>
                    <tspan x="25.7515869" y="2752.17786">will write to you between 42 and 49 days before the fixed end date to remind you of this and advise you of their relevant cheapest tariff at </tspan>
                    <tspan x="25.7515869" y="2776.17786">this time based on your estimated annual consumption and your chosen payment method. Customers can sign up for free to SSE </tspan>
                    <tspan x="25.7515869" y="2800.17786">Reward. Members can access exclusive presales for events across the UK up to 48 hours before general sale (subject to availability), free </tspan>
                    <tspan x="25.7515869" y="2824.17786">upgrades into SSE's Reward Lounges and regular chances to win prizes. By signing up to this tariff you are agreeing to have a Smart </tspan>
                    <tspan x="25.7515869" y="2848.17786">Meter installed in your property. This means SSE will contact you to arrange a suitable installation date. Your first Direct Debit payment will </tspan>
                    <tspan x="25.7515869" y="2872.17786">be taken within your first week on supply. SSE will let you know the payment date about 14 days before they take it. You'll be able to </tspan>
                    <tspan x="25.7515869" y="2896.17786">change your Direct Debit payment date in your online account after your first payment.</tspan>
                </text>
                <g id="Group" transform="translate(31.250000, 258.372177)">
                    <circle id="Oval" fill="#222C45" cx="56" cy="56" r="56"></circle>
                    <path d="M33.3116105,28.3263136 C34.1830611,28.3263136 34.9337686,28.1766971 35.5637329,27.8774641 C36.1936972,27.578231 36.674045,27.1713791 37.0047763,26.6569082 C37.3355075,26.1424374 37.5008732,25.5649701 37.5008732,24.9245064 C37.5008732,24.1790486 37.3250081,23.5674583 36.973278,23.0897353 C36.621548,22.6120124 36.2120712,22.2497829 35.7448476,22.0030469 C35.2776241,21.7563109 34.6870326,21.50695 33.973073,21.2549643 C33.4061051,21.0554756 32.9887538,20.8796105 32.721019,20.7273692 C32.4532841,20.5751278 32.3194167,20.3782639 32.3194167,20.1367776 C32.3194167,19.9582877 32.366664,19.8244203 32.4611587,19.7351754 C32.5556533,19.6459304 32.6763965,19.601308 32.8233882,19.601308 C33.2538638,19.601308 33.4953501,19.8952913 33.5478471,20.483258 L33.5478471,20.483258 L37.3118839,20.483258 C37.238388,19.317824 36.8079124,18.4253746 36.020457,17.8059097 C35.2330016,17.1864448 34.1725617,16.8767123 32.8391373,16.8767123 C32.0306831,16.8767123 31.3035993,17.0079549 30.6578858,17.27044 C30.0121724,17.5329252 29.5029513,17.9187783 29.1302224,18.4279994 C28.7574935,18.9372206 28.5711291,19.5540606 28.5711291,20.2785196 C28.5711291,21.0344768 28.7443693,21.648692 29.0908496,22.1211652 C29.43733,22.5936384 29.844182,22.9506182 30.3114055,23.1921045 C30.778629,23.4335908 31.3639708,23.6698275 32.067431,23.9008144 C32.6658971,24.1003031 33.0989975,24.2761681 33.3667324,24.4284095 C33.6344672,24.5806509 33.7683346,24.7880141 33.7683346,25.0504992 C33.7683346,25.2289891 33.7132127,25.3654814 33.602969,25.459976 C33.4927252,25.5544707 33.3483584,25.601718 33.1698685,25.601718 C32.6553977,25.601718 32.3719137,25.2814861 32.3194167,24.6410224 L32.3194167,24.6410224 L28.6026273,24.6410224 C28.6761231,25.848454 29.1459715,26.7645271 30.0121724,27.3892417 C30.8783734,28.0139563 31.978186,28.3263136 33.3116105,28.3263136 Z M41.6631373,28.2160699 L41.6631373,22.6566349 L43.37979,28.2160699 L46.3721205,28.2160699 L48.0887732,22.6566349 L48.0887732,28.2160699 L51.569326,28.2160699 L51.569326,17.0657016 L47.3013179,17.0657016 L44.9074535,23.7590724 L42.4505927,17.0657016 L38.1668354,17.0657016 L38.1668354,28.2160699 L41.6631373,28.2160699 Z M55.4638554,28.2160699 L56.0150741,26.5309154 L59.7318636,26.5309154 L60.2830823,28.2160699 L63.9683735,28.2160699 L59.9051037,17.0657016 L55.8733322,17.0657016 L51.7943133,28.2160699 L55.4638554,28.2160699 Z M58.8814117,23.9008144 L56.865526,23.9008144 L57.8734688,20.7982401 L58.8814117,23.9008144 Z M67.6896627,28.2160699 L67.6896627,24.2157965 L69.8000431,28.2160699 L73.6428254,28.2160699 L71.2174628,23.9480617 C71.9944188,23.696076 72.59026,23.2813495 73.0049865,22.7038822 C73.419713,22.1264149 73.6270763,21.4649524 73.6270763,20.7194946 C73.6270763,20.0265339 73.4669603,19.4044441 73.1467285,18.8532253 C72.8264966,18.3020066 72.3461488,17.8662813 71.7056851,17.5460494 C71.0652214,17.2258175 70.2935151,17.0657016 69.3905663,17.0657016 L69.3905663,17.0657016 L64.1933607,17.0657016 L64.1933607,28.2160699 L67.6896627,28.2160699 Z M69.0755841,21.8849286 L67.6896627,21.8849286 L67.6896627,19.9950357 L69.0755841,19.9950357 C69.4010657,19.9950357 69.6504266,20.0790309 69.8236668,20.2470214 C69.9969069,20.4150119 70.083527,20.6459988 70.083527,20.9399821 C70.083527,21.2654637 69.9995318,21.5043251 69.8315413,21.6565665 C69.6635508,21.8088079 69.4115651,21.8849286 69.0755841,21.8849286 L69.0755841,21.8849286 Z M79.9784664,28.2160699 L79.9784664,19.8375446 L82.9392986,19.8375446 L82.9392986,17.0657016 L73.5528304,17.0657016 L73.5528304,19.8375446 L76.4821645,19.8375446 L76.4821645,28.2160699 L79.9784664,28.2160699 Z" id="SMART" fill="#598BFF" fill-rule="nonzero"></path>
                    <path d="M32.1131244,94.913683 L32.1131244,90.8609965 L32.8749076,90.8609965 L35.2364354,94.913683 L38.6492241,94.913683 L35.4040277,90.0611241 C36.6635093,89.355205 37.29325,88.3572691 37.29325,87.0673162 C37.29325,84.8733806 35.7798408,83.7764128 32.7530222,83.7764128 L32.7530222,83.7764128 L29.1040808,83.7764128 L29.1040808,94.913683 L32.1131244,94.913683 Z M32.6768439,88.5985004 L32.1131244,88.5985004 L32.1131244,86.0541446 L32.7073153,86.0541446 C33.7382618,86.0541446 34.2537351,86.4375754 34.2537351,87.2044372 C34.2537351,88.1338127 33.7281047,88.5985004 32.6768439,88.5985004 L32.6768439,88.5985004 Z M40.9848514,94.913683 L41.5485709,92.8263971 L45.1670411,92.8263971 L45.715525,94.913683 L49.0064283,94.913683 L45.3270155,83.7307058 L41.3124181,83.7307058 L37.6787123,94.913683 L40.9848514,94.913683 Z M44.5423789,90.3582196 L42.1732331,90.3582196 C42.6353816,88.6111968 42.9337467,87.44059 43.0683284,86.8463991 C43.2029101,86.2522082 43.2930544,85.8256096 43.3387614,85.5666033 C43.389547,85.8459238 43.494927,86.3080723 43.6549014,86.9530487 C43.8148759,87.5980251 43.9507272,88.1236555 44.0624554,88.5299399 L44.0624554,88.5299399 L44.5423789,90.3582196 Z M53.2541314,94.913683 L53.2541314,86.2369725 L55.9660795,86.2369725 L55.9660795,83.7764128 L47.5255218,83.7764128 L47.5255218,86.2369725 L50.2450878,86.2369725 L50.2450878,94.913683 L53.2541314,94.913683 Z M59.8024197,94.913683 L59.8024197,83.7764128 L56.7781404,83.7764128 L56.7781404,94.913683 L59.8024197,94.913683 Z M64.0958297,94.913683 L64.0958297,89.8935318 C64.0958297,89.2434768 64.0475834,88.301405 63.9510909,87.0673162 L63.9510909,87.0673162 L64.0196514,87.0673162 L68.0875736,94.913683 L72.0336105,94.913683 L72.0336105,83.7764128 L69.3521337,83.7764128 L69.3521337,88.8117997 C69.3521337,89.492326 69.3876836,90.3937694 69.4587833,91.51613 L69.4587833,91.51613 L69.4130764,91.51613 L65.3603898,83.7764128 L61.4295886,83.7764128 L61.4295886,94.913683 L64.0958297,94.913683 Z M78.6352236,95.0660397 C80.1994184,95.0660397 81.6341101,94.8425833 82.9392986,94.3956705 L82.9392986,94.3956705 L82.9392986,88.3928189 L78.1324467,88.3928189 L78.1324467,90.7162577 L80.1207008,90.7162577 L80.1207008,92.4607412 C79.7448878,92.5470766 79.3335249,92.5902443 78.8866121,92.5902443 C78.0689648,92.5902443 77.4430329,92.317272 77.0088165,91.7713274 C76.5746001,91.2253828 76.3574919,90.4318586 76.3574919,89.3907549 C76.3574919,88.329337 76.5974536,87.5129594 77.077377,86.941622 C77.5573004,86.3702846 78.2365571,86.0846159 79.115147,86.0846159 C80.0749939,86.0846159 80.9561231,86.2826795 81.7585347,86.6788068 L81.7585347,86.6788068 L82.7107637,84.3172789 C82.2486152,84.1141367 81.7064795,83.9465444 81.0843566,83.814502 C80.4622336,83.6824596 79.8007519,83.6164384 79.0999114,83.6164384 C77.2513175,83.6164384 75.8140866,84.116676 74.7882185,85.1171512 C73.7623505,86.1176265 73.2494165,87.5167683 73.2494165,89.3145766 C73.2494165,91.1580919 73.7179132,92.5775479 74.6549065,93.5729446 C75.5918998,94.5683413 76.9186722,95.0660397 78.6352236,95.0660397 Z" id="RATING" fill="#598BFF" fill-rule="nonzero"></path>
                    <g id="57" transform="translate(30.824554, 38.001819)" fill="#FFFFFF" fill-rule="nonzero">
                        <path d="M10.0205479,36.0308219 C14.7990868,36.0308219 18.3670091,34.9840183 20.7243151,32.890411 C23.081621,30.7968037 24.260274,27.7922374 24.260274,23.8767123 C24.260274,21.6392694 23.80879,19.6655251 22.9058219,17.9554795 C22.0028539,16.2454338 20.7402968,14.9229452 19.1181507,13.9880137 C17.4960046,13.0530822 15.6780822,12.5856164 13.6643836,12.5856164 C13.216895,12.5856164 12.7294521,12.5976027 12.2020548,12.6215753 C11.6746575,12.6455479 10.7876712,12.7773973 9.54109589,13.0171233 L9.54109589,13.0171233 L9.97260274,8.39041096 L21.9109589,8.39041096 L21.9109589,0.503424658 L1.91780822,0.503424658 L0.599315068,19.010274 L4.07534247,20.7363014 C5.80136986,20.1769406 7.40753425,19.8972603 8.89383562,19.8972603 C10.8436073,19.8972603 12.2979452,20.2728311 13.2568493,21.0239726 C14.2157534,21.7751142 14.6952055,22.8219178 14.6952055,24.1643836 C14.6952055,25.6187215 14.2237443,26.7174658 13.2808219,27.4606164 C12.3378995,28.2037671 10.9874429,28.5753425 9.22945205,28.5753425 C7.96689498,28.5753425 6.46061644,28.3675799 4.71061644,27.9520548 C2.96061644,27.5365297 1.39041096,27.0091324 1.04654185e-12,26.369863 L1.04654185e-12,26.369863 L1.04654185e-12,34.1369863 C2.5890411,35.3995434 5.92922374,36.0308219 10.0205479,36.0308219 Z M38.9458904,36.0308219 C42.8454338,36.0308219 45.8819635,34.9160959 48.0554795,32.6866438 C50.2289954,30.4571918 51.3157534,27.4166667 51.3157534,23.5650685 C51.3157534,19.9851598 50.4567352,17.1923516 48.7386986,15.1866438 C47.0206621,13.1809361 44.6034247,12.1780822 41.4869863,12.1780822 C38.306621,12.1780822 35.9972603,13.5365297 34.5589041,16.2534247 L34.5589041,16.2534247 L34.2712329,16.2534247 C34.4150685,13.1050228 35.2621005,10.8356164 36.8123288,9.44520548 C38.3625571,8.05479452 40.719863,7.35958904 43.8842466,7.35958904 C45.7541096,7.35958904 47.4881279,7.51141553 49.0863014,7.81506849 L49.0863014,7.81506849 L49.0863014,0.407534247 C47.1844749,0.135844749 45.5223744,0 44.1,0 C40.1045662,0 36.7444064,0.719178082 34.0195205,2.15753425 C31.2946347,3.59589041 29.2329909,5.8293379 27.834589,8.85787671 C26.4361872,11.8864155 25.7369863,15.8458904 25.7369863,20.7363014 C25.7369863,25.5627854 26.903653,29.3184932 29.2369863,32.0034247 C31.5703196,34.6883562 34.806621,36.0308219 38.9458904,36.0308219 Z M38.730137,28.5273973 C37.6593607,28.5273973 36.796347,28.0359589 36.1410959,27.0530822 C35.4858447,26.0702055 35.1582192,24.8116438 35.1582192,23.2773973 C35.1582192,22.2226027 35.4978311,21.3276256 36.1770548,20.5924658 C36.8562785,19.8573059 37.7392694,19.489726 38.8260274,19.489726 C41.0315068,19.489726 42.1342466,20.9121005 42.1342466,23.7568493 C42.1342466,25.4189498 41.8186073,26.6295662 41.1873288,27.3886986 C40.5560502,28.1478311 39.7369863,28.5273973 38.730137,28.5273973 Z" id="56"></path>
                    </g>
                </g>
                <g id="stars" transform="translate(1016.750000, 22.000000)" fill-rule="nonzero">
                    <g id="single-star-transparent">
                        <polygon id="Path" fill="#274BDB" points="0 -3.01980663e-14 19.513119 -3.01980663e-14 19.513119 19.6301686 0 19.6301686"></polygon>
                        <path d="M9.7688011,13.2756096 L12.7312696,12.4874473 L13.9799134,16.3543688 L9.7688011,13.2756096 L9.7688011,13.2756096 Z M16.5996169,8.2757047 L11.3602098,8.2757047 L9.74431789,3.27579978 L8.12842598,8.2757047 L2.88901887,8.2757047 L7.12461434,11.379094 L5.50872243,16.3789989 L9.74431789,13.3002397 L12.3640214,11.379094 L16.5996169,8.2757047 Z" id="Shape" fill="#FFFFFF"></path>
                    </g>
                    <g id="single-star-transparent" transform="translate(21.159000, 0.000000)">
                        <polygon id="Path" fill="#274BDB" points="1.77635684e-15 -3.01980663e-14 19.513119 -3.01980663e-14 19.513119 19.6301686 1.77635684e-15 19.6301686"></polygon>
                        <path d="M9.7688011,13.2756096 L12.7312696,12.4874473 L13.9799134,16.3543688 L9.7688011,13.2756096 L9.7688011,13.2756096 Z M16.5996169,8.2757047 L11.3602098,8.2757047 L9.74431789,3.27579978 L8.12842598,8.2757047 L2.88901887,8.2757047 L7.12461434,11.379094 L5.50872243,16.3789989 L9.74431789,13.3002397 L12.3640214,11.379094 L16.5996169,8.2757047 Z" id="Shape" fill="#FFFFFF"></path>
                    </g>
                    <g id="single-star-transparent" transform="translate(42.318000, 0.000000)">
                        <polygon id="Path" fill="#274BDB" points="-8.8817842e-15 -3.01980663e-14 19.513119 -3.01980663e-14 19.513119 19.6301686 -8.8817842e-15 19.6301686"></polygon>
                        <path d="M9.7688011,13.2756096 L12.7312696,12.4874473 L13.9799134,16.3543688 L9.7688011,13.2756096 L9.7688011,13.2756096 Z M16.5996169,8.2757047 L11.3602098,8.2757047 L9.74431789,3.27579978 L8.12842598,8.2757047 L2.88901887,8.2757047 L7.12461434,11.379094 L5.50872243,16.3789989 L9.74431789,13.3002397 L12.3640214,11.379094 L16.5996169,8.2757047 Z" id="Shape" fill="#FFFFFF"></path>
                    </g>
                    <g id="single-star-transparent" transform="translate(63.477000, 0.000000)">
                        <polygon id="Path" fill="#274BDB" points="-1.77635684e-15 -3.01980663e-14 19.513119 -3.01980663e-14 19.513119 19.6301686 -1.77635684e-15 19.6301686"></polygon>
                        <path d="M9.7688011,13.2756096 L12.7312696,12.4874473 L13.9799134,16.3543688 L9.7688011,13.2756096 L9.7688011,13.2756096 Z M16.5996169,8.2757047 L11.3602098,8.2757047 L9.74431789,3.27579978 L8.12842598,8.2757047 L2.88901887,8.2757047 L7.12461434,11.379094 L5.50872243,16.3789989 L9.74431789,13.3002397 L12.3640214,11.379094 L16.5996169,8.2757047 Z" id="Shape" fill="#FFFFFF"></path>
                    </g>
                    <g id="single-star-transparent" transform="translate(84.636000, 0.000000)">
                        <polygon id="Path" fill="#274BDB" points="-1.77635684e-15 -3.01980663e-14 19.513119 -3.01980663e-14 19.513119 19.6301686 -1.77635684e-15 19.6301686"></polygon>
                        <path d="M9.7688011,13.2756096 L12.7312696,12.4874473 L13.9799134,16.3543688 L9.7688011,13.2756096 L9.7688011,13.2756096 Z M16.5996169,8.2757047 L11.3602098,8.2757047 L9.74431789,3.27579978 L8.12842598,8.2757047 L2.88901887,8.2757047 L7.12461434,11.379094 L5.50872243,16.3789989 L9.74431789,13.3002397 L12.3640214,11.379094 L16.5996169,8.2757047 Z" id="Shape" fill="#FFFFFF"></path>
                    </g>
                </g>
                <text id="Estimated-cost-Month" font-family="Helvetica" font-size="13" font-weight="normal" line-spacing="25" fill="#222B45">
                    <tspan x="229.75" y="175">Estimated cost</tspan>
                    <tspan x="315.005371" y="175" font-size="18"></tspan>
                    <tspan x="229.75" y="200" font-size="18">Monthly £79     Annual £960</tspan>
                    <tspan x="229.75" y="225" font-size="18"></tspan>
                </text>
                <text id="Green-savings-annual" font-family="Helvetica" font-size="13" font-weight="normal" line-spacing="25" fill="#222B45">
                    <tspan x="557.75" y="175">Green savings annual</tspan>
                    <tspan x="684.220703" y="175" font-size="18"></tspan>
                    <tspan x="557.75" y="200" font-size="18">Carbon 2 tonnes     Annual +£60</tspan>
                </text>
                <g id="03)-Button:-★/3)-40px---Medium/1)-Filled/7)-Basic" transform="translate(941.750000, 175.825317)">
                    <g id="Setup/Button-Background-Color/-1)-Fill/-1)-Basic-" fill="#EDF1F7">
                        <g id="Setup/Button-Shape/-Background">
                            <path d="M5.1277704,-2.07168062e-16 L34.8722296,2.07168062e-16 C36.6552671,-1.2037061e-16 37.3018396,0.185651222 37.9536914,0.534265408 C38.6055433,0.882879593 39.1171204,1.39445674 39.4657346,2.04630859 C39.8143488,2.69816044 40,3.34473292 40,5.1277704 L40,34.8722296 C40,36.6552671 39.8143488,37.3018396 39.4657346,37.9536914 C39.1171204,38.6055433 38.6055433,39.1171204 37.9536914,39.4657346 C37.3018396,39.8143488 36.6552671,40 34.8722296,40 L5.1277704,40 C3.34473292,40 2.69816044,39.8143488 2.04630859,39.4657346 C1.39445674,39.1171204 0.882879593,38.6055433 0.534265408,37.9536914 C0.185651222,37.3018396 8.02470732e-17,36.6552671 -1.38112041e-16,34.8722296 L1.38112041e-16,5.1277704 C-8.02470732e-17,3.34473292 0.185651222,2.69816044 0.534265408,2.04630859 C0.882879593,1.39445674 1.39445674,0.882879593 2.04630859,0.534265408 C2.69816044,0.185651222 3.34473292,1.2037061e-16 5.1277704,-2.07168062e-16 Z" id="🎨-Background"></path>
                        </g>
                    </g>
                    <g id="27)-Icon/dollar" transform="translate(10.000000, 10.000000)" fill="#2E3A59">
                        <path d="M10,0.833333333 C15.0626102,0.833333333 19.1666667,4.93738979 19.1666667,10 C19.1666667,15.0626102 15.0626102,19.1666667 10,19.1666667 C4.93738979,19.1666667 0.833333333,15.0626102 0.833333333,10 C0.833333333,4.93738979 4.93738979,0.833333333 10,0.833333333 Z M10,2.5 C7.92893219,2.5 6.05393219,3.33946609 4.69669914,4.69669914 C3.33946609,6.05393219 2.5,7.92893219 2.5,10 C2.5,12.0710678 3.33946609,13.9460678 4.69669914,15.3033009 C6.05393219,16.6605339 7.92893219,17.5 10,17.5 C12.0710678,17.5 13.9460678,16.6605339 15.3033009,15.3033009 C16.6605339,13.9460678 17.5,12.0710678 17.5,10 C17.5,7.92893219 16.6605339,6.05393219 15.3033009,4.69669914 C13.9460678,3.33946609 12.0710678,2.5 10,2.5 Z M10,4.16666667 C10.4602373,4.16666667 10.8333333,4.53976271 10.8333333,5 L10.8326667,5.83266667 L11.6666667,5.83333333 C12.126904,5.83333333 12.5,6.20642938 12.5,6.66666667 C12.5,7.12690396 12.126904,7.5 11.6666667,7.5 L9.16666667,7.5 C8.93654802,7.5 8.72821469,7.59327401 8.57741102,7.74407768 C8.42660734,7.89488135 8.33333333,8.10321469 8.33333333,8.33333333 C8.33333333,8.56345198 8.42660734,8.77178531 8.57741102,8.92258898 C8.72821469,9.07339266 8.93654802,9.16666667 9.16666667,9.16666667 L10.8333333,9.16666667 C12.2140452,9.16666667 13.3333333,10.2859548 13.3333333,11.6666667 C13.3333333,12.9921501 12.3017974,14.0767053 10.997709,14.161349 L10.8333333,14.1666667 L10.8333333,15 C10.8333333,15.4602373 10.4602373,15.8333333 10,15.8333333 C9.57516558,15.8333333 9.22458169,15.515429 9.17315952,15.1045316 L9.16666667,15 L9.16666667,14.1666667 L7.83333333,14.1666667 C7.40849891,14.1666667 7.05791502,13.8487623 7.00649285,13.4378649 L7,13.3333333 C7,12.9084989 7.31790432,12.557915 7.72880177,12.5064928 L7.83333333,12.5 L10.8333333,12.5 C11.063452,12.5 11.2717853,12.406726 11.422589,12.2559223 C11.5733927,12.1051186 11.6666667,11.8967853 11.6666667,11.6666667 C11.6666667,11.436548 11.5733927,11.2282147 11.422589,11.077411 C11.2969193,10.9517413 11.1312984,10.8660227 10.9464117,10.8409407 L10.8333333,10.8333333 L9.16666667,10.8333333 C7.78595479,10.8333333 6.66666667,9.71404521 6.66666667,8.33333333 C6.66666667,6.95262146 7.78595479,5.83333333 9.16666667,5.83333333 L9.16666667,5 C9.16666667,4.53976271 9.53976271,4.16666667 10,4.16666667 Z" id="🎨-Icon-Сolor"></path>
                    </g>
                </g>
                <g id="03)-Button:-★/3)-40px---Medium/1)-Filled/7)-Basic" transform="translate(1011.083333, 175.825317)">
                    <g id="Setup/Button-Background-Color/-1)-Fill/-1)-Basic-" fill="#EDF1F7" fill-rule="evenodd">
                        <g id="Setup/Button-Shape/-Background">
                            <path d="M5.1277704,-2.07168062e-16 L34.8722296,2.07168062e-16 C36.6552671,-1.2037061e-16 37.3018396,0.185651222 37.9536914,0.534265408 C38.6055433,0.882879593 39.1171204,1.39445674 39.4657346,2.04630859 C39.8143488,2.69816044 40,3.34473292 40,5.1277704 L40,34.8722296 C40,36.6552671 39.8143488,37.3018396 39.4657346,37.9536914 C39.1171204,38.6055433 38.6055433,39.1171204 37.9536914,39.4657346 C37.3018396,39.8143488 36.6552671,40 34.8722296,40 L5.1277704,40 C3.34473292,40 2.69816044,39.8143488 2.04630859,39.4657346 C1.39445674,39.1171204 0.882879593,38.6055433 0.534265408,37.9536914 C0.185651222,37.3018396 8.02470732e-17,36.6552671 -1.38112041e-16,34.8722296 L1.38112041e-16,5.1277704 C-8.02470732e-17,3.34473292 0.185651222,2.69816044 0.534265408,2.04630859 C0.882879593,1.39445674 1.39445674,0.882879593 2.04630859,0.534265408 C2.69816044,0.185651222 3.34473292,1.2037061e-16 5.1277704,-2.07168062e-16 Z" id="🎨-Background"></path>
                        </g>
                    </g>
                    <g id="27)-Icon/car" transform="translate(10.000000, 10.000000)">
                        <mask id="mask-6" fill="white">
                            <use xlink:href="#path-5"></use>
                        </mask>
                        <use id="🎨-Icon-Сolor" fill="#2E3A59" fill-rule="evenodd" xlink:href="#path-5"></use>
                    </g>
                </g>
                <g id="03)-Button:-★/3)-40px---Medium/1)-Filled/7)-Basic" opacity="0.304896763" transform="translate(1081.750000, 175.825317)">
                    <g id="Setup/Button-Background-Color/-1)-Fill/-1)-Basic-" fill="#EDF1F7">
                        <g id="Setup/Button-Shape/-Background">
                            <path d="M5.1277704,-2.07168062e-16 L34.8722296,2.07168062e-16 C36.6552671,-1.2037061e-16 37.3018396,0.185651222 37.9536914,0.534265408 C38.6055433,0.882879593 39.1171204,1.39445674 39.4657346,2.04630859 C39.8143488,2.69816044 40,3.34473292 40,5.1277704 L40,34.8722296 C40,36.6552671 39.8143488,37.3018396 39.4657346,37.9536914 C39.1171204,38.6055433 38.6055433,39.1171204 37.9536914,39.4657346 C37.3018396,39.8143488 36.6552671,40 34.8722296,40 L5.1277704,40 C3.34473292,40 2.69816044,39.8143488 2.04630859,39.4657346 C1.39445674,39.1171204 0.882879593,38.6055433 0.534265408,37.9536914 C0.185651222,37.3018396 8.02470732e-17,36.6552671 -1.38112041e-16,34.8722296 L1.38112041e-16,5.1277704 C-8.02470732e-17,3.34473292 0.185651222,2.69816044 0.534265408,2.04630859 C0.882879593,1.39445674 1.39445674,0.882879593 2.04630859,0.534265408 C2.69816044,0.185651222 3.34473292,1.2037061e-16 5.1277704,-2.07168062e-16 Z" id="🎨-Background"></path>
                        </g>
                    </g>
                    <g id="27)-Icon/morning" transform="translate(10.000000, 10.000000)" fill="#2E3A59">
                        <path d="M14.1666667,15.8333333 C14.626904,15.8333333 15,16.2064294 15,16.6666667 C15,17.126904 14.626904,17.5 14.1666667,17.5 L5.83333333,17.5 C5.37309604,17.5 5,17.126904 5,16.6666667 C5,16.2064294 5.37309604,15.8333333 5.83333333,15.8333333 L14.1666667,15.8333333 Z M10,6.66666667 C12.7575,6.66666667 15,8.90916667 15,11.6666667 C15,12.2509673 14.8993128,12.8121447 14.7143739,13.3337635 L16.6666667,13.3333333 C17.126904,13.3333333 17.5,13.7064294 17.5,14.1666667 C17.5,14.626904 17.126904,15 16.6666667,15 L3.33333333,15 C2.87309604,15 2.5,14.626904 2.5,14.1666667 C2.5,13.7064294 2.87309604,13.3333333 3.33333333,13.3333333 L5.28562611,13.3337635 C5.10068718,12.8121447 5,12.2509673 5,11.6666667 C5,8.90916667 7.2425,6.66666667 10,6.66666667 Z M10,8.33333333 C8.15905083,8.33333333 6.66666667,9.8257175 6.66666667,11.6666667 C6.66666667,12.2738166 6.82899297,12.8430531 7.11261386,13.3333446 L12.8873333,13.333 L12.9875368,13.1467545 C13.2088868,12.7008199 13.3333333,12.1982763 13.3333333,11.6666667 C13.3333333,9.8257175 11.8409492,8.33333333 10,8.33333333 Z M3.33333333,10 C3.79333333,10 4.16666667,10.3725 4.16666667,10.8333333 C4.16666667,11.2941667 3.79333333,11.6666667 3.33333333,11.6666667 L3.33333333,11.6666667 L1.66666667,11.6666667 C1.20666667,11.6666667 0.833333333,11.2941667 0.833333333,10.8333333 C0.833333333,10.3725 1.20666667,10 1.66666667,10 L1.66666667,10 Z M18.3333333,10 C18.7933333,10 19.1666667,10.3725 19.1666667,10.8333333 C19.1666667,11.2941667 18.7933333,11.6666667 18.3333333,11.6666667 L18.3333333,11.6666667 L16.6666667,11.6666667 C16.2066667,11.6666667 15.8333333,11.2941667 15.8333333,10.8333333 C15.8333333,10.3725 16.2066667,10 16.6666667,10 L16.6666667,10 Z M3.1725,5.045 C3.4925,4.71416667 4.02,4.705 4.35083333,5.02333333 L4.35083333,5.02333333 L5.55,6.18166667 C5.88083333,6.50166667 5.89,7.03 5.57,7.36 C5.40666667,7.52916667 5.18916667,7.615 4.97083333,7.615 C4.7625,7.615 4.55333333,7.5375 4.39166667,7.38083333 L4.39166667,7.38083333 L3.1925,6.22333333 C2.86166667,5.90333333 2.8525,5.375 3.1725,5.045 Z M15.6491667,5.02333333 C15.9816667,4.705 16.5083333,4.71416667 16.8275,5.045 C17.1475,5.375 17.1383333,5.90333333 16.8075,6.22333333 L16.8075,6.22333333 L15.6083333,7.38083333 C15.4466667,7.5375 15.2375,7.615 15.0291667,7.615 C14.8108333,7.615 14.5933333,7.52916667 14.43,7.36 C14.11,7.03 14.1191667,6.50166667 14.45,6.18166667 L14.45,6.18166667 Z M10,2.5 C10.46,2.5 10.8333333,2.8725 10.8333333,3.33333333 L10.8333333,5 C10.8333333,5.46083333 10.46,5.83333333 10,5.83333333 C9.54,5.83333333 9.16666667,5.46083333 9.16666667,5 L9.16666667,3.33333333 C9.16666667,2.8725 9.54,2.5 10,2.5 Z" id="🎨-Icon-Сolor"></path>
                    </g>
                </g>
                <text id="Fixed" font-family="Helvetica" font-size="10" font-weight="normal" line-spacing="12" fill="#222B45">
                    <tspan x="949.523438" y="228">Fixed</tspan>
                </text>
                <text id="Yes" font-family="Helvetica" font-size="10" font-weight="normal" line-spacing="12" fill="#222B45">
                    <tspan x="1023.59326" y="228">Yes</tspan>
                </text>
                <text id="No" font-family="Helvetica" font-size="10" font-weight="normal" line-spacing="12" fill="#222B45">
                    <tspan x="1095.3584" y="228">No</tspan>
                </text>
                <text id="Payment" font-family="Helvetica" font-size="10" font-weight="normal" line-spacing="12" fill="#222B45">
                    <tspan x="942.018555" y="171">Payment</tspan>
                </text>
                <text id="EV" font-family="Helvetica" font-size="10" font-weight="normal" line-spacing="12" fill="#222B45">
                    <tspan x="1028.41504" y="171">E</tspan>
                    <tspan x="1028.41504" y="183">V</tspan>
                </text>
                <text id="Solar" font-family="Helvetica" font-size="10" font-weight="normal" line-spacing="12" fill="#222B45">
                    <tspan x="1090.07764" y="171">Solar</tspan>
                </text>
                <rect id="Rectangle" fill="#F7F9FC" x="23.7602234" y="1478.43412" width="1102" height="64"></rect>
                <rect id="Rectangle" fill="#EDF1F7" x="401.024509" y="1542.43412" width="1" height="200"></rect>
                <rect id="Rectangle" fill="#F7F9FC" x="23.7602234" y="1478.43412" width="1102" height="64"></rect>
                <text id="Electricity" font-family="Helvetica" font-size="18" font-weight="normal" line-spacing="24" fill="#222B45">
                    <tspan x="434.260223" y="1516.43412">Electricity</tspan>
                </text>
                <text id="Gas" font-family="Helvetica" font-size="18" font-weight="normal" line-spacing="24" fill="#222B45">
                    <tspan x="789.75" y="1516.43412">Gas</tspan>
                </text>
                <text id="Tariff-type" font-family="Helvetica" font-size="15" font-weight="normal" line-spacing="24" fill="#8F9BB3">
                    <tspan x="49.7359377" y="1570.50944">Tariff type</tspan>
                </text>
                <rect id="Rectangle" fill="#EDF1F7" x="23.7602234" y="1542.43412" width="661.987143" height="1"></rect>
                <g id="26)-Divider/-―-1px" transform="translate(577.742950, 1592.759441) scale(1, -1) translate(-577.742950, -1592.759441) translate(26.742950, 1592.259441)">
                    <mask id="mask-8" fill="white">
                        <use xlink:href="#path-7"></use>
                    </mask>
                    <use id="🎨-Divider-Color" fill="#EDF1F7" fill-rule="evenodd" xlink:href="#path-7"></use>
                </g>
                <text id="Green" font-family="Helvetica" font-size="15" font-weight="normal" line-spacing="24" fill="#8F9BB3">
                    <tspan x="49.7359377" y="1620.50944">Green</tspan>
                </text>
                <g id="26)-Divider/-―-1px" transform="translate(577.742950, 1642.759441) scale(1, -1) translate(-577.742950, -1642.759441) translate(26.742950, 1642.259441)">
                    <mask id="mask-10" fill="white">
                        <use xlink:href="#path-9"></use>
                    </mask>
                    <use id="🎨-Divider-Color" fill="#EDF1F7" fill-rule="evenodd" xlink:href="#path-9"></use>
                </g>
                <text id="Contract-length" font-family="Helvetica" font-size="15" font-weight="normal" line-spacing="24" fill="#8F9BB3">
                    <tspan x="49.7359377" y="1669.50944">Contract length</tspan>
                </text>
                <g id="26)-Divider/-―-1px" transform="translate(577.742950, 1691.759441) scale(1, -1) translate(-577.742950, -1691.759441) translate(26.742950, 1691.259441)">
                    <mask id="mask-12" fill="white">
                        <use xlink:href="#path-11"></use>
                    </mask>
                    <use id="🎨-Divider-Color" fill="#EDF1F7" fill-rule="evenodd" xlink:href="#path-11"></use>
                </g>
                <text id="Exit-fee" font-family="Helvetica" font-size="15" font-weight="normal" line-spacing="24" fill="#8F9BB3">
                    <tspan x="49.7359377" y="1719.50944">Exit fee</tspan>
                </text>
                <g id="26)-Divider/-―-1px" transform="translate(577.742950, 1741.759441) scale(1, -1) translate(-577.742950, -1741.759441) translate(26.742950, 1741.259441)">
                    <mask id="mask-14" fill="white">
                        <use xlink:href="#path-13"></use>
                    </mask>
                    <use id="🎨-Divider-Color" fill="#EDF1F7" fill-rule="evenodd" xlink:href="#path-13"></use>
                </g>
                <rect id="Rectangle" fill="#F7F9FC" x="23.7602234" y="1770.66008" width="1102" height="64"></rect>
                <rect id="Rectangle" fill="#EDF1F7" x="401.024509" y="1834.66008" width="1" height="150"></rect>
                <rect id="Rectangle" fill="#F7F9FC" x="23.7602234" y="1770.66008" width="1102" height="64"></rect>
                <text id="Usage" font-family="Helvetica" font-size="18" font-weight="normal" line-spacing="24" fill="#222B45">
                    <tspan x="48.9487948" y="1808.66008">Usage</tspan>
                </text>
                <text id="Solar" font-family="Helvetica" font-size="15" font-weight="normal" line-spacing="24" fill="#8F9BB3">
                    <tspan x="49.7359377" y="1862.73539">Solar</tspan>
                </text>
                <g id="26)-Divider/-―-1px" transform="translate(577.742950, 1884.985393) scale(1, -1) translate(-577.742950, -1884.985393) translate(26.742950, 1884.485393)">
                    <mask id="mask-16" fill="white">
                        <use xlink:href="#path-15"></use>
                    </mask>
                    <use id="🎨-Divider-Color" fill="#EDF1F7" fill-rule="evenodd" xlink:href="#path-15"></use>
                </g>
                <text id="Electric-Vehicle-own" font-family="Helvetica" font-size="15" font-weight="normal" line-spacing="24" fill="#8F9BB3">
                    <tspan x="49.7359377" y="1912.73539">Electric Vehicle owner</tspan>
                </text>
                <g id="26)-Divider/-―-1px" transform="translate(577.742950, 1934.985393) scale(1, -1) translate(-577.742950, -1934.985393) translate(26.742950, 1934.485393)">
                    <mask id="mask-18" fill="white">
                        <use xlink:href="#path-17"></use>
                    </mask>
                    <use id="🎨-Divider-Color" fill="#EDF1F7" fill-rule="evenodd" xlink:href="#path-17"></use>
                </g>
                <text id="Smart-controls" font-family="Helvetica" font-size="15" font-weight="normal" line-spacing="24" fill="#8F9BB3">
                    <tspan x="49.7359377" y="1961.73539">Smart controls</tspan>
                </text>
                <g id="26)-Divider/-―-1px" transform="translate(577.742950, 1983.985393) scale(1, -1) translate(-577.742950, -1983.985393) translate(26.742950, 1983.485393)">
                    <mask id="mask-20" fill="white">
                        <use xlink:href="#path-19"></use>
                    </mask>
                    <use id="🎨-Divider-Color" fill="#EDF1F7" fill-rule="evenodd" xlink:href="#path-19"></use>
                </g>
                <rect id="Rectangle" fill="#F7F9FC" x="23.7602234" y="2211.26261" width="1102" height="64"></rect>
                <rect id="Rectangle" fill="#EDF1F7" x="401.024509" y="2275.26261" width="1" height="200"></rect>
                <rect id="Rectangle" fill="#F7F9FC" x="23.7602234" y="2211.26261" width="1102" height="64"></rect>
                <text id="Price" font-family="Helvetica" font-size="18" font-weight="normal" line-spacing="24" fill="#222B45">
                    <tspan x="48.9487948" y="2249.26261">Price</tspan>
                </text>
                <text id="Price-guarantee-for" font-family="Helvetica" font-size="15" font-weight="normal" line-spacing="24" fill="#8F9BB3">
                    <tspan x="49.7359377" y="2303.33793">Price guarantee for contract</tspan>
                </text>
                <g id="26)-Divider/-―-1px" transform="translate(577.742950, 2325.587932) scale(1, -1) translate(-577.742950, -2325.587932) translate(26.742950, 2325.087932)">
                    <mask id="mask-22" fill="white">
                        <use xlink:href="#path-21"></use>
                    </mask>
                    <use id="🎨-Divider-Color" fill="#EDF1F7" fill-rule="evenodd" xlink:href="#path-21"></use>
                </g>
                <text id="Payment-types" font-family="Helvetica" font-size="15" font-weight="normal" line-spacing="24" fill="#8F9BB3">
                    <tspan x="49.7359377" y="2353.33793">Payment types</tspan>
                </text>
                <g id="26)-Divider/-―-1px" transform="translate(577.742950, 2375.587932) scale(1, -1) translate(-577.742950, -2375.587932) translate(26.742950, 2375.087932)">
                    <mask id="mask-24" fill="white">
                        <use xlink:href="#path-23"></use>
                    </mask>
                    <use id="🎨-Divider-Color" fill="#EDF1F7" fill-rule="evenodd" xlink:href="#path-23"></use>
                </g>
                <text id="Unit-rate" font-family="Helvetica" font-size="15" font-weight="normal" line-spacing="24" fill="#8F9BB3">
                    <tspan x="49.7359377" y="2402.33793">Unit rate</tspan>
                </text>
                <g id="26)-Divider/-―-1px" transform="translate(577.742950, 2424.587932) scale(1, -1) translate(-577.742950, -2424.587932) translate(26.742950, 2424.087932)">
                    <mask id="mask-26" fill="white">
                        <use xlink:href="#path-25"></use>
                    </mask>
                    <use id="🎨-Divider-Color" fill="#EDF1F7" fill-rule="evenodd" xlink:href="#path-25"></use>
                </g>
                <g id="26)-Divider/-―-1px" transform="translate(577.742950, 2477.587932) scale(1, -1) translate(-577.742950, -2477.587932) translate(26.742950, 2477.087932)">
                    <mask id="mask-28" fill="white">
                        <use xlink:href="#path-27"></use>
                    </mask>
                    <use id="🎨-Divider-Color" fill="#EDF1F7" fill-rule="evenodd" xlink:href="#path-27"></use>
                </g>
                <rect id="Rectangle" fill="#F7F9FC" x="23.7602234" y="2015.88603" width="1102" height="64"></rect>
                <rect id="Rectangle" fill="#EDF1F7" x="401.024509" y="2079.88603" width="1" height="100"></rect>
                <rect id="Rectangle" fill="#EDF1F7" x="771.024509" y="1542.43412" width="1" height="200"></rect>
                <rect id="Rectangle" fill="#EDF1F7" x="771.024509" y="1834.66008" width="1" height="150"></rect>
                <rect id="Rectangle" fill="#EDF1F7" x="771.024509" y="2275.26261" width="1" height="200"></rect>
                <rect id="Rectangle" fill="#EDF1F7" x="771.024509" y="2079.88603" width="1" height="100"></rect>
                <rect id="Rectangle" fill="#F7F9FC" x="23.7602234" y="2015.88603" width="1102" height="64"></rect>
                <text id="Smart" font-family="Helvetica" font-size="18" font-weight="normal" line-spacing="24" fill="#222B45">
                    <tspan x="48.9487948" y="2053.88603">Smart</tspan>
                </text>
                <text id="Meter-type" font-family="Helvetica" font-size="15" font-weight="normal" line-spacing="24" fill="#8F9BB3">
                    <tspan x="49.7359377" y="2107.96135">Meter type</tspan>
                </text>
                <g id="26)-Divider/-―-1px" transform="translate(577.742950, 2130.211345) scale(1, -1) translate(-577.742950, -2130.211345) translate(26.742950, 2129.711345)">
                    <mask id="mask-30" fill="white">
                        <use xlink:href="#path-29"></use>
                    </mask>
                    <use id="🎨-Divider-Color" fill="#EDF1F7" fill-rule="evenodd" xlink:href="#path-29"></use>
                </g>
                <text id="Smart-meter-installa" font-family="Helvetica" font-size="15" font-weight="normal" line-spacing="24" fill="#8F9BB3">
                    <tspan x="49.7359377" y="2157.96135">Smart meter installation</tspan>
                </text>
                <g id="26)-Divider/-―-1px" transform="translate(577.742950, 2180.211345) scale(1, -1) translate(-577.742950, -2180.211345) translate(26.742950, 2179.711345)">
                    <mask id="mask-32" fill="white">
                        <use xlink:href="#path-31"></use>
                    </mask>
                    <use id="🎨-Divider-Color" fill="#EDF1F7" fill-rule="evenodd" xlink:href="#path-31"></use>
                </g>
                <text id="Fixed" font-family="Helvetica" font-size="18" font-weight="normal" line-spacing="25" fill="#222B45">
                    <tspan x="431.357842" y="1577.07532">Fixed</tspan>
                </text>
                <text id="No" font-family="Helvetica" font-size="18" font-weight="normal" line-spacing="25" fill="#222B45">
                    <tspan x="431.357842" y="1624.75">No</tspan>
                </text>
                <text id="N/A" font-family="Helvetica" font-size="18" font-weight="normal" line-spacing="25" fill="#222B45">
                    <tspan x="431.357842" y="1866.15063">N/A</tspan>
                </text>
                <text id="N/A" font-family="Helvetica" font-size="18" font-weight="normal" line-spacing="25" fill="#222B45">
                    <tspan x="431.357842" y="1915.15063">N/A</tspan>
                </text>
                <text id="N/A" font-family="Helvetica" font-size="18" font-weight="normal" line-spacing="25" fill="#222B45">
                    <tspan x="431.357842" y="1965.15063">N/A</tspan>
                </text>
                <text id="Smart-Meter-compatib" font-family="Helvetica" font-size="18" font-weight="normal" line-spacing="25" fill="#222B45">
                    <tspan x="431.357842" y="2108.96135">Smart Meter compatible</tspan>
                </text>
                <text id="Yes-at-no-cost" font-family="Helvetica" font-size="18" font-weight="normal" line-spacing="25" fill="#222B45">
                    <tspan x="431.357842" y="2158.96135">Yes at no cost</tspan>
                </text>
                <text id="Yes" font-family="Helvetica" font-size="18" font-weight="normal" line-spacing="25" fill="#222B45">
                    <tspan x="429.260223" y="2307.01261">Yes</tspan>
                </text>
                <text id="Monthly-Direct-Debit" font-family="Helvetica" font-size="18" font-weight="normal" line-spacing="25" fill="#222B45">
                    <tspan x="429.857842" y="2355.33793">Monthly Direct Debit</tspan>
                </text>
                <text id="16.578p-per-kWh" font-family="Helvetica" font-size="18" font-weight="normal" line-spacing="25" fill="#222B45">
                    <tspan x="429.857842" y="2406.33793">16.578p per kWh</tspan>
                </text>
                <text id="Standing-charge" font-family="Helvetica" font-size="15" font-weight="normal" line-spacing="24" fill="#8F9BB3">
                    <tspan x="49.7359377" y="2452.33793">Standing charge</tspan>
                </text>
                <text id="17.96p-per-day" font-family="Helvetica" font-size="18" font-weight="normal" line-spacing="25" fill="#222B45">
                    <tspan x="429.857842" y="2456.33793">17.96p per day</tspan>
                </text>
                <text id="12-months-after-star" font-family="Helvetica" font-size="18" font-weight="normal" line-spacing="25" fill="#222B45">
                    <tspan x="431.357842" y="1672.00944">12 months after start of supply</tspan>
                </text>
                <text id="£25.00" font-family="Helvetica" font-size="18" font-weight="normal" line-spacing="25" fill="#222B45">
                    <tspan x="431.357842" y="1722.00944">£25.00</tspan>
                </text>
                <text id="Fixed" font-family="Helvetica" font-size="18" font-weight="normal" line-spacing="25" fill="#222B45">
                    <tspan x="791.357842" y="1577.07532">Fixed</tspan>
                </text>
                <text id="No" font-family="Helvetica" font-size="18" font-weight="normal" line-spacing="25" fill="#222B45">
                    <tspan x="791.357842" y="1624.75">No</tspan>
                </text>
                <text id="N/A" font-family="Helvetica" font-size="18" font-weight="normal" line-spacing="25" fill="#222B45">
                    <tspan x="791.357842" y="1866.15063">N/A</tspan>
                </text>
                <text id="N/A" font-family="Helvetica" font-size="18" font-weight="normal" line-spacing="25" fill="#222B45">
                    <tspan x="791.357842" y="1915.15063">N/A</tspan>
                </text>
                <text id="N/A" font-family="Helvetica" font-size="18" font-weight="normal" line-spacing="25" fill="#222B45">
                    <tspan x="791.357842" y="1965.15063">N/A</tspan>
                </text>
                <text id="Smart-Meter-compatib" font-family="Helvetica" font-size="18" font-weight="normal" line-spacing="25" fill="#222B45">
                    <tspan x="791.357842" y="2108.96135">Smart Meter compatible</tspan>
                </text>
                <text id="Yes-at-no-cost" font-family="Helvetica" font-size="18" font-weight="normal" line-spacing="25" fill="#222B45">
                    <tspan x="791.357842" y="2158.96135">Yes at no cost</tspan>
                </text>
                <text id="Yes" font-family="Helvetica" font-size="18" font-weight="normal" line-spacing="25" fill="#222B45">
                    <tspan x="789.260223" y="2307.01261">Yes</tspan>
                </text>
                <text id="Monthly-Direct-Debit" font-family="Helvetica" font-size="18" font-weight="normal" line-spacing="25" fill="#222B45">
                    <tspan x="789.857842" y="2355.33793">Monthly Direct Debit</tspan>
                </text>
                <text id="2.688-per-kWh" font-family="Helvetica" font-size="18" font-weight="normal" line-spacing="25" fill="#222B45">
                    <tspan x="789.857842" y="2406.33793">2.688 per kWh</tspan>
                </text>
                <text id="17.96p-per-day" font-family="Helvetica" font-size="18" font-weight="normal" line-spacing="25" fill="#222B45">
                    <tspan x="789.857842" y="2456.33793">17.96p per day</tspan>
                </text>
                <text id="12-months-after-star" font-family="Helvetica" font-size="18" font-weight="normal" line-spacing="25" fill="#222B45">
                    <tspan x="791.357842" y="1672.00944">12 months after start of supply</tspan>
                </text>
                <text id="£25.00" font-family="Helvetica" font-size="18" font-weight="normal" line-spacing="25" fill="#222B45">
                    <tspan x="791.357842" y="1722.00944">£25.00</tspan>
                </text>
                <g id="Group" transform="translate(30.250000, 624.000000)">
                    <g id="Group-8" transform="translate(50.000000, 11.000000)" stroke="#B8B8B8">
                        <line x1="0" y1="198.5001" x2="1027.00018" y2="198.5001" id="Stroke-3"></line>
                        <line x1="0" y1="148.5001" x2="1027.00018" y2="148.5001" id="Stroke-4"></line>
                        <line x1="0" y1="99.5001" x2="1027.00018" y2="99.5001" id="Stroke-5"></line>
                        <line x1="0" y1="49.50014" x2="1027.00018" y2="49.50014" id="Stroke-6"></line>
                        <line x1="0" y1="0.50014" x2="1027.00018" y2="0.50014" id="Stroke-7"></line>
                    </g>
                    <g id="Group-10" transform="translate(17.000000, 248.000000)">
                        <mask id="mask-34" fill="white">
                            <use xlink:href="#path-33"></use>
                        </mask>
                        <g id="Clip-9"></g>
                        <text id="£0" mask="url(#mask-34)" font-family="Helvetica" font-size="14.6" font-weight="normal" letter-spacing="-0.0002" fill="#000000">
                            <tspan x="0.67545" y="10.8450805">£0</tspan>
                        </text>
                    </g>
                    <g id="Group-12" transform="translate(9.000000, 198.000000)">
                        <mask id="mask-36" fill="white">
                            <use xlink:href="#path-35"></use>
                        </mask>
                        <g id="Clip-11"></g>
                        <text id="£20" mask="url(#mask-36)" font-family="Helvetica" font-size="14.6" font-weight="normal" letter-spacing="-0.0002" fill="#000000">
                            <tspan x="0.3275" y="11.3240805">£20</tspan>
                        </text>
                    </g>
                    <g id="Group-14" transform="translate(9.000000, 148.000000)">
                        <mask id="mask-38" fill="white">
                            <use xlink:href="#path-37"></use>
                        </mask>
                        <g id="Clip-13"></g>
                        <text id="£40" mask="url(#mask-38)" font-family="Helvetica" font-size="14.6" font-weight="normal" letter-spacing="-0.0002" fill="#000000">
                            <tspan x="0.3275" y="11.8030805">£40</tspan>
                        </text>
                    </g>
                    <g id="Group-16" transform="translate(9.000000, 99.000000)">
                        <mask id="mask-40" fill="white">
                            <use xlink:href="#path-39"></use>
                        </mask>
                        <g id="Clip-15"></g>
                        <text id="£60" mask="url(#mask-40)" font-family="Helvetica" font-size="14.6" font-weight="normal" letter-spacing="-0.0002" fill="#000000">
                            <tspan x="0.3275" y="11.2819805">£60</tspan>
                        </text>
                    </g>
                    <g id="Group-18" transform="translate(9.000000, 49.000000)">
                        <mask id="mask-42" fill="white">
                            <use xlink:href="#path-41"></use>
                        </mask>
                        <g id="Clip-17"></g>
                        <text id="£80" mask="url(#mask-42)" font-family="Helvetica" font-size="14.6" font-weight="normal" letter-spacing="-0.0002" fill="#000000">
                            <tspan x="0.3275" y="11.7609805">£80</tspan>
                        </text>
                    </g>
                    <g id="Group-20">
                        <mask id="mask-44" fill="white">
                            <use xlink:href="#path-43"></use>
                        </mask>
                        <g id="Clip-19"></g>
                        <text id="£100" mask="url(#mask-44)" font-family="Helvetica" font-size="14.6" font-weight="normal" letter-spacing="-0.0002" fill="#000000">
                            <tspan x="0.97955" y="11.2399805">£100</tspan>
                        </text>
                    </g>
                    <line x1="49.5" y1="258.5001" x2="1076.50018" y2="258.5001" id="Stroke-21" stroke="#000000" stroke-linecap="square"></line>
                    <g id="Group-24" transform="translate(82.000000, 266.000000)">
                        <mask id="mask-46" fill="white">
                            <use xlink:href="#path-45"></use>
                        </mask>
                        <g id="Clip-23"></g>
                        <text id="Jan" mask="url(#mask-46)" font-family="Helvetica" font-size="14.6" font-weight="normal" letter-spacing="0.0001" fill="#222B45">
                            <tspan x="0.1102" y="11.2862805">Jan</tspan>
                        </text>
                    </g>
                    <g id="Group-26" transform="translate(165.000000, 266.000000)">
                        <mask id="mask-48" fill="white">
                            <use xlink:href="#path-47"></use>
                        </mask>
                        <g id="Clip-25"></g>
                        <text id="Feb" mask="url(#mask-48)" font-family="Helvetica" font-size="14.6" font-weight="normal" letter-spacing="0.00146" fill="#222B45">
                            <tspan x="0.8395" y="11.2862805">F</tspan>
                            <tspan x="9.75922172" y="11.2862805">eb</tspan>
                        </text>
                    </g>
                    <g id="Group-28" transform="translate(250.000000, 266.000000)">
                        <mask id="mask-50" fill="white">
                            <use xlink:href="#path-49"></use>
                        </mask>
                        <g id="Clip-27"></g>
                        <text id="Mar" mask="url(#mask-50)" font-family="Helvetica" font-size="14.6" font-weight="normal" letter-spacing="-0.0002" fill="#222B45">
                            <tspan x="0.1213" y="11.2862805">Mar</tspan>
                        </text>
                    </g>
                    <g id="Group-30" transform="translate(337.000000, 266.000000)">
                        <mask id="mask-52" fill="white">
                            <use xlink:href="#path-51"></use>
                        </mask>
                        <g id="Clip-29"></g>
                        <text id="Apr" mask="url(#mask-52)" font-family="Helvetica" font-size="14.6" font-weight="normal" letter-spacing="-0.0002" fill="#222B45">
                            <tspan x="0.2546" y="11.2862805">Apr</tspan>
                        </text>
                    </g>
                    <g id="Group-32" transform="translate(420.000000, 266.000000)">
                        <mask id="mask-54" fill="white">
                            <use xlink:href="#path-53"></use>
                        </mask>
                        <g id="Clip-31"></g>
                        <text id="May" mask="url(#mask-54)" font-family="Helvetica" font-size="14.6" font-weight="normal" letter-spacing="-0.0002" fill="#222B45">
                            <tspan x="0.5739" y="11.2862805">May</tspan>
                        </text>
                    </g>
                    <g id="Group-34" transform="translate(509.000000, 266.000000)">
                        <mask id="mask-56" fill="white">
                            <use xlink:href="#path-55"></use>
                        </mask>
                        <g id="Clip-33"></g>
                        <text id="Jun" mask="url(#mask-56)" font-family="Helvetica" font-size="14.6" font-weight="normal" letter-spacing="0.0001" fill="#222B45">
                            <tspan x="0.5679" y="11.2862805">Jun</tspan>
                        </text>
                    </g>
                    <g id="Group-36" transform="translate(597.000000, 266.000000)">
                        <mask id="mask-58" fill="white">
                            <use xlink:href="#path-57"></use>
                        </mask>
                        <g id="Clip-35"></g>
                        <text id="Jul" mask="url(#mask-58)" font-family="Helvetica" font-size="14.6" font-weight="normal" letter-spacing="0.0001" fill="#222B45">
                            <tspan x="0.7777" y="11.2862805">Jul</tspan>
                        </text>
                    </g>
                    <g id="Group-38" transform="translate(678.000000, 266.000000)">
                        <mask id="mask-60" fill="white">
                            <use xlink:href="#path-59"></use>
                        </mask>
                        <g id="Clip-37"></g>
                        <text id="Aug" mask="url(#mask-60)" font-family="Helvetica" font-size="14.6" font-weight="normal" letter-spacing="-0.0002" fill="#222B45">
                            <tspan x="0.5306" y="11.2862805">Aug</tspan>
                        </text>
                    </g>
                    <g id="Group-40" transform="translate(764.000000, 266.000000)">
                        <mask id="mask-62" fill="white">
                            <use xlink:href="#path-61"></use>
                        </mask>
                        <g id="Clip-39"></g>
                        <text id="Sep" mask="url(#mask-62)" font-family="Helvetica" font-size="14.6" font-weight="normal" letter-spacing="-0.00292" fill="#222B45">
                            <tspan x="0.6303" y="11.2862805">S</tspan>
                            <tspan x="10.3654659" y="11.2862805">ep</tspan>
                        </text>
                    </g>
                    <g id="Group-42" transform="translate(851.000000, 266.000000)">
                        <mask id="mask-64" fill="white">
                            <use xlink:href="#path-63"></use>
                        </mask>
                        <g id="Clip-41"></g>
                        <text id="Oct" mask="url(#mask-64)" font-family="Helvetica" font-size="14.6" font-weight="normal" letter-spacing="-0.0002" fill="#222B45">
                            <tspan x="0.0436" y="11.2862805">Oct</tspan>
                        </text>
                    </g>
                    <g id="Group-44" transform="translate(934.000000, 266.000000)">
                        <mask id="mask-66" fill="white">
                            <use xlink:href="#path-65"></use>
                        </mask>
                        <g id="Clip-43"></g>
                        <text id="Nov" mask="url(#mask-66)" font-family="Helvetica" font-size="14.6" font-weight="normal" letter-spacing="-0.0001" fill="#222B45">
                            <tspan x="0.9332" y="11.2862805">N</tspan>
                            <tspan x="11.4767523" y="11.2862805" letter-spacing="-0.2921">o</tspan>
                            <tspan x="19.3044766" y="11.2862805">v</tspan>
                        </text>
                    </g>
                    <g id="Group-46" transform="translate(1021.000000, 266.000000)">
                        <mask id="mask-68" fill="white">
                            <use xlink:href="#path-67"></use>
                        </mask>
                        <g id="Clip-45"></g>
                        <text id="Dec" mask="url(#mask-68)" font-family="Helvetica" font-size="14.6" font-weight="normal" fill="#222B45">
                            <tspan x="0.04" y="11.2862805">Dec</tspan>
                        </text>
                    </g>
                    <g id="Group-49" transform="translate(74.000000, 101.000000)">
                        <mask id="mask-70" fill="white">
                            <use xlink:href="#path-69"></use>
                        </mask>
                        <g id="Clip-48"></g>
                        <polygon id="Fill-47" fill="#D6E4FF" mask="url(#mask-70)" points="0 0 37 0 37 157 0 157"></polygon>
                    </g>
                    <g id="Group-52" transform="translate(160.000000, 86.000000)">
                        <mask id="mask-72" fill="white">
                            <use xlink:href="#path-71"></use>
                        </mask>
                        <g id="Clip-51"></g>
                        <polygon id="Fill-50" fill="#D6E4FF" mask="url(#mask-72)" points="0 0 37 0 37 172 0 172"></polygon>
                    </g>
                    <g id="Group-55" transform="translate(245.000000, 16.000000)">
                        <mask id="mask-74" fill="white">
                            <use xlink:href="#path-73"></use>
                        </mask>
                        <g id="Clip-54"></g>
                        <polygon id="Fill-53" fill="#D6E4FF" mask="url(#mask-74)" points="0 0 37 0 37 242 0 242"></polygon>
                    </g>
                    <g id="Group-58" transform="translate(331.000000, 81.000000)">
                        <mask id="mask-76" fill="white">
                            <use xlink:href="#path-75"></use>
                        </mask>
                        <g id="Clip-57"></g>
                        <polygon id="Fill-56" fill="#D6E4FF" mask="url(#mask-76)" points="0 0 37 0 37 177 0 177"></polygon>
                    </g>
                    <g id="Group-61" transform="translate(416.000000, 101.000000)">
                        <mask id="mask-78" fill="white">
                            <use xlink:href="#path-77"></use>
                        </mask>
                        <g id="Clip-60"></g>
                        <polygon id="Fill-59" fill="#D6E4FF" mask="url(#mask-78)" points="0 0 38 0 38 157 0 157"></polygon>
                    </g>
                    <g id="Group-64" transform="translate(502.000000, 113.000000)">
                        <mask id="mask-80" fill="white">
                            <use xlink:href="#path-79"></use>
                        </mask>
                        <g id="Clip-63"></g>
                        <polygon id="Fill-62" fill="#D6E4FF" mask="url(#mask-80)" points="0 0 37 0 37 145 0 145"></polygon>
                    </g>
                    <g id="Group-67" transform="translate(587.000000, 128.000000)">
                        <mask id="mask-82" fill="white">
                            <use xlink:href="#path-81"></use>
                        </mask>
                        <g id="Clip-66"></g>
                        <polygon id="Fill-65" fill="#D6E4FF" mask="url(#mask-82)" points="0 0 38 0 38 130 0 130"></polygon>
                    </g>
                    <g id="Group-70" transform="translate(673.000000, 150.000000)">
                        <mask id="mask-84" fill="white">
                            <use xlink:href="#path-83"></use>
                        </mask>
                        <g id="Clip-69"></g>
                        <polygon id="Fill-68" fill="#D6E4FF" mask="url(#mask-84)" points="0 0 37 0 37 108 0 108"></polygon>
                    </g>
                    <g id="Group-73" transform="translate(759.000000, 143.000000)">
                        <mask id="mask-86" fill="white">
                            <use xlink:href="#path-85"></use>
                        </mask>
                        <g id="Clip-72"></g>
                        <polygon id="Fill-71" fill="#D6E4FF" mask="url(#mask-86)" points="0 0 37 0 37 115 0 115"></polygon>
                    </g>
                    <g id="Group-76" transform="translate(844.000000, 133.000000)">
                        <mask id="mask-88" fill="white">
                            <use xlink:href="#path-87"></use>
                        </mask>
                        <g id="Clip-75"></g>
                        <polygon id="Fill-74" fill="#D6E4FF" mask="url(#mask-88)" points="0 0 37 0 37 125 0 125"></polygon>
                    </g>
                    <g id="Group-79" transform="translate(930.000000, 113.000000)">
                        <mask id="mask-90" fill="white">
                            <use xlink:href="#path-89"></use>
                        </mask>
                        <g id="Clip-78"></g>
                        <polygon id="Fill-77" fill="#D6E4FF" mask="url(#mask-90)" points="0 0 37 0 37 145 0 145"></polygon>
                    </g>
                    <g id="Group-82" transform="translate(1015.000000, 105.000000)">
                        <mask id="mask-92" fill="white">
                            <use xlink:href="#path-91"></use>
                        </mask>
                        <g id="Clip-81"></g>
                        <polygon id="Fill-80" fill="#D6E4FF" mask="url(#mask-92)" points="0 0 38 0 38 153 0 153"></polygon>
                    </g>
                    <path d="M92.6004,110.441897 C149.65084,110.441897 206.8499,106.3259 263.7517,110.441897 M263.7517,110.441897 C292.4988,112.52132 320.5803,120.74273 349.3274,122.82215 M349.3274,122.82215 C377.7782,124.88015 406.4521,120.76415 434.903,122.82215 M434.903,122.82215 C463.6501,124.90157 491.9534,131.07565 520.4787,135.2024 M520.4787,135.2024 C605.7681,147.54124 690.4855,166.23582 777.2056,159.96291 M777.2056,159.96291 C805.9527,157.88348 834.2561,151.70941 862.7813,147.58266 M862.7813,147.58266 C919.8317,139.32915 976.8821,131.07565 1033.9326,122.82215" id="Stroke-83" stroke="#222C45" stroke-width="2" stroke-linecap="round"></path>
                    <g id="Group-91" transform="translate(26.000000, 305.000000)">
                        <g id="Group-87" transform="translate(0.000000, 14.000000)">
                            <mask id="mask-94" fill="white">
                                <use xlink:href="#path-93"></use>
                            </mask>
                            <g id="Clip-86"></g>
                            <line x1="4.00000005e-07" y1="0.499969" x2="16" y2="0.499969" id="Stroke-85" stroke="#222C45" stroke-width="2.837305" mask="url(#mask-94)"></line>
                        </g>
                        <text id="Tariﬀ-forecast" font-family="Helvetica" font-size="14.6" font-weight="normal" letter-spacing="-1.16654" fill="#000000">
                            <tspan x="24.54537" y="14.5953805">T</tspan>
                            <tspan x="30.67883" y="14.5953805" letter-spacing="0.00292">ar</tspan>
                            <tspan x="43.6664083" y="14.5953805" letter-spacing="-0.00146">i</tspan>
                            <tspan x="46.9086006" y="14.5953805" font-family="LucidaGrande, Lucida Grande" letter-spacing="0.00292">ﬀ</tspan>
                            <tspan x="57.1985323" y="14.5953805" letter-spacing="-0.00292"> </tspan>
                            <tspan x="61.25196" y="14.5953805" letter-spacing="-0.00146">f</tspan>
                            <tspan x="65.3068477" y="14.5953805">o</tspan>
                            <tspan x="73.4266719" y="14.5953805" letter-spacing="-0.28908">r</tspan>
                            <tspan x="77.9995059" y="14.5953805">e</tspan>
                            <tspan x="86.1193302" y="14.5953805" letter-spacing="0.00146">c</tspan>
                            <tspan x="93.4207902" y="14.5953805" letter-spacing="0.00292">a</tspan>
                            <tspan x="101.543534" y="14.5953805" letter-spacing="0.00146">s</tspan>
                            <tspan x="108.844994" y="14.5953805">t</tspan>
                        </text>
                        <polygon id="Fill-89" fill="#D6E4FF" points="171 7 186 7 186 23 171 23"></polygon>
                        <text id="Historical-data" font-family="Helvetica" font-size="14.6" font-weight="normal" letter-spacing="-0.00292" fill="#000000">
                            <tspan x="194.7956" y="14.5953805">H</tspan>
                            <tspan x="205.336332" y="14.5953805" letter-spacing="-0.00146">i</tspan>
                            <tspan x="208.578525" y="14.5953805" letter-spacing="0.00146">s</tspan>
                            <tspan x="215.879985" y="14.5953805">to</tspan>
                            <tspan x="228.056157" y="14.5953805" letter-spacing="0.00292">r</tspan>
                            <tspan x="232.920991" y="14.5953805" letter-spacing="-0.00146">i</tspan>
                            <tspan x="236.163183" y="14.5953805" letter-spacing="0.00146">c</tspan>
                            <tspan x="243.464643" y="14.5953805" letter-spacing="0.00292">a</tspan>
                            <tspan x="251.587387" y="14.5953805" letter-spacing="-0.00146">l</tspan>
                            <tspan x="254.82958" y="14.5953805"> d</tspan>
                            <tspan x="266.999911" y="14.5953805" letter-spacing="0.00292">a</tspan>
                            <tspan x="275.122656" y="14.5953805">ta</tspan>
                        </text>
                    </g>
                </g>
                <g id="Group" transform="translate(832.250000, 562.500000)">
                    <text id="View-by" font-family="Helvetica" font-size="18" font-weight="normal" line-spacing="24" fill="#222B45">
                        <tspan x="0" y="26">View by </tspan>
                    </text>
                    <g id="11)-Form:-Select/-1)-Input/-1)-Default" transform="translate(78.500000, 0.000000)">
                        <g id="Setup/Text-Fields-&amp;-Inputs/▭-Shape" fill="#F7F9FC" fill-rule="evenodd">
                            <rect id="🎨-Background" x="0" y="0" width="195.428571" height="40" rx="4"></rect>
                        </g>
                        <g id="Setup/Text-Fields-&amp;-Inputs/▭-Shape" stroke="#E4E9F2" stroke-width="1">
                            <rect id="🎨-Background" x="0.5" y="0.5" width="195" height="39" rx="4"></rect>
                        </g>
                        <text id="✍️---Option" font-family="Helvetica" font-size="15" font-weight="normal" line-spacing="20" fill="#8F9BB3">
                            <tspan x="16" y="23">Price</tspan>
                        </text>
                        <g id="27)-Icon/chevron-down" transform="translate(160.000000, 8.000000)">
                            <mask id="mask-96" fill="white">
                                <use xlink:href="#path-95"></use>
                            </mask>
                            <use id="🎨-Icon-Сolor" fill="#8F9BB3" fill-rule="evenodd" xlink:href="#path-95"></use>
                        </g>
                    </g>
                </g>
                <circle id="Oval" stroke="#222B45" stroke-width="2" fill="#FFFFFF" cx="293.742969" cy="734.434866" r="5"></circle>
                <g id="23)-Tooltip/-9)-Paragraph:-Text-(▼)" opacity="0.911948048" transform="translate(170.742969, 614.000000)">
                    <g id="▼-Position" fill="#2E3A59">
                        <g id="23)-Tooltip/12)-Other:/Tile-Shape:-Tooltip">
                            <rect id="Rectangle" x="0" y="0" width="246" height="104" rx="4"></rect>
                        </g>
                        <g id="23)-Tooltip/12)-Other:/Arrow-Shape:-Tooltip" transform="translate(116.000000, 104.000000)">
                            <polygon id="🎨-Color" points="7 4.4408921e-16 14 7 0 7"></polygon>
                        </g>
                    </g>
                    <text id="Text" font-family="Helvetica" font-size="12" font-weight="normal" line-spacing="16" fill="#FFFFFF">
                        <tspan x="16" y="21">March performance</tspan>
                        <tspan x="16" y="37">Tariff saving: £39</tspan>
                        <tspan x="16" y="53">16 days of flexible kWh rate</tspan>
                        <tspan x="16" y="69">50% shift required of consumption to </tspan>
                        <tspan x="16" y="85">low pricing periods</tspan>
                    </text>
                </g>
                <g id="Group-28" transform="translate(26.742950, 1200.443085)">
                    <g id="-10)-Form:-Elements/3)-Caption:-Text/1)-Default" transform="translate(0.000000, 72.000000)" fill="#8F9BB3" font-family="Helvetica" font-size="12" font-weight="normal" line-spacing="16">
                        <text id="✍️-Text">
                            <tspan x="0" y="17">Must include 1 uppername letter, 1 number and 1 special character</tspan>
                        </text>
                    </g>
                    <g id="-10)-Form:-Elements/5)-Label" font-family="Helvetica" font-size="12" font-weight="normal" line-spacing="16">
                        <text id="✍️---Label" fill="#8992A3">
                            <tspan x="0" y="11">PASSWORD</tspan>
                        </text>
                        <text id="✍️-Text"></text>
                    </g>
                    <g id="-10)-Form:-Elements/1)-Input:-Text/-1)-Default" transform="translate(0.000000, 24.000000)">
                        <g id="Setup/Text-Fields-&amp;-Inputs/▭-Shape" fill="#F7F9FC" fill-rule="evenodd">
                            <rect id="🎨-Background" x="0" y="0" width="510" height="48" rx="4"></rect>
                        </g>
                        <g id="Setup/Text-Fields-&amp;-Inputs/▭-Shape" stroke="#E4E9F2" stroke-width="1">
                            <rect id="🎨-Background" x="0.5" y="0.5" width="509" height="47" rx="4"></rect>
                        </g>
                        <text id="✍️---Placeholder" font-family="Helvetica" font-size="15" font-weight="normal" line-spacing="20" fill="#8F9BB3">
                            <tspan x="16" y="26.6">**************</tspan>
                        </text>
                    </g>
                </g>
                <g id="27)-Icon/info-fill" transform="translate(1107.750000, 494.500000)">
                    <mask id="mask-98" fill="white">
                        <use xlink:href="#path-97"></use>
                    </mask>
                    <use id="🎨-Icon-Сolor" fill="#8F9BB3" fill-rule="evenodd" xlink:href="#path-97"></use>
                </g>
            </g>
        </g>
    </g>
</svg>