<?xml version="1.0" encoding="UTF-8"?>
<svg width="41px" height="41px" viewBox="0 0 41 41" version="1.1" xmlns="http://www.w3.org/2000/svg" xmlns:xlink="http://www.w3.org/1999/xlink">
    <title>03) Button: ★/4) 48px - Large/1) Filled/7) Basic</title>
    <defs>
        <path d="M15.8333333,15 C15.8333333,15.46 15.46,15.8333333 15,15.8333333 C14.54,15.8333333 14.1666667,15.46 14.1666667,15 C14.1666667,14.54 14.54,14.1666667 15,14.1666667 C15.46,14.1666667 15.8333333,14.54 15.8333333,15 L15.8333333,15 Z M10,12.5 L3.33333333,12.5 L3.34666667,4.16666667 L12.5,4.16666667 L12.4866667,12.5 L10,12.5 Z M5.83333333,15 C5.83333333,15.46 5.46,15.8333333 5,15.8333333 C4.54,15.8333333 4.16666667,15.46 4.16666667,15 C4.16666667,14.54 4.54,14.1666667 5,14.1666667 C5.46,14.1666667 5.83333333,14.54 5.83333333,15 L5.83333333,15 Z M16.6666667,10.4 L16.6666667,12.5 L14.1666667,12.5 L14.1666667,8.40083333 L16.6666667,10.4 Z M18.0208333,9.34916667 L14.1666667,6.26583333 L14.1666667,4.16666667 C14.1666667,3.2475 13.4891667,2.5 12.6558333,2.5 L3.17666667,2.5 C2.34416667,2.5 1.66666667,3.2475 1.66666667,4.16666667 L1.66666667,12.5 C1.66666667,13.2275 2.09416667,13.8408333 2.68416667,14.0683333 C2.5675,14.3566667 2.5,14.67 2.5,15 C2.5,16.3783333 3.62166667,17.5 5,17.5 C6.37833333,17.5 7.5,16.3783333 7.5,15 C7.5,14.7058333 7.44,14.4283333 7.34583333,14.1666667 L10,14.1666667 L12.6541667,14.1666667 C12.56,14.4283333 12.5,14.7058333 12.5,15 C12.5,16.3783333 13.6216667,17.5 15,17.5 C16.3783333,17.5 17.5,16.3783333 17.5,15 C17.5,14.7058333 17.44,14.4283333 17.3458333,14.1666667 L17.5,14.1666667 C17.9608333,14.1666667 18.3333333,13.7941667 18.3333333,13.3333333 L18.3333333,10 C18.3333333,9.74666667 18.2183333,9.5075 18.0208333,9.34916667 L18.0208333,9.34916667 Z" id="path-1"></path>
    </defs>
    <g id="2.-Results-Journey" stroke="none" stroke-width="1" fill="none" fill-rule="evenodd">
        <g id="STSC-Results2" transform="translate(-500.000000, -807.000000)">
            <g id="Group-4" transform="translate(382.500000, 401.000000)">
                <g id="Group-3" transform="translate(27.500000, 380.924683)">
                    <g id="03)-Button:-★/3)-40px---Medium/1)-Filled/7)-Basic" transform="translate(90.850606, 25.500000)">
                        <g id="Setup/Button-Background-Color/-1)-Fill/-1)-Basic-" fill="#EDF1F7" fill-rule="evenodd">
                            <g id="Setup/Button-Shape/-Background">
                                <path d="M5.1277704,-2.07168062e-16 L34.8722296,2.07168062e-16 C36.6552671,-1.2037061e-16 37.3018396,0.185651222 37.9536914,0.534265408 C38.6055433,0.882879593 39.1171204,1.39445674 39.4657346,2.04630859 C39.8143488,2.69816044 40,3.34473292 40,5.1277704 L40,34.8722296 C40,36.6552671 39.8143488,37.3018396 39.4657346,37.9536914 C39.1171204,38.6055433 38.6055433,39.1171204 37.9536914,39.4657346 C37.3018396,39.8143488 36.6552671,40 34.8722296,40 L5.1277704,40 C3.34473292,40 2.69816044,39.8143488 2.04630859,39.4657346 C1.39445674,39.1171204 0.882879593,38.6055433 0.534265408,37.9536914 C0.185651222,37.3018396 8.02470732e-17,36.6552671 -1.38112041e-16,34.8722296 L1.38112041e-16,5.1277704 C-8.02470732e-17,3.34473292 0.185651222,2.69816044 0.534265408,2.04630859 C0.882879593,1.39445674 1.39445674,0.882879593 2.04630859,0.534265408 C2.69816044,0.185651222 3.34473292,1.2037061e-16 5.1277704,-2.07168062e-16 Z" id="🎨-Background"></path>
                            </g>
                        </g>
                        <g id="27)-Icon/car" transform="translate(10.000000, 10.000000)">
                            <mask id="mask-2" fill="white">
                                <use xlink:href="#path-1"></use>
                            </mask>
                            <use id="🎨-Icon-Сolor" fill="#2E3A59" fill-rule="evenodd" xlink:href="#path-1"></use>
                        </g>
                    </g>
                </g>
            </g>
        </g>
    </g>
</svg>