<?xml version="1.0" encoding="UTF-8"?>
<svg width="189px" height="101px" viewBox="0 0 189 101" version="1.1" xmlns="http://www.w3.org/2000/svg" xmlns:xlink="http://www.w3.org/1999/xlink">
    <title>logo</title>
    <g id="Form" stroke="none" stroke-width="1" fill="none" fill-rule="evenodd">
        <g id="Tariff-finder-step2" transform="translate(-383.000000, -1619.000000)">
            <g id="logo" transform="translate(383.000000, 1619.000000)">
                <circle id="Oval" fill="#3366FF" cx="50.2346308" cy="50.2346308" r="50.2346308"></circle>
                <path d="M12.362881,59.1018333 C13.8265794,59.1018333 15.0874762,58.8505357 16.1455714,58.3479405 C17.2036667,57.8453452 18.0104643,57.1619921 18.5659643,56.297881 C19.1214643,55.4337698 19.3992143,54.4638492 19.3992143,53.388119 C19.3992143,52.1360397 19.1038294,51.1088056 18.5130595,50.3064167 C17.9222897,49.5040278 17.2345278,48.895623 16.4497738,48.4812024 C15.6650198,48.0667817 14.6730556,47.6479524 13.473881,47.2247143 C12.5215952,46.8896508 11.8206071,46.5942659 11.3709167,46.3385595 C10.9212262,46.0828532 10.696381,45.7521984 10.696381,45.3465952 C10.696381,45.0468016 10.7757381,44.8219563 10.9344524,44.6720595 C11.0931667,44.5221627 11.2959683,44.4472143 11.5428571,44.4472143 C12.2658889,44.4472143 12.6714921,44.9409921 12.7596667,45.9285476 L12.7596667,45.9285476 L19.0817857,45.9285476 C18.9583413,43.9710714 18.2353095,42.4721032 16.9126905,41.4316429 C15.5900714,40.3911825 13.8089444,39.8709524 11.5693095,39.8709524 C10.2114206,39.8709524 8.99020238,40.0913889 7.90565476,40.5322619 C6.82110714,40.9731349 5.96581349,41.6212183 5.33977381,42.4765119 C4.71373413,43.3318056 4.40071429,44.3678571 4.40071429,45.5846667 C4.40071429,46.854381 4.69169048,47.8860238 5.27364286,48.6795952 C5.85559524,49.4731667 6.53894841,50.072754 7.32370238,50.4783571 C8.10845635,50.8839603 9.09160317,51.280746 10.2731429,51.6687143 C11.2783333,52.0037778 12.0057738,52.2991627 12.4554643,52.554869 C12.9051548,52.8105754 13.13,53.1588651 13.13,53.5997381 C13.13,53.8995317 13.0374167,54.1287857 12.85225,54.2875 C12.6670833,54.4462143 12.4246032,54.5255714 12.1248095,54.5255714 C11.2606984,54.5255714 10.7845556,53.9877063 10.696381,52.9119762 L10.696381,52.9119762 L4.45361905,52.9119762 C4.57706349,54.9399921 5.36622619,56.4786389 6.82110714,57.5279167 C8.2759881,58.5771944 10.123246,59.1018333 12.362881,59.1018333 Z M26.3902006,58.9166667 L26.3902006,49.5789762 L29.2735101,58.9166667 L34.2994625,58.9166667 L37.182772,49.5789762 L37.182772,58.9166667 L43.0287482,58.9166667 L43.0287482,40.188381 L35.860153,40.188381 L31.8393911,51.4306429 L27.7128197,40.188381 L20.517772,40.188381 L20.517772,58.9166667 L26.3902006,58.9166667 Z M49.5700441,58.9166667 L50.4958774,56.0862619 L56.7386393,56.0862619 L57.6644727,58.9166667 L63.8543298,58.9166667 L57.0296155,40.188381 L50.257806,40.188381 L43.4066393,58.9166667 L49.5700441,58.9166667 Z M55.3102108,51.6687143 L51.924306,51.6687143 L53.6172584,46.4575952 L55.3102108,51.6687143 Z M70.1046495,58.9166667 L70.1046495,52.1977619 L73.6492685,58.9166667 L80.1036495,58.9166667 L76.0299828,51.7480714 C77.3349669,51.3248333 78.3357487,50.628254 79.032328,49.6583333 C79.7289074,48.6884127 80.0771971,47.5774127 80.0771971,46.3253333 C80.0771971,45.1614286 79.8082646,44.1165595 79.2703995,43.1907262 C78.7325344,42.2648929 77.9257368,41.5330437 76.8500066,40.9951786 C75.7742765,40.4573135 74.4781098,40.188381 72.9615066,40.188381 L72.9615066,40.188381 L64.2322209,40.188381 L64.2322209,58.9166667 L70.1046495,58.9166667 Z M72.432459,48.2828095 L70.1046495,48.2828095 L70.1046495,45.1085238 L72.432459,45.1085238 C72.9791415,45.1085238 73.3979709,45.2496032 73.6889471,45.5317619 C73.9799233,45.8139206 74.1254114,46.2018889 74.1254114,46.6956667 C74.1254114,47.2423492 73.984332,47.6435437 73.7021733,47.89925 C73.4200146,48.1549563 72.9967765,48.2828095 72.432459,48.2828095 L72.432459,48.2828095 Z M90.7450644,58.9166667 L90.7450644,44.844 L95.718112,44.844 L95.718112,40.188381 L79.952493,40.188381 L79.952493,44.844 L84.8726358,44.844 L84.8726358,58.9166667 L90.7450644,58.9166667 Z" id="SMART" fill="#FFFFFF" fill-rule="nonzero"></path>
                <path d="M108.516743,49.297619 L108.516743,42.581119 L110.890243,42.581119 L110.890243,40.359119 L103.365743,40.359119 L103.365743,42.581119 L105.713993,42.581119 L105.713993,49.297619 L108.516743,49.297619 Z M113.507225,49.297619 L113.9491,47.946744 L116.9286,47.946744 L117.370475,49.297619 L120.324725,49.297619 L117.067475,40.359119 L113.835475,40.359119 L110.5656,49.297619 L113.507225,49.297619 Z M116.24685,45.838369 L114.63085,45.838369 L115.43885,43.351244 L116.24685,45.838369 Z M123.307832,49.297619 L123.307832,46.090869 L124.999582,49.297619 L128.080082,49.297619 L126.135832,45.876244 C126.758666,45.674244 127.236312,45.3417857 127.56877,44.878869 C127.901228,44.4159524 128.067457,43.8857024 128.067457,43.288119 C128.067457,42.732619 127.939103,42.2339315 127.682395,41.7920565 C127.425687,41.3501815 127.040624,41.0008899 126.527207,40.7441815 C126.013791,40.4874732 125.395166,40.359119 124.671332,40.359119 L124.671332,40.359119 L120.505082,40.359119 L120.505082,49.297619 L123.307832,49.297619 Z M124.418832,44.222369 L123.307832,44.222369 L123.307832,42.707369 L124.418832,42.707369 C124.679749,42.707369 124.879645,42.7747024 125.01852,42.909369 C125.157395,43.0440357 125.226832,43.2292024 125.226832,43.464869 C125.226832,43.7257857 125.159499,43.9172649 125.024832,44.0393065 C124.890166,44.1613482 124.688166,44.222369 124.418832,44.222369 L124.418832,44.222369 Z M131.31569,49.297619 L131.31569,40.359119 L128.51294,40.359119 L128.51294,49.297619 L131.31569,49.297619 Z M134.930047,49.297619 L134.930047,45.926744 L137.455047,45.926744 L137.455047,43.818369 L134.930047,43.818369 L134.930047,42.581119 L138.439797,42.581119 L138.439797,40.359119 L132.127297,40.359119 L132.127297,49.297619 L134.930047,49.297619 Z M141.738529,49.297619 L141.738529,45.926744 L144.263529,45.926744 L144.263529,43.818369 L141.738529,43.818369 L141.738529,42.581119 L145.248279,42.581119 L145.248279,40.359119 L138.935779,40.359119 L138.935779,49.297619 L141.738529,49.297619 Z M108.036993,58.9797917 C108.811327,58.9797917 109.503597,58.8346042 110.113806,58.5442292 C110.724014,58.2538542 111.220597,57.8435417 111.603556,57.3132917 C111.986514,56.7830417 112.241118,56.1644167 112.367368,55.4574167 L112.367368,55.4574167 L109.413118,55.4574167 C109.278452,55.752 109.086972,55.9813542 108.838681,56.1454792 C108.590389,56.3096042 108.306327,56.3916667 107.986493,56.3916667 C107.51516,56.3916667 107.142722,56.2149167 106.869181,55.8614167 C106.595639,55.5079167 106.458868,55.032375 106.458868,54.4347917 C106.458868,53.8372083 106.595639,53.3616667 106.869181,53.0081667 C107.142722,52.6546667 107.51516,52.4779167 107.986493,52.4779167 C108.306327,52.4779167 108.590389,52.5599792 108.838681,52.7241042 C109.086972,52.8882292 109.278452,53.1175833 109.413118,53.4121667 L109.413118,53.4121667 L112.367368,53.4121667 C112.241118,52.7051667 111.986514,52.0865417 111.603556,51.5562917 C111.220597,51.0260417 110.724014,50.6157292 110.113806,50.3253542 C109.503597,50.0349792 108.811327,49.8897917 108.036993,49.8897917 C107.13641,49.8897917 106.35366,50.0812708 105.688743,50.4642292 C105.023827,50.8471875 104.512514,51.38375 104.154806,52.0739167 C103.797097,52.7640833 103.618243,53.5510417 103.618243,54.4347917 C103.618243,55.3185417 103.797097,56.1055 104.154806,56.7956667 C104.512514,57.4858333 105.023827,58.0223958 105.688743,58.4053542 C106.35366,58.7883125 107.13641,58.9797917 108.036993,58.9797917 Z M117.2821,59.0050417 C118.11535,59.0050417 118.883371,58.80725 119.586163,58.4116667 C120.288955,58.0160833 120.844455,57.469 121.252663,56.7704167 C121.660871,56.0718333 121.864975,55.284875 121.864975,54.4095417 C121.864975,53.5342083 121.660871,52.74725 121.252663,52.0486667 C120.844455,51.3500833 120.291059,50.8051042 119.592475,50.4137292 C118.893892,50.0223542 118.123767,49.8266667 117.2821,49.8266667 C116.440434,49.8266667 115.668205,50.0223542 114.965413,50.4137292 C114.262621,50.8051042 113.705017,51.3500833 113.2926,52.0486667 C112.880184,52.74725 112.673975,53.5342083 112.673975,54.4095417 C112.673975,55.284875 112.880184,56.0718333 113.2926,56.7704167 C113.705017,57.469 114.262621,58.0160833 114.965413,58.4116667 C115.668205,58.80725 116.440434,59.0050417 117.2821,59.0050417 Z M117.2821,56.3916667 C116.718184,56.3916667 116.284725,56.2128125 115.981725,55.8551042 C115.678725,55.4973958 115.527225,55.0155417 115.527225,54.4095417 C115.527225,53.795125 115.678725,53.3090625 115.981725,52.9513542 C116.284725,52.5936458 116.718184,52.4147917 117.2821,52.4147917 C117.8376,52.4147917 118.26685,52.5936458 118.56985,52.9513542 C118.87285,53.3090625 119.02435,53.795125 119.02435,54.4095417 C119.02435,55.0155417 118.87285,55.4973958 118.56985,55.8551042 C118.26685,56.2128125 117.8376,56.3916667 117.2821,56.3916667 Z M125.226832,58.9166667 L125.226832,54.4600417 L126.602957,58.9166667 L129.001707,58.9166667 L130.377832,54.4600417 L130.377832,58.9166667 L133.167957,58.9166667 L133.167957,49.9781667 L129.746582,49.9781667 L127.827582,55.3437917 L125.858082,49.9781667 L122.424082,49.9781667 L122.424082,58.9166667 L125.226832,58.9166667 Z M136.782315,58.9166667 L136.782315,56.0760417 L137.893315,56.0760417 C138.617148,56.0760417 139.233669,55.941375 139.742877,55.6720417 C140.252085,55.4027083 140.637148,55.0386875 140.898065,54.5799792 C141.158981,54.1212708 141.28944,53.6099583 141.28944,53.0460417 C141.28944,52.1117917 140.99696,51.3669167 140.412002,50.8114167 C139.827044,50.2559167 138.987481,49.9781667 137.893315,49.9781667 L137.893315,49.9781667 L133.979565,49.9781667 L133.979565,58.9166667 L136.782315,58.9166667 Z M137.57769,53.8666667 L136.782315,53.8666667 L136.782315,52.2254167 L137.57769,52.2254167 C138.15844,52.2254167 138.448815,52.4989583 138.448815,53.0460417 C138.448815,53.593125 138.15844,53.8666667 137.57769,53.8666667 L137.57769,53.8666667 Z M144.032672,58.9166667 L144.474547,57.5657917 L147.454047,57.5657917 L147.895922,58.9166667 L150.850172,58.9166667 L147.592922,49.9781667 L144.360922,49.9781667 L141.091047,58.9166667 L144.032672,58.9166667 Z M146.772297,55.4574167 L145.156297,55.4574167 L145.964297,52.9702917 L146.772297,55.4574167 Z M153.833279,58.9166667 L153.833279,55.7099167 L155.525029,58.9166667 L158.605529,58.9166667 L156.661279,55.4952917 C157.284112,55.2932917 157.761758,54.9608333 158.094216,54.4979167 C158.426675,54.035 158.592904,53.50475 158.592904,52.9071667 C158.592904,52.3516667 158.46455,51.8529792 158.207841,51.4111042 C157.951133,50.9692292 157.56607,50.6199375 157.052654,50.3632292 C156.539237,50.1065208 155.920612,49.9781667 155.196779,49.9781667 L155.196779,49.9781667 L151.030529,49.9781667 L151.030529,58.9166667 L153.833279,58.9166667 Z M154.944279,53.8414167 L153.833279,53.8414167 L153.833279,52.3264167 L154.944279,52.3264167 C155.205195,52.3264167 155.405091,52.39375 155.543966,52.5284167 C155.682841,52.6630833 155.752279,52.84825 155.752279,53.0839167 C155.752279,53.3448333 155.684945,53.5363125 155.550279,53.6583542 C155.415612,53.7803958 155.213612,53.8414167 154.944279,53.8414167 L154.944279,53.8414167 Z M161.841136,58.9166667 L161.841136,49.9781667 L159.038386,49.9781667 L159.038386,58.9166667 L161.841136,58.9166667 Z M166.200368,59.0050417 C166.898951,59.0050417 167.500743,58.8851042 168.005743,58.6452292 C168.510743,58.4053542 168.895806,58.0792083 169.160931,57.6667917 C169.426056,57.254375 169.558618,56.7914583 169.558618,56.2780417 C169.558618,55.6804583 169.417639,55.1901875 169.135681,54.8072292 C168.853722,54.4242708 168.525472,54.1338958 168.150931,53.9361042 C167.776389,53.7383125 167.302951,53.5384167 166.730618,53.3364167 C166.276118,53.1765 165.941556,53.0355208 165.726931,52.9134792 C165.512306,52.7914375 165.404993,52.633625 165.404993,52.4400417 C165.404993,52.2969583 165.442868,52.1896458 165.518618,52.1181042 C165.594368,52.0465625 165.69116,52.0107917 165.808993,52.0107917 C166.154076,52.0107917 166.34766,52.2464583 166.389743,52.7177917 L166.389743,52.7177917 L169.407118,52.7177917 C169.348201,51.7835417 169.003118,51.068125 168.371868,50.5715417 C167.740618,50.0749583 166.890535,49.8266667 165.821618,49.8266667 C165.173535,49.8266667 164.590681,49.931875 164.073056,50.1422917 C163.555431,50.3527083 163.147222,50.6620208 162.848431,51.0702292 C162.549639,51.4784375 162.400243,51.9729167 162.400243,52.5536667 C162.400243,53.1596667 162.539118,53.6520417 162.816868,54.0307917 C163.094618,54.4095417 163.420764,54.6957083 163.795306,54.8892917 C164.169847,55.082875 164.639076,55.27225 165.202993,55.4574167 C165.682743,55.6173333 166.029931,55.7583125 166.244556,55.8803542 C166.459181,56.0023958 166.566493,56.168625 166.566493,56.3790417 C166.566493,56.522125 166.522306,56.6315417 166.433931,56.7072917 C166.345556,56.7830417 166.229826,56.8209167 166.086743,56.8209167 C165.674326,56.8209167 165.447076,56.5642083 165.404993,56.0507917 L165.404993,56.0507917 L162.425493,56.0507917 C162.48441,57.0187083 162.861056,57.7530625 163.555431,58.2538542 C164.249806,58.7546458 165.131451,59.0050417 166.200368,59.0050417 Z M174.4481,59.0050417 C175.28135,59.0050417 176.049371,58.80725 176.752163,58.4116667 C177.454954,58.0160833 178.010454,57.469 178.418663,56.7704167 C178.826871,56.0718333 179.030975,55.284875 179.030975,54.4095417 C179.030975,53.5342083 178.826871,52.74725 178.418663,52.0486667 C178.010454,51.3500833 177.457058,50.8051042 176.758475,50.4137292 C176.059892,50.0223542 175.289767,49.8266667 174.4481,49.8266667 C173.606433,49.8266667 172.834204,50.0223542 172.131413,50.4137292 C171.428621,50.8051042 170.871017,51.3500833 170.4586,52.0486667 C170.046183,52.74725 169.839975,53.5342083 169.839975,54.4095417 C169.839975,55.284875 170.046183,56.0718333 170.4586,56.7704167 C170.871017,57.469 171.428621,58.0160833 172.131413,58.4116667 C172.834204,58.80725 173.606433,59.0050417 174.4481,59.0050417 Z M174.4481,56.3916667 C173.884183,56.3916667 173.450725,56.2128125 173.147725,55.8551042 C172.844725,55.4973958 172.693225,55.0155417 172.693225,54.4095417 C172.693225,53.795125 172.844725,53.3090625 173.147725,52.9513542 C173.450725,52.5936458 173.884183,52.4147917 174.4481,52.4147917 C175.0036,52.4147917 175.43285,52.5936458 175.73585,52.9513542 C176.03885,53.3090625 176.19035,53.795125 176.19035,54.4095417 C176.19035,55.0155417 176.03885,55.4973958 175.73585,55.8551042 C175.43285,56.2128125 175.0036,56.3916667 174.4481,56.3916667 Z M182.392832,58.9166667 L182.392832,54.4221667 L185.359707,58.9166667 L188.162457,58.9166667 L188.162457,49.9781667 L185.359707,49.9781667 L185.359707,54.5484167 L182.392832,49.9781667 L179.590082,49.9781667 L179.590082,58.9166667 L182.392832,58.9166667 Z" id="TARIFFCOMPARISON" fill="#FFFFFF" fill-rule="nonzero"></path>
            </g>
        </g>
    </g>
</svg>