<?xml version="1.0" encoding="UTF-8"?>
<svg width="232px" height="174px" viewBox="0 0 232 174" version="1.1" xmlns="http://www.w3.org/2000/svg" xmlns:xlink="http://www.w3.org/1999/xlink">
    <title>Group 8</title>
    <defs>
        <linearGradient x1="50.0007195%" y1="99.9999848%" x2="50.0007195%" y2="-0.000106094604%" id="linearGradient-1">
            <stop stop-color="#808080" stop-opacity="0.25" offset="0%"></stop>
            <stop stop-color="#808080" stop-opacity="0.12" offset="53.514%"></stop>
            <stop stop-color="#808080" stop-opacity="0.1" offset="100%"></stop>
        </linearGradient>
    </defs>
    <g id="Form" stroke="none" stroke-width="1" fill="none" fill-rule="evenodd">
        <g id="Tariff-finder-step1" transform="translate(-1220.000000, -874.000000)" fill-rule="nonzero">
            <g id="Group-8" transform="translate(1220.837874, 874.491306)">
                <rect id="Rectangle" fill="#F2F2F2" x="60.352554" y="133.337087" width="138.148256" height="37.8920207"></rect>
                <polygon id="Path" fill="#414E9F" points="70.3241202 96.7427381 188.692309 96.7427381 207.274338 137.489637 54.6427975 137.489637"></polygon>
                <rect id="Rectangle" fill="#F2F2F2" x="179.86814" y="146.505636" width="3.77265156" height="3.51687783"></rect>
                <rect id="Rectangle" fill="#F2F2F2" x="184.919657" y="146.505636" width="3.77265156" height="3.51687783"></rect>
                <rect id="Rectangle" fill="#4957B2" x="54.6427975" y="137.489637" width="152.631541" height="2.93966637"></rect>
                <g id="Group-2" transform="translate(190.557919, 72.465706)">
                    <path d="M39.8540851,38.6503418 C39.9316554,32.746443 38.1207331,26.9722128 34.6854984,22.170005 C37.8143227,15.6701255 36.0331624,7.87040218 30.3929839,3.3730295 C24.7528053,-1.12434317 16.7522919,-1.12434317 11.1121133,3.3730295 C5.47193482,7.87040218 3.69077457,15.6701255 6.81959885,22.170005 C-0.0718497052,32.0762433 -0.0718497052,45.2244402 6.81959885,55.1306785 C3.69077457,61.630558 5.47193482,69.4302813 11.1121133,73.927654 C16.7522919,78.4250267 24.7528053,78.4250267 30.3929839,73.927654 C36.0331624,69.4302813 37.8143227,61.630558 34.6854984,55.1306785 C38.1207288,50.3284686 39.9316507,44.5542398 39.8540851,38.6503418 L39.8540851,38.6503418 Z" id="Path" fill="#4DB6AC"></path>
                    <path d="M38.2030727,39.27215 C38.2806429,33.3682513 36.4697206,27.5940211 33.0344859,22.7918133 C36.1633102,16.2919338 34.38215,8.49221045 28.7419714,3.99483777 C23.1017929,-0.502534898 15.1012794,-0.502534898 9.46110092,3.99483777 C3.82092238,8.49221045 2.03976214,16.2919338 5.16858641,22.7918133 C-1.72286214,32.6980515 -1.72286214,45.8462485 5.16858641,55.7524868 C2.03976214,62.2523663 3.82092238,70.0520896 9.46110092,74.5494623 C15.1012794,79.0468349 23.1017929,79.0468349 28.7419714,74.5494623 C34.38215,70.0520896 36.1633102,62.2523663 33.0344859,55.7524868 C36.4697164,50.9502768 38.2806383,45.1760481 38.2030727,39.27215 Z" id="Path" fill="#000000" opacity="0.1"></path>
                    <polygon id="Path" fill="#5D291B" points="21.087603 98.683929 17.4489562 98.683929 19.268651 38.6503418"></polygon>
                    <polygon id="Path" fill="#5D291B" points="19.7232033 53.6542822 31.5482484 48.655692 19.7232033 55.0231383"></polygon>
                    <polygon id="Path" fill="#5D291B" points="18.6484693 59.1163374 15.1754519 55.0231383 18.5793952 61.3905845"></polygon>
                </g>
                <rect id="Rectangle" fill="#4957B2" opacity="0.5" x="103.546337" y="145.092349" width="31.9672093" height="19.9423692"></rect>
                <rect id="Rectangle" fill="#535461" x="101.644942" y="163.289296" width="35.7625727" height="3.4834157"></rect>
                <g id="Group" opacity="0.1" transform="translate(103.308663, 144.438744)" fill="#000000">
                    <rect id="Rectangle" x="0.237674419" y="0.653604651" width="31.9672093" height="7.91010174"></rect>
                </g>
                <rect id="Rectangle" fill="#4957B2" opacity="0.5" x="149.779614" y="145.092349" width="31.9672093" height="19.9423692"></rect>
                <rect id="Rectangle" fill="#535461" x="147.878219" y="163.289296" width="35.7625727" height="3.4834157"></rect>
                <g id="Group" opacity="0.1" transform="translate(149.541940, 144.438744)" fill="#000000">
                    <rect id="Rectangle" x="0.237674419" y="0.653604651" width="31.9672093" height="7.91010174"></rect>
                </g>
                <rect id="Rectangle" fill="#535461" x="73.7924712" y="143.376637" width="14.8546512" height="27.8524709"></rect>
                <circle id="Oval" fill="#F2F2F2" cx="85.9715971" cy="157.934828" r="1.03813755"></circle>
                <path d="M66.3438043,163.166528 C66.3525643,163.051931 66.3612794,162.93726 66.3612794,162.820425 C66.3635968,161.207672 65.5001175,159.717768 64.0996256,158.918019 C62.6991337,158.118269 60.9771495,158.131746 59.5893472,158.953319 C58.8626262,157.592887 57.4881502,156.70102 55.9496679,156.591611 C54.4111857,156.482202 52.9243302,157.170586 52.0124023,158.414485 C50.1428392,158.041443 48.2414825,158.88938 47.269736,160.529543 C46.2979894,162.169706 46.4676312,164.244646 47.6928834,165.705188 C47.0350226,167.409276 47.4762313,169.342078 48.8083922,170.591896 C50.1405531,171.841713 52.097541,172.158871 53.7562484,171.393765 C55.3801375,172.144646 57.2954079,171.854096 58.6235407,170.655388 C59.8427316,171.757362 61.5693001,172.099253 63.116441,171.545061 C65.4094745,172.357293 67.9323392,171.196146 68.8067554,168.926098 C69.6811717,166.656049 68.5892055,164.10248 66.3438288,163.166528 L66.3438043,163.166528 Z" id="Path" fill="#4DB6AC"></path>
                <circle id="Oval" fill="#4957B2" opacity="0.240559896" cx="17.5" cy="17.5" r="17.5"></circle>
                <g id="Group-3" transform="translate(12.000000, 149.517388)">
                    <rect id="Rectangle" fill="#535461" x="1.89182896" y="8.15449896" width="1" height="6.30609881"></rect>
                    <rect id="Rectangle" fill="#535461" x="1.47142328" y="15.3014091" width="1.05101761" height="7.35711642"></rect>
                    <rect id="Rectangle" fill="#535461" x="23.7529754" y="15.3014091" width="1.05101761" height="7.35711642"></rect>
                    <rect id="Rectangle" fill="#000000" opacity="0.1" x="1.47142328" y="15.3014091" width="1.05101761" height="7.35711642"></rect>
                    <rect id="Rectangle" fill="#000000" opacity="0.1" x="23.7529754" y="15.3014091" width="1.05101761" height="7.35711642"></rect>
                    <rect id="Rectangle" fill="#535461" transform="translate(24.383577, 11.307541) rotate(-180.000000) translate(-24.383577, -11.307541) " x="24.1733742" y="8.15449209" width="1" height="6.30609881"></rect>
                    <rect id="Rectangle" fill="#000000" opacity="0.1" x="1.89182896" y="8.15449896" width="1" height="6.30609881"></rect>
                    <rect id="Rectangle" fill="#000000" opacity="0.1" transform="translate(24.383577, 11.307541) rotate(-180.000000) translate(-24.383577, -11.307541) " x="24.1733742" y="8.15449209" width="1" height="6.30609881"></rect>
                    <rect id="Rectangle" fill="#535461" x="4.87835311e-15" y="7.73408985" width="26.4856191" height="1.26122045"></rect>
                    <rect id="Rectangle" fill="#535461" x="4.87835311e-15" y="9.83612507" width="26.4856191" height="1.26122045"></rect>
                    <rect id="Rectangle" fill="#535461" x="4.87835311e-15" y="11.9381569" width="26.4856191" height="1.26122045"></rect>
                    <rect id="Rectangle" fill="#535461" x="4.87835311e-15" y="14.2503949" width="26.4856191" height="2.31223806"></rect>
                    <g id="Group" opacity="0.7" transform="translate(3.116606, 0.000000)" fill="url(#linearGradient-1)">
                        <path d="M6.68595582,13.410023 L6.5126903,13.3776822 L6.85405493,12.1190021 C7.39186358,8.08542 5.36010881,7.67909925 4.59827328,7.66544343 C4.51063258,7.63337081 4.42126815,7.60622053 4.33059791,7.58411955 L4.33059791,7.10864776 C5.31032044,6.86672068 6.05198548,6.06480024 6.21680388,5.0692 L6.22318896,5.06980075 C6.34436806,5.06980075 6.44261925,4.88559821 6.44261925,4.65836851 C6.44737704,4.53799656 6.41395632,4.4192019 6.34713493,4.31896746 C6.35578109,4.23211672 6.36018085,4.14410567 6.36033418,4.05493433 C6.36103346,3.3372196 6.0678059,2.65052354 5.54890448,2.15468463 C5.5137898,1.97882823 5.45093966,1.80967283 5.36270746,1.65355239 C5.17576209,1.3241306 4.86460299,0.980579254 4.99137761,0.623660448 L4.1699,0.708049851 L4.16226537,0.166794627 C3.90587373,0.212846119 3.79847403,0.509882537 3.64644746,0.721413881 C3.28070284,1.23031806 2.54652567,1.30099672 2.0610403,1.69730045 C1.89607537,1.83196373 1.52451209,2.24197821 1.59497791,2.51058045 C1.26869881,2.95934646 1.09327943,3.50009338 1.09398642,4.05493433 C1.09398642,4.14406219 1.09838617,4.23207323 1.10718567,4.31896746 C1.04036428,4.4192019 1.00694355,4.53799656 1.01170134,4.65836851 C1.01170134,4.88559821 1.10994224,5.06980075 1.23113164,5.06980075 L1.23537806,5.06931672 C1.40188987,6.06481065 2.14395134,6.86621054 3.12372269,7.10866149 L3.12372269,7.58413328 C3.03305244,7.60623426 2.94368802,7.63338455 2.85604731,7.66545716 C2.09421866,7.67911299 0.0624570149,8.08543373 0.600269104,12.1190158 L0.941630299,13.377696 L0.86043,13.3928554 C0.352219011,13.4877375 0.0171390387,13.9766276 0.111992836,14.4848439 L1.45852612,21.6984884 C1.48725093,21.852364 1.63527685,21.9538195 1.78915284,21.9250967 L2.02659179,21.8807754 L2.02659179,22.021096 C1.75794623,22.1538252 1.5878525,22.4274611 1.58773119,22.7271067 L1.58773119,22.8162506 L3.17860343,22.8162506 L3.17860343,22.7271067 C3.17852296,22.4498943 3.03267192,22.1931484 2.79459955,22.0511333 L2.79459955,21.7374167 L3.01147925,21.6969333 C3.08537432,21.68314 3.15076338,21.6405567 3.19326141,21.5785514 C3.23575943,21.5165461 3.25188515,21.4401981 3.23809104,21.3663031 L1.97274776,14.5875921 L5.4816209,14.5875921 L4.21627761,21.3663031 C4.18755487,21.520181 4.28901192,21.6682084 4.4428894,21.6969333 L4.6597691,21.7374167 L4.6597691,22.0511333 C4.42169673,22.1931484 4.2758457,22.4498943 4.27576522,22.7271067 L4.27576522,22.8162506 L5.86663746,22.8162506 L5.86663746,22.7271067 C5.86651616,22.4274611 5.69642242,22.1538252 5.42777687,22.021096 L5.42777687,21.8807754 L5.66521925,21.9250967 C5.81909447,21.9538194 5.96711939,21.8523635 5.99584254,21.6984884 L7.3595606,14.3927787 C7.40055721,14.1731315 7.35261989,13.9461947 7.22629438,13.7618921 C7.09996888,13.5775895 6.90560318,13.4510184 6.68595582,13.410023 L6.68595582,13.410023 Z" id="Path"></path>
                    </g>
                    <rect id="Rectangle" fill="#FDB797" x="5.2078591" y="20.9624163" width="1" height="1.00283433"></rect>
                    <rect id="Rectangle" fill="#FDB797" x="7.74134" y="20.9624163" width="1" height="1.00283433"></rect>
                    <rect id="Rectangle" fill="#4D8AF0" x="4.41614761" y="12.7286085" width="4.85583552" height="1.74176597"></rect>
                    <g id="Group" opacity="0.05" transform="translate(4.146457, 12.701493)" fill="#000000">
                        <rect id="Rectangle" x="0.269690448" y="0.0271159701" width="4.85583552" height="1.74176597"></rect>
                    </g>
                    <path d="M4.41614761,13.045291 C5.21519567,13.2397174 6.02629219,13.380775 6.84406537,13.4675299 C7.66183856,13.380775 8.47293508,13.2397174 9.27198313,13.045291 L9.27198313,12.7813884 L4.41614761,12.7813884 L4.41614761,13.045291 Z" id="Path" fill="#000000" opacity="0.1"></path>
                    <path d="M9.27198313,12.9925112 C8.472935,13.1869371 7.6618385,13.3279948 6.84406537,13.41475 C6.02629224,13.3279948 5.21519575,13.1869371 4.41614761,12.9925112 L4.41614761,10.0895645 C4.41614761,9.44564097 4.67194368,8.82809058 5.12726604,8.37276757 C5.5825884,7.91744457 6.20013843,7.66164672 6.84406194,7.66164672 L6.84406194,7.66164672 C7.48798545,7.66164672 8.10553548,7.91744457 8.56085784,8.37276757 C9.0161802,8.82809058 9.27198313,9.44564097 9.27198313,10.0895645 L9.27198313,12.9925112 Z" id="Path" fill="#F55F44"></path>
                    <path d="M6.26348701,6.44768955 L7.42466433,6.44768955 L7.42466433,7.77791343 C7.42466433,7.92905362 7.36462412,8.0740035 7.25775187,8.18087575 C7.15087962,8.287748 7.00592974,8.34778821 6.85478955,8.34778821 L6.83333776,8.34778821 C6.68219757,8.34778821 6.53724769,8.287748 6.43037544,8.18087575 C6.32350319,8.0740035 6.26346299,7.92905362 6.26346299,7.77791343 L6.26346299,6.44768955 L6.26348701,6.44768955 Z" id="Path" fill="#FDB797"></path>
                    <path d="M6.03295149,21.3334269 L5.10191836,21.5072176 C4.88620778,21.5474813 4.67869881,21.4052562 4.6384306,21.1895464 L3.44127716,14.7761406 C3.30828745,14.0636824 3.77803816,13.378311 4.49049597,13.245319 L4.52207806,13.2394213 C4.62566665,13.2200851 4.7326938,13.2426914 4.81961466,13.302267 C4.90653552,13.3618426 4.96622996,13.4535073 4.98556582,13.557096 L6.35061239,20.8699391 C6.39088054,21.0856472 6.24865928,21.2931572 6.03295149,21.3334269 Z" id="Path" fill="#4D8AF0"></path>
                    <path d="M7.68766761,21.3394893 L8.55372403,21.5011518 C8.66592863,21.5220973 8.78185821,21.4976118 8.87600941,21.4330816 C8.97016062,21.3685515 9.03482102,21.2692628 9.05576597,21.1570581 L10.2529194,14.7436522 C10.3825515,14.0491414 9.92463222,13.3810399 9.23012313,13.2513985 L9.19854104,13.2455009 C9.08633594,13.2245554 8.97040593,13.2490415 8.87625463,13.3135723 C8.78210333,13.3781032 8.71744327,13.4773927 8.6964991,13.5895981 L7.34358075,20.8374645 C7.29997419,21.0711103 7.45402412,21.2958701 7.68766761,21.3394893 L7.68766761,21.3394893 Z" id="Path" fill="#4D8AF0"></path>
                    <path d="M6.26347672,7.3273503 C6.64484587,7.42120864 7.04328488,7.42120864 7.42465403,7.3273503 L7.42465403,6.5004694 L6.26347672,6.5004694 L6.26347672,7.3273503 Z" id="Path" fill="#000000" opacity="0.1"></path>
                    <circle id="Oval" fill="#333333" cx="6.84406537" cy="4.33645776" r="2.5334809"></circle>
                    <circle id="Oval" fill="#FDB797" cx="6.84406537" cy="4.91704642" r="2.42791776"></circle>
                    <path d="M5.24102716,2.06808104 C5.70813313,1.68677881 6.41451463,1.61877776 6.76641119,1.12914209 C6.91268433,0.925619552 7.01601269,0.639825672 7.26270313,0.59551806 L7.27004597,1.11627925 L8.06041866,1.03508925 C7.93842597,1.37849642 8.23782075,1.70903731 8.41768761,2.02598761 C8.55028655,2.26033696 8.62275915,2.52388752 8.62862851,2.79308567 C8.35427627,2.95786179 8.0139106,2.7779503 7.70857015,2.68208149 C7.40727182,2.60262059 7.09646086,2.56505764 6.78490731,2.57045254 C6.62551629,2.55930378 6.46535688,2.56809806 6.30814478,2.59663134 C6.17301053,2.6333853 6.04134312,2.68186708 5.91464224,2.74152448 C5.70440507,2.82948746 5.04071776,3.16177567 4.84529328,2.94759761 C4.62351493,2.70453224 5.06070373,2.21528448 5.24102716,2.06808104 Z" id="Path" fill="#333333"></path>
                    <path d="M5.37292701,3.69954313 C5.50578451,3.77132431 5.65185523,3.81532948 5.80225463,3.82888209 C6.42417451,3.91380786 7.05745301,3.84262656 7.6450009,3.62175507 C7.75659308,3.86315131 7.96918521,4.04287292 8.22578522,4.11273985 C8.47953169,4.17985619 8.7417978,4.20913709 9.00409836,4.19963522 C9.06184058,4.20607412 9.12018103,4.19491744 9.17147313,4.16762746 C9.28818955,4.08876149 9.23178806,3.90820119 9.16374925,3.78486627 L8.82550507,3.17165194 C8.73581312,2.98478679 8.6148369,2.81462944 8.46780358,2.66853209 C8.26317648,2.50735757 8.01974924,2.40285132 7.76196104,2.36550537 C7.16140824,2.24599801 6.54138095,2.26664758 5.9501103,2.42584776 C5.3180497,2.59669313 4.5061806,3.17496806 5.37292701,3.69954313 Z" id="Path" fill="#000000" opacity="0.1"></path>
                    <path d="M5.37292701,3.64676328 C5.50578407,3.71854495 5.65185513,3.76254906 5.80225463,3.77609881 C6.42417421,3.86102741 7.05745312,3.78984724 7.6450009,3.56897522 C7.75659308,3.81037146 7.96918521,3.99009307 8.22578522,4.05996 C8.47953169,4.12707634 8.7417978,4.15635724 9.00409836,4.14685537 C9.06184058,4.15329427 9.12018103,4.14213759 9.17147313,4.11484761 C9.28818955,4.03598164 9.23178806,3.85542134 9.16374925,3.73208642 L8.82550507,3.11886866 C8.73581302,2.93200458 8.61483679,2.76184838 8.46780358,2.61575224 C8.26317648,2.45457772 8.01974924,2.35007147 7.76196104,2.31272552 C7.16140841,2.19321816 6.54138138,2.21386654 5.9501103,2.37306448 C5.3180497,2.54391328 4.5061806,3.12218821 5.37292701,3.64676328 Z" id="Path" fill="#333333"></path>
                    <ellipse id="Oval" fill="#FDB797" cx="9.24559149" cy="4.91704642" rx="1" ry="1"></ellipse>
                    <ellipse id="Oval" fill="#FDB797" cx="4.44253582" cy="4.91704642" rx="1" ry="1"></ellipse>
                    <path d="M6.27328776,7.82328522 C6.27328776,7.82328522 3.20218701,7.34496418 3.83555896,12.0952366 L4.20483597,13.4568503 L5.26063896,13.4147569 C5.26063896,13.4147569 4.5744906,11.8313339 4.99673627,10.7757163 C5.41898194,9.72009866 6.27328776,7.82328522 6.27328776,7.82328522 Z" id="Path" fill="#F55F44"></path>
                    <path d="M7.41484299,7.82328522 C7.41484299,7.82328522 10.4859403,7.34496418 9.85257179,12.0952366 L9.48329478,13.4568503 L8.42748836,13.4147569 C8.42748836,13.4147569 9.11364015,11.8313339 8.69139448,10.7757163 C8.26914881,9.72009866 7.41484299,7.82328522 7.41484299,7.82328522 Z" id="Path" fill="#F55F44"></path>
                    <circle id="Oval" fill="#FDB797" cx="4.78561343" cy="13.6258831" r="1"></circle>
                    <circle id="Oval" fill="#FDB797" cx="9.00807701" cy="13.6258831" r="1"></circle>
                    <path d="M5.53681403,21.5430049 L5.56505597,21.5430049 C5.9799326,21.5430049 6.31625657,21.8793289 6.31625657,22.2942055 L6.31625657,22.3874997 L4.78561343,22.3874997 L4.78561343,22.294209 C4.78561343,22.0949776 4.86475624,21.9039059 5.00563378,21.7630277 C5.14651132,21.6221495 5.33758265,21.5430049 5.53681403,21.5430049 L5.53681403,21.5430049 Z" id="Path" fill="#333333"></path>
                    <path d="M8.12307478,21.5430049 L8.15131672,21.5430049 C8.56619335,21.5430049 8.90251731,21.8793289 8.90251731,22.2942055 L8.90251731,22.3874997 L7.37187418,22.3874997 L7.37187418,22.294209 C7.37187418,22.0949776 7.45101699,21.9039059 7.59189453,21.7630277 C7.73277206,21.6221495 7.9238434,21.5430049 8.12307478,21.5430049 L8.12307478,21.5430049 Z" id="Path" fill="#333333"></path>
                    <path d="M4.94395642,10.3534706 C4.94395642,10.3534706 4.73283701,11.4618681 5.1022994,11.9368936" id="Path" fill="#000000" opacity="0.1"></path>
                    <path d="M8.74417433,10.3534706 C8.74417433,10.3534706 8.95529373,11.4618681 8.58583134,11.9368936" id="Path" fill="#000000" opacity="0.1"></path>
                </g>
                <path d="M21.9193041,62.6379026 L27.627263,58.072628 C23.1930043,57.583411 21.3710463,60.0017549 20.6253966,61.9159015 C17.161195,60.4773928 13.3899523,62.3626204 13.3899523,62.3626204 L24.8105205,66.5086938 C24.2343742,64.9698025 23.2314383,63.6270613 21.9193041,62.6379026 L21.9193041,62.6379026 Z" id="Path" fill="#3F3D56" transform="translate(20.508608, 62.258694) scale(-1, 1) translate(-20.508608, -62.258694) "></path>
                <path d="M52.167274,45.3806407 L57.8752329,40.8153661 C53.4409742,40.3261491 51.6190161,42.744493 50.8733664,44.6586396 C47.4091648,43.2201309 43.6379221,45.1053585 43.6379221,45.1053585 L55.0584903,49.2514318 C54.482344,47.7125406 53.4794081,46.3697994 52.167274,45.3806407 L52.167274,45.3806407 Z" id="Path" fill="#3F3D56" transform="translate(50.756578, 45.001432) scale(-1, 1) translate(-50.756578, -45.001432) "></path>
                <path d="M220.730519,122.140954 C217.772225,121.814576 217.480047,121.099789 216.982591,122.376802 C214.671466,121.417108 212.1555,122.674829 212.1555,122.674829 L219.774675,125.440861 C219.390302,124.414197 218.721199,123.518394 217.845815,122.858482 L220.730519,122.140954 Z" id="Path" fill="#3F3D56"></path>
            </g>
        </g>
    </g>
</svg>