<?xml version="1.0" encoding="UTF-8"?>
<svg width="83px" height="164px" viewBox="0 0 83 164" version="1.1" xmlns="http://www.w3.org/2000/svg" xmlns:xlink="http://www.w3.org/1999/xlink">
    <title>Group</title>
    <g id="Page-1" stroke="none" stroke-width="1" fill="none" fill-rule="evenodd">
        <g id="Group" fill-rule="nonzero">
            <g id="logo__item--business" transform="translate(4.000000, 124.000000)" fill="#88AB58" font-family="Montserrat-Bold, Montserrat" font-size="32" font-weight="bold">
                <g id="Group" transform="translate(0.687500, 0.898828)">
                    <text id="Pear">
                        <tspan x="0" y="31">Pear</tspan>
                    </text>
                </g>
            </g>
            <g id="logo__item--logo_0">
                <g id="Group" transform="translate(0.155890, 0.382415)">
                    <g id="Path">
                        <path d="M63.3697211,50.7483659 L63.3697211,44.6129849 C63.3697211,34.445782 55.3060775,26.1191935 45.4018196,26.1191935 L44.0870951,26.1191935 C45.0512264,20.1591091 46.2783026,14.5496179 49.7842346,9.81660964 C50.5730693,8.76483003 50.3977727,7.18716063 49.2583448,6.39832592 C48.2065652,5.60949122 46.6288958,5.78478782 45.8400611,6.92421573 C44.0870951,9.29071983 42.7723706,11.8325205 41.8082393,14.4619696 C41.2823494,11.5695756 40.1429215,7.88834703 37.5134725,5.25889802 C32.4298711,0.175296601 23.7526894,0.613538102 23.7526894,0.613538102 C23.7526894,0.613538102 23.3144479,9.37836813 28.3980493,14.5496179 C32.0792779,18.2308465 37.6011208,19.0196812 40.4058664,19.1949778 C39.8799766,21.5614819 39.4417351,23.927986 39.0911419,26.2068418 L36.9875827,26.2068418 C27.0833248,26.2068418 19.0196812,34.445782 19.0196812,44.7006332 L19.0196812,50.8360142 C8.58953343,57.5849333 1.66531771,69.2421573 1.66531771,82.3894023 C1.66531771,103.424994 19.3702744,120.516413 41.2823494,120.516413 C63.1067762,120.516413 80.8993812,103.424994 80.8993812,82.3894023 C80.8993812,69.2421573 73.8875172,57.5849333 63.3697211,50.7483659 Z" fill="#88AB58"></path>
                        <path d="M40.581163,19.0196812 C40.0552732,21.298537 39.6170317,23.5773928 39.2664385,25.8562486 L44.1747434,25.8562486 C45.1388747,19.8961642 46.3659509,14.3743213 49.8718829,9.72896134 C50.6607176,8.67718173 50.485421,7.09951233 49.3459931,6.31067762 C48.2942135,5.52184292 46.7165441,5.69713952 45.9277094,6.83656742 C44.1747434,9.20307153 42.8600189,11.7448722 41.8958876,14.3743213 C41.3699977,11.4819273 40.2305698,7.80069873 37.6011208,5.17124972 C32.5175194,0.0876483003 23.8403377,0.525889802 23.8403377,0.525889802 C23.8403377,0.525889802 23.4020962,9.29071983 28.4856976,14.4619696 C32.2545745,18.1431982 37.7764174,18.9320329 40.581163,19.0196812 Z" fill="#613627"></path>
                        <g transform="translate(5.258898, 69.242157)" fill="#6D8237">
                            <path d="M68.8039157,0.262944901 C68.015081,0.350593201 68.015081,0.350593201 64.0709075,1.2270762 C60.3896789,2.01591091 58.8996578,2.19120751 55.744319,2.71709731 C57.5849333,4.29476672 57.6725816,4.38241502 60.0390857,6.74891912 C48.5571584,21.0355921 26.2944901,30.6769051 12.270762,30.063367 C11.7448722,32.3422228 10.6054443,34.3581337 8.76483003,35.7605065 C21.3861853,42.597074 49.608938,34.445782 65.2979837,17.9679016 C65.5609286,20.1591091 65.5609286,20.5097023 65.4732803,23.5773928 C67.5768395,18.9320329 68.1903776,16.5655288 69.0668607,12.0078171 C69.8556954,6.74891912 69.2421573,2.98004221 68.8039157,0.262944901 Z"></path>
                            <path d="M45.5771162,2.54180071 C42.8600189,2.62944901 42.4217774,2.62944901 39.4417351,2.62944901 C40.2305698,3.33063541 41.1947011,4.29476672 41.8958876,5.08360142 C28.0474561,14.7249145 10.6054443,19.0196812 2.89239391,14.9002111 C2.27885581,15.8643424 1.40237281,16.7408254 0.350593201,17.4420118 C0.438241502,17.6173084 0.613538102,17.7049567 0.701186403,17.8802533 C1.3147245,17.792605 2.01591091,17.7049567 2.80474561,17.7049567 C6.66127082,17.7049567 9.37836813,19.545571 10.9560375,21.9997234 C20.2467574,22.7009098 33.3940024,19.1949778 46.0153577,11.394279 C46.3659509,12.3584103 46.8041924,13.7607831 47.1547856,14.7249145 C48.4695101,11.9201688 48.732455,11.394279 49.8718829,8.32658853 C50.6607176,6.04773272 51.0113108,4.47006332 51.5372006,2.10355921 C48.9077516,2.36650411 48.4695101,2.36650411 45.5771162,2.54180071 Z"></path>
                            <path d="M60.8279204,35.8481548 C58.9873061,38.3023072 58.7243612,38.5652521 56.9713952,40.4935147 C57.0590435,39.8799766 57.2343401,39.0911419 57.3219884,38.4776038 C40.6688113,48.9953999 25.7686003,50.0471795 18.4061431,46.5412475 L17.9679016,46.3659509 C16.5655288,45.4894679 14.7249145,44.35004 13.4101899,43.3859087 C21.9997234,48.9953999 40.0552732,45.0512264 56.3578571,34.0951888 C55.9196156,33.4816507 55.3937258,32.7804643 54.9554843,32.1669262 C57.7602299,31.816333 58.0231748,31.7286847 60.2143823,31.3780915 C62.4932381,30.93985 62.6685347,30.8522017 64.2462041,30.5016085 C63.0191279,32.692816 62.2302932,34.0075405 60.8279204,35.8481548"></path>
                        </g>
                        <g transform="translate(0.000000, 68.365674)" fill="#153037">
                            <path d="M78.3575805,13.7607831 C77.2181526,18.7567363 76.4293179,21.298537 74.0628138,26.2944901 C74.2381104,22.8762064 74.2381104,22.5256132 74.0628138,20.0714608 C54.1666496,39.7923283 17.1790669,47.3300822 7.09951233,33.8322439 C6.22302932,32.2545745 5.08360142,30.1510153 4.29476672,28.5733459 C3.76887691,27.3462697 3.15533881,25.5933037 2.71709731,24.2785792 C9.02777493,39.4417351 50.3101244,28.8362908 68.6286191,7.45010553 C66.0868184,4.73300822 65.9115218,4.64535992 63.9832592,2.80474561 C67.4891912,2.36650411 69.154509,2.19120751 73.1863308,1.49002111 C77.5687458,0.788834703 77.5687458,0.788834703 78.4452288,0.613538102 C78.8834703,3.76887691 79.4093601,7.88834703 78.3575805,13.7607831"></path>
                            <path d="M67.8397844,36.8999344 C65.7362252,39.4417351 65.385632,39.7923283 63.4573694,41.8958876 C63.632666,41.2823494 63.8079626,40.4058664 63.8956109,39.70468 C45.226523,50.6607176 28.8362908,51.2742557 20.7726472,47.0671373 L20.3344057,46.8041924 C18.8443846,45.8400611 16.8284737,44.4376883 15.4261009,43.3859087 C24.7168207,49.8718829 44.7006332,46.2783026 63.0191279,34.7963752 C62.5808864,34.1828371 62.0549966,33.3063541 61.6167551,32.6051677 C64.6844456,32.2545745 65.0350388,32.2545745 67.4015429,31.9039813 C69.8556954,31.4657398 70.1186403,31.4657398 71.8716063,31.0274983 C70.3815852,33.4816507 69.4174539,34.9716718 67.8397844,36.8999344"></path>
                            <path d="M57.3219884,8.85247833 C56.0072639,12.0954654 55.744319,12.7090035 54.1666496,15.7766941 C53.8160564,14.6372662 53.3778149,13.147245 53.0272217,12.0078171 C27.7845112,26.4697867 0.876483003,26.0315452 0.788834703,11.1313341 L0.788834703,10.6054443 C0.876483003,9.11542323 1.1394279,7.01186403 1.3147245,5.52184292 C-0.350593201,21.1232404 27.6968629,18.4937914 48.6448067,4.90830482 C47.855972,4.11947011 46.8041924,2.98004221 46.0153577,2.19120751 C49.2583448,2.36650411 49.7842346,2.36650411 52.7642768,2.36650411 C56.0072639,2.27885581 56.4455054,2.27885581 59.3378993,2.10355921 C58.7243612,4.73300822 58.2861197,6.39832592 57.3219884,8.85247833"></path>
                        </g>
                        <path d="M45.4018196,26.1191935 L44.5253366,26.1191935 C42.6847223,26.8203799 40.581163,26.9080282 38.3899555,26.1191935 L37.075231,26.1191935 C27.1709731,26.1191935 19.1073295,34.3581337 19.1073295,44.6129849 L19.1073295,50.7483659 C8.58953343,57.5849333 1.66531771,69.2421573 1.66531771,82.3894023 C1.66531771,88.1741901 2.98004221,93.696033 5.43419462,98.6043379 C6.13538102,98.6043379 6.83656742,98.6919862 7.62540213,98.6919862 C36.9875827,98.6919862 60.8279204,75.8157798 60.8279204,47.5930271 C60.8279204,41.9835359 59.8637891,36.5493412 58.1108231,31.4657398 C54.7801877,28.1351044 50.3101244,26.1191935 45.4018196,26.1191935 Z" fill="#FFFFFF" opacity="0.2"></path>
                    </g>
                </g>
            </g>
        </g>
    </g>
</svg>