<?xml version="1.0" encoding="UTF-8"?>
<svg width="123px" height="152px" viewBox="0 0 123 152" version="1.1" xmlns="http://www.w3.org/2000/svg" xmlns:xlink="http://www.w3.org/1999/xlink">
    <title>Group</title>
    <g id="Page-1" stroke="none" stroke-width="1" fill="none" fill-rule="evenodd">
        <g id="Group" fill-rule="nonzero">
            <g id="logo__item--business" transform="translate(21.000000, 112.000000)" fill="#603813" font-family="Montserrat-Bold, Montserrat" font-size="32" font-weight="bold">
                <g id="Group" transform="translate(0.726562, 0.386290)">
                    <text id="Sage">
                        <tspan x="0" y="31">Sage</tspan>
                    </text>
                </g>
            </g>
            <g id="logo__item--logo_0">
                <g id="Group" transform="translate(0.793856, 0.008505)">
                    <g>
                        <polygon id="Path" fill="#603813" points="92.7544556 31.8018992 92.7544556 87.9022439 16.02449 87.9022439 16.02449 37.3693447 12.0224313 39.3313613 12.0224313 91.9043026 96.7532632 91.9043026 96.7532632 33.4193031"></polygon>
                        <polygon id="Path" fill="#603813" points="96.7532632 25.3615432 92.7544556 22.9216203 68.5129037 8.1617939 61.9490073 4.16298629 56.2791532 0.708731755 51.6285075 4.16298629 46.244747 8.1617939 16.02449 30.608759 12.0224313 33.5802307 1.20614441 41.6168587 12.0224313 36.3176258 16.02449 34.3539837 56.8773488 14.3453159 92.7544556 28.7962914 96.7532632 30.4039421 121.206134 40.2562888"></polygon>
                        <path d="M17.027443,46.5731044 C40.2091484,45.4449855 82.2665261,59.1758504 61.8124626,86.899291 L91.7515027,86.899291 L91.7515027,65.9835766 C84.0773682,57.8022763 62.0514158,40.4107143 17.027443,46.0187981 L17.027443,46.5731044 Z" id="Path" fill="#808184"></path>
                        <path d="M34.0044944,55.1429067 C24.9486582,57.3259955 19.3747105,66.4387254 21.562676,75.5010638 C23.7425138,84.5617766 32.8617458,90.1308477 41.9192075,87.9477588 C42.9709265,87.6909248 43.9657518,87.3479377 44.9199388,86.9204229 C45.0044664,87.0780995 45.0954962,87.2390271 45.1995302,87.3967036 L54.6097323,102.00373 C55.8402597,103.918606 57.7957742,104.871168 58.9531526,104.121798 C60.1121566,103.370802 60.0520119,101.202343 58.8263612,99.290718 L49.4112824,84.6869425 C49.3056229,84.529266 49.2015889,84.376466 49.0894272,84.2350448 C53.6457921,80.229735 55.8857746,73.8966641 54.3675281,67.5879762 C52.1811882,58.53214 43.0652073,52.9549412 34.0044944,55.1429067 Z M50.5767886,66.599653 C52.4315201,74.2721619 47.7093509,81.9869346 40.0417186,83.8400406 C32.3692097,85.6866444 24.6560625,80.9693519 22.8045821,73.2984685 C20.9547272,65.6324618 25.6720197,57.914438 33.3429031,56.0629575 C41.0089099,54.2098516 48.7301847,58.9303952 50.5767886,66.599653 Z" id="Shape" fill="#D0D2D3"></path>
                        <path d="M47.9873168,65.2033214 C48.3481848,65.4910405 48.6066443,65.8909213 48.8390953,66.2940531 C49.055291,66.703687 49.2308484,67.140955 49.3576399,67.5944783 C49.6095973,68.4917717 49.697376,69.4280779 49.6762441,70.3562564 C49.6518611,71.2811839 49.5153165,72.1996092 49.2942442,73.0838984 C49.0666698,73.9779407 48.7643209,74.8427235 48.3546869,75.6554893 C48.4733507,74.7516937 48.6212741,73.8641535 48.7334358,72.9798643 C48.8455975,72.0955752 48.926874,71.2161626 48.951257,70.33675 C48.9723889,69.4524609 48.9366272,68.581176 48.8000826,67.7147677 C48.7301847,67.2872529 48.642406,66.856487 48.5091124,66.4322233 C48.382321,66.0095851 48.2213933,65.5901979 47.9873168,65.2033214 Z" id="Path" fill="#D0D2D3"></path>
                    </g>
                </g>
            </g>
        </g>
    </g>
</svg>