<?xml version="1.0" encoding="UTF-8"?>
<svg width="264px" height="183px" viewBox="0 0 264 183" version="1.1" xmlns="http://www.w3.org/2000/svg" xmlns:xlink="http://www.w3.org/1999/xlink">
    <title>undraw_authentication_fsn5</title>
    <defs>
        <linearGradient x1="0.0425262609%" y1="49.9960599%" x2="99.9912109%" y2="49.9960599%" id="linearGradient-1">
            <stop stop-color="#808080" stop-opacity="0.25" offset="0%"></stop>
            <stop stop-color="#808080" stop-opacity="0.12" offset="54%"></stop>
            <stop stop-color="#808080" stop-opacity="0.1" offset="100%"></stop>
        </linearGradient>
    </defs>
    <g id="1.-Collection-Journey" stroke="none" stroke-width="1" fill="none" fill-rule="evenodd">
        <g id="STSC-flow1" transform="translate(-1203.000000, -1345.000000)" fill-rule="nonzero">
            <g id="undraw_authentication_fsn5" transform="translate(1203.142857, 1345.078224)">
                <path d="M148.761884,24.9455019 C131.903767,24.9680545 115.677125,20.189145 100.156382,14.8802478 C84.6356382,9.57135068 69.2344238,3.6264684 52.6897893,1.10733581 C42.0494424,-0.511945477 29.949938,-0.363097893 21.6325155,5.51638166 C13.6263197,11.1725898 11.3079058,20.5342007 10.1892937,29.1831475 C9.34807931,35.6895911 8.96017348,42.5185378 12.1107807,48.4701859 C14.2983891,52.601834 18.0421314,56.0072862 20.6807931,59.9449814 C29.8913011,73.6434696 24.3523668,91.1420818 15.4012144,105.158563 C11.2041636,111.734919 6.28768278,118.038389 3.11452292,124.991375 C-0.0586369269,131.944362 -1.35992565,139.828773 1.87638166,146.691549 C5.08337051,153.493432 12.3272862,158.430211 20.1011896,161.801834 C35.8880545,168.662354 54.2684758,170.132788 72.1549938,170.69886 C111.748451,171.955043 151.418587,169.393061 190.982726,166.831078 C205.623916,165.883866 220.330508,164.929888 234.669492,162.185229 C242.630582,160.662924 250.828476,158.403147 256.473408,153.450582 C263.638389,147.1629 265.104312,136.896927 259.890136,129.517695 C251.146468,117.140793 228.09088,114.806592 221.821239,101.41482 C218.363916,94.0423544 221.345378,85.5873606 225.736382,78.4810161 C235.154374,63.2331599 251.365229,49.5752664 251.638116,32.5209418 C251.825304,20.8093432 243.395118,9.38416357 230.803965,4.29402726 C217.606146,-1.03742255 199.611375,0.33377943 190.364783,10.2704833 C180.85658,20.5071375 163.646642,24.929715 148.761884,24.9455019 Z" id="Path" fill="#3366FF" opacity="0.1"></path>
                <path d="M223.841958,145.7714 C223.841958,145.7714 221.070235,143.942379 218.323321,145.243668 C218.323321,145.243668 219.169046,146.87197 222.646667,146.718612 L223.841958,145.7714 Z" id="Path" fill="#3366FF"></path>
                <path d="M224.193779,145.868377 C224.193779,145.868377 225.037249,149.079876 222.921809,151.265229 C222.921809,151.265229 221.649839,149.941388 222.921809,146.698315 L224.193779,145.868377 Z" id="Path" fill="#3366FF"></path>
                <path d="M227.639827,142.785428 C227.639827,142.785428 227.434597,140.0543 221.266423,140.960917 C221.266423,140.960917 221.237125,142.72228 223.402181,143.556729 C225.567237,144.391177 226.559554,143.687534 227.639827,142.785428 Z" id="Path" fill="#3366FF"></path>
                <path d="M228.027732,142.767385 C228.027732,142.767385 230.63482,143.604089 228.309641,149.388848 C228.309641,149.388848 226.588872,149.005452 226.279901,146.702825 C225.970929,144.400198 226.886568,143.606344 228.027732,142.767385 Z" id="Path" fill="#3366FF"></path>
                <path d="M231.509864,138.892838 C231.509864,138.892838 231.863941,134.398092 225.560471,134.858166 C225.560471,134.858166 225.109418,138.917646 230.398017,139.97311 L231.509864,138.892838 Z" id="Path" fill="#3366FF"></path>
                <path d="M235.675341,133.818488 C235.675341,133.818488 234.811574,128.723841 228.510358,130.241636 C228.510358,130.241636 228.487807,134.646171 234.646939,135.031822 L235.675341,133.818488 Z" id="Path" fill="#3366FF"></path>
                <path d="M238.71995,128.572739 C238.71995,128.572739 237.272069,123.611152 231.029492,125.095118 C231.029492,125.095118 232.515713,129.55829 238.304981,129.488377 L238.71995,128.572739 Z" id="Path" fill="#3366FF"></path>
                <path d="M241.611202,123.448773 C241.611202,123.448773 240.19715,118.3 234.168823,119.840347 C234.168823,119.840347 236.18052,124.73202 241.21202,124.319306 L241.611202,123.448773 Z" id="Path" fill="#3366FF"></path>
                <path d="M243.474052,118.581908 C243.474052,118.581908 242.387014,112.285204 236.76689,113.678959 C236.76689,113.678959 238.399703,119.407336 243.061338,119.499802 L243.474052,118.581908 Z" id="Path" fill="#3366FF"></path>
                <path d="M245.221884,112.702429 C245.221884,112.702429 243.916084,106.356109 238.230558,108.191896 C238.230558,108.191896 240.458761,114.190905 244.818191,113.570706 L245.221884,112.702429 Z" id="Path" fill="#3366FF"></path>
                <path d="M246.29539,107.231152 C246.29539,107.231152 244.2228,100.882577 239.827286,101.053978 C239.827286,101.053978 241.944981,107.758885 245.927782,108.496357 L246.29539,107.231152 Z" id="Path" fill="#3366FF"></path>
                <path d="M246.990012,101.890682 C246.990012,101.890682 244.734746,94.2498389 241.157893,94.8384634 C241.157893,94.8384634 242.718538,100.679603 246.863717,103.081462 L246.990012,101.890682 Z" id="Path" fill="#3366FF"></path>
                <path d="M247.382429,95.5195539 C247.382429,95.5195539 245.266989,89.1529368 241.744263,88.8980917 C241.744263,88.8980917 243.183123,95.1632218 247.312515,97.1749195 L247.382429,95.5195539 Z" id="Path" fill="#3366FF"></path>
                <path d="M247.808674,89.5746716 C247.808674,89.5746716 245.172268,83.2012887 242.847088,83.0569517 C242.847088,83.0569517 243.992763,89.3333581 247.583147,90.6211152 L247.808674,89.5746716 Z" id="Path" fill="#3366FF"></path>
                <path d="M248.099603,84.0447584 C248.099603,84.0447584 246.478067,77.1233457 244.148377,76.5482528 C244.148377,76.5482528 244.466369,82.2112268 247.865056,84.5634696 L248.099603,84.0447584 Z" id="Path" fill="#3366FF"></path>
                <path d="M248.979157,76.8008426 C248.979157,76.8008426 247.274176,71.2822057 245.386518,70.4409913 C245.386518,70.4409913 245.758637,76.9474349 248.543891,78.1494919 L248.979157,76.8008426 Z" id="Path" fill="#3366FF"></path>
                <path d="M249.707608,72.0647831 L250.050409,62.3355638 C250.050409,62.3355638 246.520917,69.6696902 249.452763,73.7720198 L249.707608,72.0647831 Z" id="Path" fill="#3366FF"></path>
                <path d="M252.43197,62.3874349 C252.43197,62.3874349 254.973656,55.2833457 255.589343,54.8864188 C255.589343,54.8864188 250.605204,59.4961834 251.092342,65.4252788 L252.43197,62.3874349 Z" id="Path" fill="#3366FF"></path>
                <path d="M231.681264,138.859009 C231.681264,138.859009 236.151202,138.274895 236.018141,144.591896 C236.018141,144.591896 231.978959,145.250434 230.659628,140.024981 L231.681264,138.859009 Z" id="Path" fill="#3366FF"></path>
                <path d="M235.887336,133.647088 C235.887336,133.647088 241.051896,133.631301 240.623395,140.09715 C240.623395,140.09715 236.286518,140.872962 234.856679,134.869442 L235.887336,133.647088 Z" id="Path" fill="#3366FF"></path>
                <path d="M238.769566,128.989963 C238.769566,128.989963 243.458265,126.791078 246.45777,132.467584 C246.45777,132.467584 242.127658,134.29886 238.354597,129.907856 L238.769566,128.989963 Z" id="Path" fill="#3366FF"></path>
                <path d="M241.714944,123.496134 C241.714944,123.496134 246.516406,121.157423 249.335489,126.700867 C249.335489,126.700867 244.333309,128.423891 241.318017,124.373432 L241.714944,123.496134 Z" id="Path" fill="#3366FF"></path>
                <path d="M243.41316,118.71948 C243.41316,118.71948 248.034201,114.305923 251.721561,118.769095 C251.721561,118.769095 247.001289,122.40233 243.201165,119.702776 L243.41316,118.71948 Z" id="Path" fill="#3366FF"></path>
                <path d="M244.960273,112.551326 C244.960273,112.551326 249.608377,108.040793 253.266419,112.75881 C253.266419,112.75881 248.049988,116.464213 244.793383,113.498538 L244.960273,112.551326 Z" id="Path" fill="#3366FF"></path>
                <path d="M245.82855,107.050731 C245.82855,107.050731 249.409913,101.412565 253.627261,102.671004 C253.627261,102.671004 249.910582,108.640694 245.869145,108.374572 L245.82855,107.050731 Z" id="Path" fill="#3366FF"></path>
                <path d="M246.884015,101.854597 C246.884015,101.854597 250.492441,94.7550186 253.906914,95.9909046 C253.906914,95.9909046 251.304337,101.448649 246.791549,103.052144 L246.884015,101.854597 Z" id="Path" fill="#3366FF"></path>
                <path d="M247.134349,95.1496902 C247.134349,95.1496902 250.844263,89.56114 254.319628,90.2444857 C254.319628,90.2444857 251.286295,95.9119703 246.773507,96.7667162 L247.134349,95.1496902 Z" id="Path" fill="#3366FF"></path>
                <path d="M247.423024,89.450632 C247.423024,89.450632 250.298488,83.1787361 252.634944,83.135886 C252.634944,83.135886 251.254721,89.3626766 247.616976,90.5151177 L247.423024,89.450632 Z" id="Path" fill="#3366FF"></path>
                <path d="M247.98684,83.9094424 C247.98684,83.9094424 251.182553,77.5586121 253.584411,77.5450805 C253.584411,77.5450805 251.949343,82.9757621 248.092838,84.4664932 L247.98684,83.9094424 Z" id="Path" fill="#3366FF"></path>
                <path d="M248.467212,77.1977695 C248.467212,77.1977695 250.857794,71.9429988 252.837918,71.3476084 C252.837918,71.3476084 251.642627,77.7525651 248.731078,78.5915242 L248.467212,77.1977695 Z" id="Path" fill="#3366FF"></path>
                <path d="M249.991772,71.8730855 L255.334498,63.733829 C255.334498,63.733829 253.965551,71.7625774 249.21145,73.4314746 L249.991772,71.8730855 Z" id="Path" fill="#3366FF"></path>
                <path d="M253.658835,63.0437175 C253.658835,63.0437175 259.867584,58.7587113 260.09311,58.0663445 C260.09311,58.0663445 256.935737,64.0676084 251.072045,65.1275836 L253.658835,63.0437175 Z" id="Path" fill="#3366FF"></path>
                <path d="M254.030954,61.1154647 C254.030954,61.1154647 261.159851,54.26171 262.979851,54.2684708 C262.979851,54.2684708 257.100372,54.5368525 253.859554,60.7501115 L254.030954,61.1154647 Z" id="Path" fill="#3366FF"></path>
                <path d="M248.537125,78.2148947 L248.796481,78.2487237 C250.136109,67.7639901 252.08917,61.5597522 254.29482,60.7997274 L254.20912,60.5516481 C251.870409,61.363544 249.903817,67.4730607 248.537125,78.2148947 Z" id="Path" fill="#444053"></path>
                <path d="M246.566022,103.288947 L246.958439,103.32052 C247.041884,102.341735 247.105031,101.340397 247.147881,100.341314 C247.522255,91.6630483 248.101859,83.6929368 248.864139,77.7187361 L248.638612,77.4368278 C247.874077,83.4245601 247.129839,91.6337299 246.755465,100.325527 C246.712615,101.317844 246.649467,102.314672 246.566022,103.288947 Z" id="Path" fill="#444053"></path>
                <path d="M216.525874,150.773581 C216.593532,150.744263 223.501413,147.659058 230.670905,140.302379 C234.871382,135.993666 238.361575,131.045737 241.011301,125.643147 C244.326543,118.893135 246.347261,110.598265 247.023841,102.540198 L246.615638,102.731896 C245.093333,120.819133 236.859356,133.177993 230.312317,139.909963 C223.212739,147.201239 216.381537,150.25487 216.313879,150.284188 L216.525874,150.773581 Z" id="Path" fill="#444053"></path>
                <path d="M234.412392,19.4471623 L17.7083519,19.4471623 C16.6421618,19.4471623 15.7778439,20.3114802 15.7778439,21.3776704 L15.7778439,27.0023048 L236.3429,27.0023048 L236.3429,21.3776704 C236.3429,20.8656678 236.139507,20.3746355 235.777467,20.012595 C235.415426,19.6505546 234.924394,19.4471623 234.412392,19.4471623 Z" id="Path" fill="#3F3D56"></path>
                <path d="M15.7778439,27.0023048 L15.7778439,153.576877 C15.7778439,155.726695 17.5206157,157.469467 19.6704337,157.469467 L232.45031,157.469467 C234.600128,157.469467 236.3429,155.726695 236.3429,153.576877 L236.3429,27.0023048 L15.7778439,27.0023048 Z" id="Path" fill="#FFFFFF"></path>
                <circle id="Oval" fill="#FA5959" opacity="0.8" cx="19.2712515" cy="23.1683519" r="1"></circle>
                <circle id="Oval" fill="#FED253" opacity="0.8" cx="21.7520446" cy="23.1683519" r="1"></circle>
                <circle id="Oval" fill="#8CCF4D" opacity="0.8" cx="24.2328377" cy="23.1683519" r="1"></circle>
                <rect id="Rectangle" fill="#000000" opacity="0.05" x="36.2804709" y="48.107088" width="177.263941" height="77.946518"></rect>
                <rect id="Rectangle" fill="#3F3D56" x="37.6336307" y="48.6979678" width="174.557621" height="76.228005"></rect>
                <path d="M85.2197522,68.3165304 C75.6290229,68.3165304 67.8542007,76.0913526 67.8542007,85.6820818 C67.8542007,95.272811 75.6290229,103.047633 85.2197522,103.047633 C94.8104814,103.047633 102.585304,95.272811 102.585304,85.6820818 C102.585304,81.0764512 100.755724,76.6594552 97.4990513,73.4027826 C94.2423787,70.14611 89.8253828,68.3165304 85.2197522,68.3165304 L85.2197522,68.3165304 Z M88.3342751,86.0993061 L88.3342751,94.3220074 L82.1954399,94.3220074 L82.1954399,86.0993061 C80.4533992,84.7806442 79.7482805,82.4966644 80.443793,80.4254721 C81.1393055,78.3542798 83.0800062,76.958774 85.2648575,76.958774 C87.4497088,76.958774 89.3904095,78.3542798 90.085922,80.4254721 C90.7814345,82.4966644 90.0763158,84.7806442 88.3342751,86.0993061 L88.3342751,86.0993061 Z" id="Shape" fill="#3366FF"></path>
                <path d="M85.2197522,68.3165304 C75.6290229,68.3165304 67.8542007,76.0913526 67.8542007,85.6820818 C67.8542007,95.272811 75.6290229,103.047633 85.2197522,103.047633 C94.8104814,103.047633 102.585304,95.272811 102.585304,85.6820818 C102.585304,81.0764512 100.755724,76.6594552 97.4990513,73.4027826 C94.2423787,70.14611 89.8253828,68.3165304 85.2197522,68.3165304 L85.2197522,68.3165304 Z M88.3342751,86.0993061 L88.3342751,94.3220074 L82.1954399,94.3220074 L82.1954399,86.0993061 C80.4533992,84.7806442 79.7482805,82.4966644 80.443793,80.4254721 C81.1393055,78.3542798 83.0800062,76.958774 85.2648575,76.958774 C87.4497088,76.958774 89.3904095,78.3542798 90.085922,80.4254721 C90.7814345,82.4966644 90.0763158,84.7806442 88.3342751,86.0993061 L88.3342751,86.0993061 Z" id="Shape" fill="#000000" opacity="0.05"></path>
                <path d="M85.2197522,63.3549442 C72.8888146,63.3549442 62.8926146,73.3511442 62.8926146,85.6820818 C62.8926146,98.0130194 72.8888146,108.009219 85.2197522,108.009219 C97.5506897,108.009219 107.54689,98.0130194 107.54689,85.6820818 C107.54689,79.7605567 105.194573,74.0815619 101.007423,69.8944114 C96.820272,65.7072609 91.1412772,63.3549442 85.2197522,63.3549442 L85.2197522,63.3549442 Z M89.2228501,86.2188352 L89.2228501,96.7892689 L81.3294176,96.7892689 L81.3294176,86.2188352 C79.0887682,84.5231838 78.1816331,81.5858185 79.0759655,78.922003 C79.9702978,76.2581875 82.4661973,74.4633352 85.2761338,74.4633352 C88.0860704,74.4633352 90.5819698,76.2581875 91.4763022,78.922003 C92.3706345,81.5858185 91.4634995,84.5231838 89.2228501,86.2188352 Z" id="Shape" fill="#3366FF"></path>
                <rect id="Rectangle" fill="#FFFFFF" x="116.793482" y="82.7524907" width="72.1685254" height="7.66790582"></rect>
                <rect id="Rectangle" fill="#3366FF" x="173.400669" y="96.7351425" width="15.5613383" height="7.66790582"></rect>
                <path d="M123.897571,86.471425 L122.591772,86.471425 L123.753234,85.3122181 C123.796486,85.2676058 123.796486,85.1967064 123.753234,85.1520942 C123.732061,85.1307467 123.703239,85.118739 123.673172,85.118739 C123.643105,85.118739 123.614283,85.1307467 123.59311,85.1520942 L122.431648,86.3135564 L122.431648,85.0055019 C122.431648,84.9432244 122.381162,84.8927385 122.318885,84.8927385 C122.257111,84.8939384 122.207321,84.9437282 122.206121,85.0055019 L122.206121,86.3135564 L121.046914,85.1453284 C121.025741,85.1239809 120.996919,85.1119732 120.966853,85.1119732 C120.936786,85.1119732 120.907964,85.1239809 120.886791,85.1453284 C120.843538,85.1899406 120.843538,85.26084 120.886791,85.3054523 L122.048253,86.4646592 L120.740198,86.4646592 C120.678425,86.4658591 120.628635,86.5156489 120.627435,86.5774226 C120.627435,86.6397 120.677921,86.6901859 120.740198,86.6901859 L122.048253,86.6901859 L120.886791,87.8516481 C120.843538,87.8962603 120.843538,87.9671597 120.886791,88.011772 C120.93186,88.0538802 121.001845,88.0538802 121.046914,88.011772 L122.206121,86.8503098 L122.206121,88.156109 C122.206121,88.2183865 122.256607,88.2688724 122.318885,88.2688724 C122.381162,88.2688724 122.431648,88.2183865 122.431648,88.156109 L122.431648,86.8503098 L123.59311,88.011772 C123.63818,88.0538802 123.708165,88.0538802 123.753234,88.011772 C123.796486,87.9671597 123.796486,87.8962603 123.753234,87.8516481 L122.591772,86.6901859 L123.897571,86.6901859 C123.959849,86.6901859 124.010335,86.6397 124.010335,86.5774226 C124.006751,86.5178019 123.957299,86.4713174 123.897571,86.471425 L123.897571,86.471425 Z" id="Path" fill="#3366FF"></path>
                <path d="M128.633631,86.471425 L127.327831,86.471425 L128.489294,85.3122181 C128.532546,85.2676058 128.532546,85.1967064 128.489294,85.1520942 C128.46812,85.1307467 128.439299,85.118739 128.409232,85.118739 C128.379165,85.118739 128.350343,85.1307467 128.32917,85.1520942 L127.167708,86.3135564 L127.167708,85.0055019 C127.167708,84.9432244 127.117222,84.8927385 127.054944,84.8927385 C126.993171,84.8939384 126.943381,84.9437282 126.942181,85.0055019 L126.942181,86.3135564 L125.782974,85.1453284 C125.761801,85.1239809 125.732979,85.1119732 125.702912,85.1119732 C125.672845,85.1119732 125.644023,85.1239809 125.62285,85.1453284 C125.579598,85.1899406 125.579598,85.26084 125.62285,85.3054523 L126.784312,86.4646592 L125.476258,86.4646592 C125.414484,86.4658591 125.364694,86.5156489 125.363494,86.5774226 C125.363494,86.6397 125.41398,86.6901859 125.476258,86.6901859 L126.784312,86.6901859 L125.62285,87.8516481 C125.579598,87.8962603 125.579598,87.9671597 125.62285,88.011772 C125.66792,88.0538802 125.737904,88.0538802 125.782974,88.011772 L126.942181,86.8503098 L126.942181,88.156109 C126.942181,88.2183865 126.992667,88.2688724 127.054944,88.2688724 C127.117222,88.2688724 127.167708,88.2183865 127.167708,88.156109 L127.167708,86.8503098 L128.32917,88.011772 C128.374239,88.0538802 128.444224,88.0538802 128.489294,88.011772 C128.532546,87.9671597 128.532546,87.8962603 128.489294,87.8516481 L127.327831,86.6901859 L128.633631,86.6901859 C128.695908,86.6901859 128.746394,86.6397 128.746394,86.5774226 C128.74281,86.5178019 128.693359,86.4713174 128.633631,86.471425 Z" id="Path" fill="#3366FF"></path>
                <path d="M133.36969,86.471425 L132.063891,86.471425 L133.225353,85.3122181 C133.268605,85.2676058 133.268605,85.1967064 133.225353,85.1520942 C133.20418,85.1307467 133.175358,85.118739 133.145291,85.118739 C133.115224,85.118739 133.086402,85.1307467 133.065229,85.1520942 L131.903767,86.3135564 L131.903767,85.0055019 C131.903767,84.9432244 131.853281,84.8927385 131.791004,84.8927385 C131.72923,84.8939384 131.67944,84.9437282 131.67824,85.0055019 L131.67824,86.3135564 L130.519033,85.1453284 C130.49786,85.1239809 130.469038,85.1119732 130.438971,85.1119732 C130.408905,85.1119732 130.380083,85.1239809 130.35891,85.1453284 C130.315657,85.1899406 130.315657,85.26084 130.35891,85.3054523 L131.520372,86.4646592 L130.212317,86.4646592 C130.150544,86.4658591 130.100754,86.5156489 130.099554,86.5774226 C130.099554,86.6397 130.15004,86.6901859 130.212317,86.6901859 L131.520372,86.6901859 L130.35891,87.8516481 C130.315657,87.8962603 130.315657,87.9671597 130.35891,88.011772 C130.403979,88.0538802 130.473964,88.0538802 130.519033,88.011772 L131.67824,86.8503098 L131.67824,88.156109 C131.67824,88.2183865 131.728726,88.2688724 131.791004,88.2688724 C131.853281,88.2688724 131.903767,88.2183865 131.903767,88.156109 L131.903767,86.8503098 L133.065229,88.011772 C133.110299,88.0538802 133.180283,88.0538802 133.225353,88.011772 C133.268605,87.9671597 133.268605,87.8962603 133.225353,87.8516481 L132.063891,86.6901859 L133.36969,86.6901859 C133.431968,86.6901859 133.482454,86.6397 133.482454,86.5774226 C133.47887,86.5178019 133.429418,86.4713174 133.36969,86.471425 L133.36969,86.471425 Z" id="Path" fill="#3366FF"></path>
                <path d="M138.10575,86.471425 L136.79995,86.471425 L137.961413,85.3122181 C138.004665,85.2676058 138.004665,85.1967064 137.961413,85.1520942 C137.940239,85.1307467 137.911418,85.118739 137.881351,85.118739 C137.851284,85.118739 137.822462,85.1307467 137.801289,85.1520942 L136.639827,86.3135564 L136.639827,85.0055019 C136.639827,84.9432244 136.589341,84.8927385 136.527063,84.8927385 C136.46529,84.8939384 136.4155,84.9437282 136.4143,85.0055019 L136.4143,86.3135564 L135.255093,85.1453284 C135.23392,85.1239809 135.205098,85.1119732 135.175031,85.1119732 C135.144964,85.1119732 135.116142,85.1239809 135.094969,85.1453284 C135.051717,85.1899406 135.051717,85.26084 135.094969,85.3054523 L136.256431,86.4646592 L134.948377,86.4646592 C134.886603,86.4658591 134.836813,86.5156489 134.835613,86.5774226 C134.835613,86.6397 134.886099,86.6901859 134.948377,86.6901859 L136.256431,86.6901859 L135.094969,87.8516481 C135.051717,87.8962603 135.051717,87.9671597 135.094969,88.011772 C135.140039,88.0538802 135.210023,88.0538802 135.255093,88.011772 L136.4143,86.8503098 L136.4143,88.156109 C136.4143,88.2183865 136.464786,88.2688724 136.527063,88.2688724 C136.589341,88.2688724 136.639827,88.2183865 136.639827,88.156109 L136.639827,86.8503098 L137.801289,88.011772 C137.846358,88.0538802 137.916343,88.0538802 137.961413,88.011772 C138.004665,87.9671597 138.004665,87.8962603 137.961413,87.8516481 L136.79995,86.6901859 L138.10575,86.6901859 C138.168027,86.6901859 138.218513,86.6397 138.218513,86.5774226 C138.214929,86.5178019 138.165478,86.4713174 138.10575,86.471425 L138.10575,86.471425 Z" id="Path" fill="#3366FF"></path>
                <path d="M142.841809,86.471425 L141.53601,86.471425 L142.697472,85.3122181 C142.740724,85.2676058 142.740724,85.1967064 142.697472,85.1520942 C142.676299,85.1307467 142.647477,85.118739 142.61741,85.118739 C142.587343,85.118739 142.558521,85.1307467 142.537348,85.1520942 L141.375886,86.3135564 L141.375886,85.0055019 C141.375886,84.9432244 141.3254,84.8927385 141.263123,84.8927385 C141.201349,84.8939384 141.151559,84.9437282 141.150359,85.0055019 L141.150359,86.3135564 L139.991152,85.1453284 C139.969979,85.1239809 139.941157,85.1119732 139.91109,85.1119732 C139.881024,85.1119732 139.852202,85.1239809 139.831029,85.1453284 C139.787776,85.1899406 139.787776,85.26084 139.831029,85.3054523 L140.992491,86.4646592 L139.684436,86.4646592 C139.622663,86.4658591 139.572873,86.5156489 139.571673,86.5774226 C139.571673,86.6397 139.622159,86.6901859 139.684436,86.6901859 L140.992491,86.6901859 L139.831029,87.8516481 C139.787776,87.8962603 139.787776,87.9671597 139.831029,88.011772 C139.876098,88.0538802 139.946083,88.0538802 139.991152,88.011772 L141.150359,86.8503098 L141.150359,88.156109 C141.150359,88.2183865 141.200845,88.2688724 141.263123,88.2688724 C141.3254,88.2688724 141.375886,88.2183865 141.375886,88.156109 L141.375886,86.8503098 L142.537348,88.011772 C142.582418,88.0538802 142.652402,88.0538802 142.697472,88.011772 C142.740724,87.9671597 142.740724,87.8962603 142.697472,87.8516481 L141.53601,86.6901859 L142.841809,86.6901859 C142.904087,86.6901859 142.954572,86.6397 142.954572,86.5774226 C142.950989,86.5178019 142.901537,86.4713174 142.841809,86.471425 L142.841809,86.471425 Z" id="Path" fill="#3366FF"></path>
                <path d="M147.577869,86.471425 L146.272069,86.471425 L147.433532,85.3122181 C147.476784,85.2676058 147.476784,85.1967064 147.433532,85.1520942 C147.412358,85.1307467 147.383537,85.118739 147.35347,85.118739 C147.323403,85.118739 147.294581,85.1307467 147.273408,85.1520942 L146.111945,86.3135564 L146.111945,85.0055019 C146.111945,84.9432244 146.06146,84.8927385 145.999182,84.8927385 C145.937409,84.8939384 145.887619,84.9437282 145.886419,85.0055019 L145.886419,86.3135564 L144.727212,85.1453284 C144.706039,85.1239809 144.677217,85.1119732 144.64715,85.1119732 C144.617083,85.1119732 144.588261,85.1239809 144.567088,85.1453284 C144.523836,85.1899406 144.523836,85.26084 144.567088,85.3054523 L145.72855,86.4646592 L144.420496,86.4646592 C144.358722,86.4658591 144.308932,86.5156489 144.307732,86.5774226 C144.307732,86.6397 144.358218,86.6901859 144.420496,86.6901859 L145.72855,86.6901859 L144.567088,87.8516481 C144.523836,87.8962603 144.523836,87.9671597 144.567088,88.011772 C144.612158,88.0538802 144.682142,88.0538802 144.727212,88.011772 L145.886419,86.8503098 L145.886419,88.156109 C145.886419,88.2183865 145.936905,88.2688724 145.999182,88.2688724 C146.06146,88.2688724 146.111945,88.2183865 146.111945,88.156109 L146.111945,86.8503098 L147.273408,88.011772 C147.318477,88.0538802 147.388462,88.0538802 147.433532,88.011772 C147.476784,87.9671597 147.476784,87.8962603 147.433532,87.8516481 L146.272069,86.6901859 L147.577869,86.6901859 C147.640146,86.6901859 147.690632,86.6397 147.690632,86.5774226 C147.687048,86.5178019 147.637597,86.4713174 147.577869,86.471425 L147.577869,86.471425 Z" id="Path" fill="#3366FF"></path>
                <path d="M152.313928,86.471425 L151.008129,86.471425 L152.169591,85.3122181 C152.212843,85.2676058 152.212843,85.1967064 152.169591,85.1520942 C152.148418,85.1307467 152.119596,85.118739 152.089529,85.118739 C152.059462,85.118739 152.03064,85.1307467 152.009467,85.1520942 L150.848005,86.3135564 L150.848005,85.0055019 C150.848005,84.9432244 150.797519,84.8927385 150.735242,84.8927385 C150.673468,84.8939384 150.623678,84.9437282 150.622478,85.0055019 L150.622478,86.3135564 L149.463271,85.1453284 C149.442098,85.1239809 149.413276,85.1119732 149.383209,85.1119732 C149.353142,85.1119732 149.324321,85.1239809 149.303147,85.1453284 C149.259895,85.1899406 149.259895,85.26084 149.303147,85.3054523 L150.46461,86.4646592 L149.156555,86.4646592 C149.094781,86.4658591 149.044992,86.5156489 149.043792,86.5774226 C149.043792,86.6397 149.094278,86.6901859 149.156555,86.6901859 L150.46461,86.6901859 L149.303147,87.8516481 C149.259895,87.8962603 149.259895,87.9671597 149.303147,88.011772 C149.348217,88.0538802 149.418202,88.0538802 149.463271,88.011772 L150.622478,86.8503098 L150.622478,88.156109 C150.622478,88.2183865 150.672964,88.2688724 150.735242,88.2688724 C150.797519,88.2688724 150.848005,88.2183865 150.848005,88.156109 L150.848005,86.8503098 L152.009467,88.011772 C152.054537,88.0538802 152.124521,88.0538802 152.169591,88.011772 C152.212843,87.9671597 152.212843,87.8962603 152.169591,87.8516481 L151.008129,86.6901859 L152.313928,86.6901859 C152.376206,86.6901859 152.426691,86.6397 152.426691,86.5774226 C152.423108,86.5178019 152.373656,86.4713174 152.313928,86.471425 L152.313928,86.471425 Z" id="Path" fill="#3366FF"></path>
                <path d="M157.049988,86.471425 L155.744188,86.471425 L156.905651,85.3122181 C156.948903,85.2676058 156.948903,85.1967064 156.905651,85.1520942 C156.884477,85.1307467 156.855656,85.118739 156.825589,85.118739 C156.795522,85.118739 156.7667,85.1307467 156.745527,85.1520942 L155.584064,86.3135564 L155.584064,85.0055019 C155.584064,84.9432244 155.533579,84.8927385 155.471301,84.8927385 C155.409527,84.8939384 155.359738,84.9437282 155.358538,85.0055019 L155.358538,86.3135564 L154.199331,85.1453284 C154.178158,85.1239809 154.149336,85.1119732 154.119269,85.1119732 C154.089202,85.1119732 154.06038,85.1239809 154.039207,85.1453284 C153.995955,85.1899406 153.995955,85.26084 154.039207,85.3054523 L155.200669,86.4646592 L153.892615,86.4646592 C153.830841,86.4658591 153.781051,86.5156489 153.779851,86.5774226 C153.779851,86.6397 153.830337,86.6901859 153.892615,86.6901859 L155.200669,86.6901859 L154.039207,87.8516481 C153.995955,87.8962603 153.995955,87.9671597 154.039207,88.011772 C154.084277,88.0538802 154.154261,88.0538802 154.199331,88.011772 L155.358538,86.8503098 L155.358538,88.156109 C155.358538,88.2183865 155.409024,88.2688724 155.471301,88.2688724 C155.533579,88.2688724 155.584064,88.2183865 155.584064,88.156109 L155.584064,86.8503098 L156.745527,88.011772 C156.790596,88.0538802 156.860581,88.0538802 156.905651,88.011772 C156.948903,87.9671597 156.948903,87.8962603 156.905651,87.8516481 L155.744188,86.6901859 L157.049988,86.6901859 C157.112265,86.6901859 157.162751,86.6397 157.162751,86.5774226 C157.159167,86.5178019 157.109716,86.4713174 157.049988,86.471425 L157.049988,86.471425 Z" id="Path" fill="#3366FF"></path>
                <path d="M161.786047,86.471425 L160.480248,86.471425 L161.64171,85.3122181 C161.684962,85.2676058 161.684962,85.1967064 161.64171,85.1520942 C161.620537,85.1307467 161.591715,85.118739 161.561648,85.118739 C161.531581,85.118739 161.502759,85.1307467 161.481586,85.1520942 L160.320124,86.3135564 L160.320124,85.0055019 C160.320124,84.9432244 160.269638,84.8927385 160.207361,84.8927385 C160.145587,84.8939384 160.095797,84.9437282 160.094597,85.0055019 L160.094597,86.3135564 L158.93539,85.1453284 C158.914217,85.1239809 158.885395,85.1119732 158.855328,85.1119732 C158.825261,85.1119732 158.79644,85.1239809 158.775266,85.1453284 C158.732014,85.1899406 158.732014,85.26084 158.775266,85.3054523 L159.936729,86.4646592 L158.628674,86.4646592 C158.5669,86.4658591 158.517111,86.5156489 158.515911,86.5774226 C158.515911,86.6397 158.566397,86.6901859 158.628674,86.6901859 L159.936729,86.6901859 L158.775266,87.8516481 C158.732014,87.8962603 158.732014,87.9671597 158.775266,88.011772 C158.820336,88.0538802 158.890321,88.0538802 158.93539,88.011772 L160.094597,86.8503098 L160.094597,88.156109 C160.094597,88.2183865 160.145083,88.2688724 160.207361,88.2688724 C160.269638,88.2688724 160.320124,88.2183865 160.320124,88.156109 L160.320124,86.8503098 L161.481586,88.011772 C161.526656,88.0538802 161.59664,88.0538802 161.64171,88.011772 C161.684962,87.9671597 161.684962,87.8962603 161.64171,87.8516481 L160.480248,86.6901859 L161.786047,86.6901859 C161.848325,86.6901859 161.89881,86.6397 161.89881,86.5774226 C161.895227,86.5178019 161.845775,86.4713174 161.786047,86.471425 L161.786047,86.471425 Z" id="Path" fill="#3366FF"></path>
                <path d="M166.522107,86.471425 L165.216307,86.471425 L166.37777,85.3122181 C166.421022,85.2676058 166.421022,85.1967064 166.37777,85.1520942 C166.356596,85.1307467 166.327774,85.118739 166.297708,85.118739 C166.267641,85.118739 166.238819,85.1307467 166.217646,85.1520942 L165.056183,86.3135564 L165.056183,85.0055019 C165.056183,84.9432244 165.005698,84.8927385 164.94342,84.8927385 C164.881646,84.8939384 164.831857,84.9437282 164.830657,85.0055019 L164.830657,86.3135564 L163.67145,85.1453284 C163.650277,85.1239809 163.621455,85.1119732 163.591388,85.1119732 C163.561321,85.1119732 163.532499,85.1239809 163.511326,85.1453284 C163.468074,85.1899406 163.468074,85.26084 163.511326,85.3054523 L164.672788,86.4646592 L163.364734,86.4646592 C163.30296,86.4658591 163.25317,86.5156489 163.25197,86.5774226 C163.25197,86.6397 163.302456,86.6901859 163.364734,86.6901859 L164.672788,86.6901859 L163.511326,87.8516481 C163.468074,87.8962603 163.468074,87.9671597 163.511326,88.011772 C163.556396,88.0538802 163.62638,88.0538802 163.67145,88.011772 L164.830657,86.8503098 L164.830657,88.156109 C164.830657,88.2183865 164.881143,88.2688724 164.94342,88.2688724 C165.005698,88.2688724 165.056183,88.2183865 165.056183,88.156109 L165.056183,86.8503098 L166.217646,88.011772 C166.262715,88.0538802 166.3327,88.0538802 166.37777,88.011772 C166.421022,87.9671597 166.421022,87.8962603 166.37777,87.8516481 L165.216307,86.6901859 L166.522107,86.6901859 C166.584384,86.6901859 166.63487,86.6397 166.63487,86.5774226 C166.631286,86.5178019 166.581835,86.4713174 166.522107,86.471425 L166.522107,86.471425 Z" id="Path" fill="#3366FF"></path>
                <path d="M171.258166,86.471425 L169.952367,86.471425 L171.113829,85.3122181 C171.157081,85.2676058 171.157081,85.1967064 171.113829,85.1520942 C171.092656,85.1307467 171.063834,85.118739 171.033767,85.118739 C171.0037,85.118739 170.974878,85.1307467 170.953705,85.1520942 L169.792243,86.3135564 L169.792243,85.0055019 C169.792243,84.9432244 169.741757,84.8927385 169.67948,84.8927385 C169.617706,84.8939384 169.567916,84.9437282 169.566716,85.0055019 L169.566716,86.3135564 L168.407509,85.1453284 C168.386336,85.1239809 168.357514,85.1119732 168.327447,85.1119732 C168.29738,85.1119732 168.268559,85.1239809 168.247385,85.1453284 C168.204133,85.1899406 168.204133,85.26084 168.247385,85.3054523 L169.408848,86.4646592 L168.100793,86.4646592 C168.039019,86.4658591 167.98923,86.5156489 167.98803,86.5774226 C167.98803,86.6397 168.038516,86.6901859 168.100793,86.6901859 L169.408848,86.6901859 L168.247385,87.8516481 C168.204133,87.8962603 168.204133,87.9671597 168.247385,88.011772 C168.292455,88.0538802 168.36244,88.0538802 168.407509,88.011772 L169.566716,86.8503098 L169.566716,88.156109 C169.566716,88.2183865 169.617202,88.2688724 169.67948,88.2688724 C169.741757,88.2688724 169.792243,88.2183865 169.792243,88.156109 L169.792243,86.8503098 L170.953705,88.011772 C170.998775,88.0538802 171.068759,88.0538802 171.113829,88.011772 C171.157081,87.9671597 171.157081,87.8962603 171.113829,87.8516481 L169.952367,86.6901859 L171.258166,86.6901859 C171.320444,86.6901859 171.370929,86.6397 171.370929,86.5774226 C171.367346,86.5178019 171.317894,86.4713174 171.258166,86.471425 L171.258166,86.471425 Z" id="Path" fill="#3366FF"></path>
                <path d="M207.5657,113.906741 C207.559303,113.634126 207.525301,113.36286 207.464213,113.0971 C207.261239,112.33482 206.80342,111.412416 206.050161,111.182379 C205.272441,110.944268 204.521251,110.626864 203.808426,110.235167 C203.67311,107.817522 204.227906,105.343494 203.623494,103.000273 C203.397968,102.143271 203.025849,101.322354 202.926617,100.445056 C202.802577,99.3535068 203.100273,98.1897893 202.665006,97.1839405 C202.322206,96.3900867 201.568947,95.8307807 200.759306,95.537596 C199.949665,95.2444114 199.076877,95.1654771 198.217621,95.0865428 C197.135093,94.9985874 193.630409,94.5836183 192.408055,95.5511276 L192.408055,95.5511276 C192.323746,95.6165789 192.247979,95.6923457 192.182528,95.7766543 L192.182528,95.7766543 C192.155519,95.8138498 192.131393,95.8530552 192.110359,95.8939281 L192.099083,95.9119703 C192.07458,95.9589795 192.054206,96.0080279 192.038191,96.0585626 L192.038191,96.0585626 C192.021139,96.1138901 192.008322,96.170435 191.999851,96.2277076 C191.999851,96.2457497 191.999851,96.2637918 191.999851,96.281834 C191.999851,96.2998761 191.999851,96.3607683 191.999851,96.4013631 L191.999851,96.4622553 C191.999851,96.5028501 191.999851,96.5434449 191.999851,96.5862949 C191.999851,96.629145 191.999851,96.6178686 191.999851,96.6336555 C192.015638,96.8366295 192.044957,97.0396035 192.044957,97.2403222 C192.047361,97.3402627 192.03828,97.4401487 192.017893,97.5380173 C191.942794,97.8040028 191.815533,98.0523917 191.643519,98.2687237 L191.643519,98.2687237 L191.602924,98.3273606 C191.578116,98.3634449 191.553309,98.3972739 191.530756,98.4333581 C191.508203,98.4694424 191.490161,98.4965056 191.472119,98.5280793 C191.454077,98.559653 191.436035,98.5799504 191.420248,98.6092689 C191.398473,98.6464305 191.378894,98.6848358 191.361611,98.7242875 C191.361611,98.7468401 191.336803,98.7671375 191.327782,98.7896902 C191.299563,98.8506683 191.276918,98.9140741 191.260124,98.9791326 C191.207307,99.1750832 191.202665,99.3809007 191.246592,99.5790335 C191.3074,99.8320312 191.411964,100.072452 191.555564,100.289442 C191.611945,100.381908 191.672838,100.472119 191.735985,100.56233 L191.893854,100.77658 C191.864375,100.98582 191.848555,101.196758 191.846493,101.408055 C191.846715,102.838926 192.503428,104.190591 193.628154,105.075118 C193.717503,106.027537 193.707678,106.986662 193.598835,107.937051 C193.578538,108.135514 193.55373,108.336233 193.526667,108.534696 C193.499603,108.73316 193.479306,108.863965 193.452243,109.0286 C193.122226,109.075856 192.785869,109.050456 192.466691,108.954176 C192.319457,108.8885 192.168902,108.830536 192.015638,108.78052 C191.359356,108.615886 190.689542,109.269913 190.040025,109.07145 C190.040025,109.103024 190.021983,109.132342 190.010706,109.16166 C189.875126,109.077398 189.71926,109.031418 189.559653,109.0286 C189.174002,109.010558 188.86052,108.730905 188.580867,108.467038 L187.721611,107.657398 C187.665594,107.607825 187.615632,107.551807 187.572763,107.490508 C187.526577,107.402808 187.491717,107.309596 187.469021,107.21311 C187.324684,106.74627 186.975118,106.374151 186.636828,106.020074 C186.572718,105.939326 186.487694,105.877703 186.391004,105.841908 C186.353626,105.836284 186.315618,105.836284 186.27824,105.841908 C186.255232,105.810398 186.23038,105.780275 186.203817,105.751698 C186.145449,105.684693 186.08293,105.621421 186.016629,105.562255 C185.606171,105.183371 185.565576,104.858612 185.209244,104.434622 C184.898453,104.030258 184.616596,103.604457 184.365774,103.160397 C184.336456,102.923594 184.295861,102.680025 184.246245,102.434201 C184.132544,101.87141 183.967211,101.320297 183.752342,100.787856 L183.301289,99.7887732 L183.249418,99.8406444 C182.922404,99.3535068 182.572838,99.0873854 182.259356,99.1505328 C181.733879,99.2587856 181.474523,100.278166 181.557968,101.611029 L181.738389,102.964188 C181.738389,102.998017 181.754176,103.031846 181.763197,103.065675 C181.730736,103.226036 181.714118,103.3892 181.713581,103.552813 C181.713581,103.742255 181.889492,103.882082 181.981958,104.051227 C182.129962,104.280354 182.208305,104.547502 182.207485,104.820273 C182.196208,104.917249 182.16689,105.009715 182.162379,105.104436 C182.174659,105.316321 182.248317,105.520056 182.374374,105.690805 L183.502007,107.585229 L183.727534,107.982156 L183.741066,108.000198 C183.812239,108.138699 183.915937,108.257875 184.043271,108.347509 C184.087458,108.821866 184.213353,109.285007 184.41539,109.716456 C184.45373,109.802156 184.49658,109.883346 184.541685,109.964535 C184.844896,110.462898 185.201859,110.926497 185.606171,111.347014 L186.142924,111.94917 C186.672912,112.54005 187.2029,113.133185 187.777993,113.678959 C187.983849,113.897943 188.23258,114.072208 188.508699,114.190905 C188.783996,114.300967 189.097135,114.255372 189.329616,114.071375 C189.329616,114.351029 189.329616,114.630682 189.329616,114.910335 C189.50012,114.920829 189.6516,115.022754 189.725553,115.176743 C189.799505,115.330732 189.784353,115.512681 189.685948,115.652317 C189.212342,116.867906 188.734226,118.094771 188.017051,119.184064 C188.523275,119.483706 188.992574,119.841737 189.415316,120.250805 C189.689646,120.554818 189.933622,120.884903 190.143767,121.236357 C190.164064,121.403247 190.179851,121.567881 190.188872,121.732515 C190.355762,124.420793 189.316084,127.088773 188.384659,129.650756 C188.116283,130.376952 187.823098,131.136976 187.845651,131.892491 C187.668901,132.001452 187.500086,132.122788 187.340471,132.255589 C187.525403,132.738216 187.453234,133.168971 187.432937,133.685428 C187.42622,133.995045 187.362775,134.300805 187.24575,134.587534 C187.147698,134.786277 187.039297,134.979743 186.920991,135.167138 C186.336877,136.197794 186.208327,137.422404 186.091053,138.599653 C186.02114,139.310062 186.296283,140.17834 185.973779,140.814325 C185.416729,141.905874 184.922825,143.069591 184.846146,144.282924 C184.843468,144.555941 184.808648,144.827693 184.742404,145.092565 C184.672491,145.318092 184.548451,145.509789 184.485304,145.730805 C184.420304,146.02692 184.405061,146.331791 184.440198,146.632912 C184.483115,147.713944 184.322457,148.793412 183.966592,149.815093 C183.684684,150.620223 183.373457,151.481735 183.594473,152.309418 C183.050377,152.880956 182.714364,153.618913 182.640496,154.40456 C182.634676,154.605556 182.61052,154.805602 182.568327,155.002206 C182.499407,155.203219 182.408654,155.396069 182.297695,155.577299 C181.843692,156.404113 181.631137,157.341855 181.684263,158.283618 C181.007683,159.201512 180.669393,160.333656 180.468674,161.459033 C180.267955,162.584411 180.18,163.730087 179.9229,164.841933 C179.580099,166.312367 178.959901,167.798587 178.838116,169.305105 C178.10741,169.771945 177.791673,170.676307 177.651846,171.531053 C177.51202,172.385799 177.489467,173.283395 177.13088,174.072739 C176.945948,174.483197 176.679827,174.850805 176.503916,175.270285 C176.380549,175.604265 176.289912,175.949438 176.233284,176.300942 C176.125031,176.851227 176.03031,177.464659 176.163371,177.992392 C175.972057,178.195003 175.748835,178.364895 175.502577,178.495316 C175.538662,178.355489 175.56798,178.215663 175.592788,178.073581 C175.010929,178.601314 173.955465,178.416382 173.49088,179.050112 C173.200922,179.474824 173.30079,180.053059 173.716406,180.355911 C173.861771,180.444506 174.018943,180.512082 174.183247,180.556629 C175.31088,180.917472 176.470087,181.28057 177.629294,181.088872 C177.766346,181.074092 177.899029,181.03191 178.019455,180.964833 C178.170238,180.853815 178.294296,180.710494 178.382553,180.545353 C178.556208,180.270211 178.729864,179.995068 178.901264,179.719926 C179.316634,179.843908 179.739146,179.942569 180.166468,180.015366 C180.209318,180.376208 180.240892,180.737051 180.256679,181.097893 C180.482206,181.142999 180.784411,181.15653 180.890409,180.946791 C180.922559,180.867484 180.935689,180.78175 180.928748,180.696456 C180.928748,180.536332 180.951301,180.324337 180.964833,180.107831 L181.009938,180.107831 C181.698015,180.135602 182.382649,179.997128 183.005849,179.704139 C182.764535,177.705973 183.560644,175.752912 184.250756,173.862999 C184.979207,171.873854 185.603916,169.848625 186.233135,167.823395 C186.684188,166.398067 187.182602,165.017844 187.624634,163.59026 C188.180933,161.786047 188.739488,159.981834 189.300297,158.177621 C189.543866,157.383767 189.78969,156.598934 190.069343,155.809591 C190.658037,154.21234 191.356584,152.657754 192.159975,151.156976 C192.385502,150.730731 192.611029,150.308996 192.79596,149.866964 C193.021487,149.327955 193.181611,148.764139 193.362032,148.207088 C193.755192,147.064082 194.228468,145.950224 194.77834,144.873804 C194.794126,144.844486 194.805403,144.817423 194.82119,144.790359 C195.003866,145.536853 195.186543,146.294622 195.308327,147.045626 C195.473161,147.966475 195.486112,148.9081 195.346667,149.833135 C195.238414,150.462354 195.033185,151.084808 195.057993,151.723048 C195.091822,152.604857 195.563172,153.405477 195.795465,154.255713 C195.945207,154.891985 196.029839,155.54184 196.048055,156.195242 C196.111202,157.210112 196.661487,158.349021 196.273581,159.289467 C195.067014,162.268674 195.651128,165.633532 194.963271,168.761586 C194.609195,170.367336 193.524411,171.876109 193.610112,173.517943 C193.670252,174.683164 193.772491,175.845378 193.916828,177.004585 C193.95158,177.370336 194.046846,177.727774 194.198736,178.062305 C194.288719,178.238316 194.39201,178.4072 194.507708,178.567485 C194.408476,178.605824 194.325031,178.707311 194.252862,178.921561 C194.067931,179.485378 194.252862,180.184511 194.753532,180.500248 C194.957528,180.609343 195.177507,180.685461 195.405304,180.725774 C195.711939,180.81294 196.029222,180.856965 196.348005,180.85658 C196.447186,180.851231 196.545892,180.839176 196.643445,180.820496 C196.992031,180.966976 197.348107,181.094952 197.710186,181.203891 C197.710186,181.296357 197.728228,181.388823 197.739504,181.481289 C197.740742,181.579012 197.783361,181.671627 197.856778,181.736134 C197.913076,181.762403 197.975326,181.773297 198.0372,181.767708 L199.261809,181.767708 C199.261809,181.666221 199.261809,181.562478 199.261809,181.460991 C199.545207,181.490536 199.827871,181.398772 200.039876,181.208401 C200.148347,181.070345 200.22532,180.910241 200.265403,180.739306 C200.599182,179.607162 200.930706,178.474267 201.259975,177.34062 C201.654783,176.087547 201.819069,174.773261 201.744857,173.461561 C201.309591,169.305105 202.265824,165.135118 201.954597,160.967385 C201.767296,158.462362 201.896107,155.943724 202.337993,153.47088 C202.43948,152.911574 202.563519,152.343247 202.608625,151.786196 C202.707856,150.735242 202.586072,149.673011 202.660496,148.628823 C202.685304,148.26347 202.734919,147.900372 202.780025,147.537274 C203.089014,145.283653 203.250984,143.012308 203.264907,140.737646 C203.258,139.983954 203.211327,139.231152 203.125081,138.482379 C203.360205,138.422502 203.573631,138.297417 203.740768,138.121537 C203.941487,137.859926 203.889616,137.492317 203.887361,137.158538 C203.887361,136.360173 204.223395,135.606914 204.494027,134.853656 C204.841351,133.814688 205.126026,132.755817 205.346518,131.682751 C205.579529,130.818014 205.706754,129.928199 205.725403,129.032813 C205.725403,128.942602 205.720892,128.852392 205.711871,128.762181 C205.79686,128.703275 205.867724,128.626249 205.919356,128.536654 C205.978224,128.404509 206.014803,128.263527 206.027608,128.11943 C206.108798,127.544337 206.192243,126.966989 206.273432,126.389641 C206.333573,125.976175 206.392962,125.563461 206.451599,125.151499 L207.168773,120.147063 C207.229665,119.711797 207.292813,119.278786 207.353705,118.845774 L207.540892,117.551252 C207.56119,117.397893 207.583742,117.244535 207.599529,117.100198 C208.149814,116.18005 207.624337,114.953185 207.5657,113.906741 Z M201.582478,132.643494 C201.316357,132.01202 201.068278,131.364758 201.131425,130.683668 L201.106617,130.683668 C201.165964,130.47409 201.155675,130.250911 201.077299,130.047683 C201.007385,129.883048 200.885601,129.743222 200.811177,129.578587 C200.731208,129.377635 200.689889,129.163392 200.689393,128.947113 C200.633384,127.575447 200.741654,126.202006 201.011896,124.856059 C201.041214,124.698191 201.072788,124.538067 201.102107,124.380198 C201.196705,124.325546 201.283236,124.257991 201.359207,124.17948 C201.477837,124.044253 201.575868,123.892266 201.650136,123.728426 C201.904981,123.216481 202.137274,122.695514 202.351524,122.165527 C202.421437,121.994126 202.522924,121.795663 202.69658,121.752813 C202.660496,123.072144 202.795812,124.418538 202.259058,125.609318 C202.157092,125.801339 202.081245,126.006126 202.033532,126.21824 C201.983916,126.554275 202.123742,126.89482 202.074126,127.2286 C202.049318,127.402255 201.974895,127.562379 201.945576,127.733779 C201.900258,127.905077 201.950173,128.087526 202.076382,128.211896 C202.106258,128.232837 202.138895,128.249535 202.173358,128.261512 C202.159827,128.351722 202.14855,128.444188 202.139529,128.532144 C202.121487,128.717076 202.112466,128.890731 202.10119,128.998984 C202.049294,129.550665 202.028964,130.10486 202.040297,130.65886 C202.040297,131.256506 202.06285,131.854151 202.053829,132.463073 C202.062172,132.637885 202.032949,132.812454 201.968129,132.975019 C201.923423,133.058876 201.865554,133.135019 201.796729,133.200545 C201.731326,132.997571 201.659157,132.819405 201.582478,132.643494 Z" id="Shape" fill="url(#linearGradient-1)"></path>
                <ellipse id="Oval" fill="#FBBEBE" transform="translate(183.056937, 102.947188) rotate(-11.580000) translate(-183.056937, -102.947188) " cx="183.056937" cy="102.947188" rx="1.27197026" ry="3.60166047"></ellipse>
                <path d="M194.288947,178.964411 C194.104015,179.523717 194.288947,180.22285 194.789616,180.527311 C194.992447,180.63542 195.210783,180.711495 195.436877,180.752838 C195.742845,180.839264 196.059385,180.882532 196.377323,180.881388 C196.767485,180.863346 197.141859,180.709988 197.53202,180.655861 C197.577043,180.644531 197.6247,180.650994 197.665081,180.673903 C197.70465,180.71631 197.722892,180.774353 197.714696,180.831772 C197.718886,181.053539 197.73545,181.2749 197.764312,181.49482 C197.764974,181.592672 197.807696,181.685512 197.881586,181.749665 C197.937884,181.775935 198.000134,181.786829 198.062007,181.781239 L199.284362,181.781239 C199.31205,180.707362 199.194464,179.63467 198.934796,178.592292 C198.917852,178.512509 198.887339,178.436225 198.844585,178.366766 C198.74087,178.253192 198.604605,178.174426 198.454424,178.141239 C198.155559,178.016913 197.832767,177.960675 197.509467,177.976605 C197.114796,178.028476 196.785527,178.283321 196.449492,178.495316 C196.113457,178.707311 195.655638,178.894498 195.247435,178.786245 C194.839232,178.677993 194.498686,178.337447 194.288947,178.964411 Z" id="Path" fill="#3F3D56"></path>
                <path d="M176.341537,177.974349 C175.997883,178.342321 175.576425,178.628943 175.107906,178.813309 L174.900421,178.91254 C174.871714,178.923421 174.847223,178.943171 174.830508,178.968922 C174.822483,179.004421 174.830756,179.041649 174.853061,179.070409 C175.207797,179.619111 175.884055,179.865107 176.508426,179.672565 C176.64271,179.638948 176.767132,179.574032 176.871524,179.483123 C177.043439,179.279207 177.141918,179.02348 177.151177,178.756927 C177.219447,178.481975 177.20771,178.193237 177.117348,177.924734 C176.803866,177.218835 176.688848,177.539083 176.341537,177.974349 Z" id="Path" fill="#FBBEBE"></path>
                <path d="M181.02798,180.752838 C181.034921,180.838131 181.02179,180.923865 180.989641,181.003172 C180.883643,181.210657 180.588203,181.19938 180.358166,181.154275 C180.323309,180.38909 180.230579,179.627642 180.080768,178.876456 C179.643247,178.856159 179.327509,179.271128 179.092962,179.643247 L178.48855,180.601735 C178.401133,180.766773 178.277828,180.910114 178.127708,181.021214 C178.00686,181.087311 177.874377,181.12943 177.737546,181.145254 C176.58285,181.336952 175.416877,180.973854 174.302776,180.613011 C174.138661,180.568974 173.981521,180.502171 173.835936,180.414548 C173.422765,180.111184 173.323173,179.535544 173.610409,179.111004 C174.077249,178.479529 175.125948,178.65995 175.707807,178.136729 C175.647083,178.504875 175.547287,178.8655 175.410112,179.212491 C176.188178,179.095217 176.7114,178.382553 177.338364,177.906691 C177.495887,177.773064 177.685572,177.682886 177.888649,177.645081 C178.040641,177.632323 178.193675,177.648392 178.339703,177.692441 C179.06266,177.87449 179.738981,178.207271 180.324337,178.668971 C180.56114,178.856159 180.931004,179.120025 181.034746,179.408699 C181.145254,179.753755 181.02798,180.385229 181.02798,180.752838 Z" id="Path" fill="#3F3D56"></path>
                <circle id="Oval" fill="#FBBEBE" cx="196.541958" cy="101.683197" r="4.65938042"></circle>
                <path d="M205.720892,129.192937 C205.702088,130.083709 205.575627,130.968937 205.344263,131.829343 C205.123668,132.897943 204.83899,133.952305 204.491772,134.986716 C204.223395,135.73772 203.887361,136.490979 203.889616,137.287088 C203.889616,137.618612 203.943742,137.986221 203.740768,138.247831 C203.560014,138.431475 203.332168,138.561784 203.08223,138.624461 C202.829309,138.691558 202.623354,138.874908 202.527435,139.118364 C202.315694,138.801998 202.157229,138.45307 202.05834,138.085452 C201.653895,136.846559 201.278017,135.6009 200.930706,134.348476 C200.866194,134.202119 200.878007,134.033364 200.96228,133.897423 C201.019514,133.847665 201.08627,133.810067 201.158488,133.786914 C201.389638,133.692656 201.601418,133.556566 201.783197,133.385477 C201.86851,133.309759 201.938885,133.21873 201.990682,133.1171 C202.056224,132.95548 202.086221,132.781649 202.078637,132.60741 C202.078637,132.009765 202.078637,131.414374 202.06285,130.816729 C202.053395,130.264949 202.074477,129.713069 202.125998,129.163618 C202.125998,129.055366 202.146295,128.88171 202.164337,128.696778 C202.198166,128.342701 202.265824,127.932243 202.457522,127.794672 C202.743941,127.602974 203.600942,127.860074 203.9257,127.90518 C204.485006,127.981859 205.053333,128.072069 205.599108,128.178067 C205.678395,128.510584 205.719257,128.851102 205.720892,129.192937 L205.720892,129.192937 Z" id="Path" fill="#3F3D56"></path>
                <path d="M186.90746,106.899628 C186.727038,107.260471 186.294027,107.434126 185.960248,107.661908 L184.816828,108.446741 C184.66246,108.585845 184.457995,108.6559 184.250756,108.640694 C184.062778,108.571277 183.910734,108.428991 183.829021,108.246022 C183.829711,108.240028 183.829711,108.233974 183.829021,108.22798 L183.592218,107.831053 L182.464585,105.94114 C182.339221,105.7719 182.266292,105.569584 182.254845,105.359281 C182.254845,105.262305 182.288674,105.172094 182.297695,105.075118 C182.300746,104.802739 182.2222,104.535682 182.072169,104.308327 C181.981958,104.139182 181.801537,103.999356 181.806047,103.809913 C181.797411,103.560982 181.840412,103.312958 181.932342,103.081462 C182.050658,102.86731 182.220389,102.685954 182.426245,102.55373 C182.532243,102.477051 182.640496,102.404882 182.753259,102.328203 C182.813127,102.28732 182.87946,102.256823 182.949467,102.237993 C183.136654,102.199653 183.321586,102.355266 183.511029,102.362032 C184.32518,102.907807 184.638662,103.940719 185.279157,104.684957 C185.64,105.108947 185.676084,105.433705 186.084287,105.81259 C186.14969,105.871227 186.212838,105.934374 186.27373,105.999777 C186.354432,106.087799 186.422722,106.186441 186.476704,106.292962 C186.551128,106.486914 186.999926,106.714696 186.90746,106.899628 Z" id="Path" fill="#3F3D56"></path>
                <path d="M194.904634,106.344833 C195.240669,107.055242 195.50228,107.835564 195.405304,108.615886 C195.38545,108.827274 195.318399,109.03151 195.209095,109.213532 C194.884337,109.711945 194.203247,109.802156 193.610112,109.831475 C193.357674,109.810265 193.107323,109.891548 192.915489,110.057001 C192.752511,110.293875 192.770126,110.61094 192.95834,110.828302 C193.148948,111.031735 193.38562,111.186423 193.648451,111.279356 C194.586642,111.692069 195.599257,112.032615 196.618637,111.937893 C197.092243,111.892788 197.552317,111.755217 198.023668,111.685304 C198.537515,111.629654 199.053931,111.601048 199.570781,111.599603 C200.184213,111.577051 200.79539,111.516159 201.406568,111.455266 L203.025849,111.295143 C203.114352,111.296412 203.200234,111.265109 203.267162,111.207187 C203.386691,111.067361 203.233333,110.862131 203.084486,110.756134 C202.225229,110.120149 201.131425,109.682627 200.642032,108.726394 C200.416506,108.275341 200.346592,107.738587 200.179703,107.25145 C200.012813,106.764312 199.746691,106.324535 199.642949,105.828377 C199.587634,105.393119 199.562765,104.954532 199.568525,104.515812 C199.574195,104.073423 199.413172,103.645102 199.117472,103.31601 C198.794969,103.016059 198.328129,102.93938 197.890607,102.921338 C196.81259,102.873978 195.664659,103.131078 194.900124,103.891103 C194.694895,104.096332 194.518984,104.342156 194.306989,104.527088 C194.094994,104.71202 193.80632,104.766146 193.946146,105.009715 C194.085973,105.253284 194.361115,105.404387 194.509963,105.618637 C194.660627,105.849819 194.792603,106.092655 194.904634,106.344833 L194.904634,106.344833 Z" id="Path" fill="#FBBEBE"></path>
                <path d="M204.090335,112.905403 C203.805952,114.642008 203.343437,116.344699 202.710112,117.986518 C202.391734,118.727917 202.12056,119.488708 201.898216,120.264337 C201.72456,120.96347 201.758389,121.712218 201.598265,122.413606 C201.399802,123.286394 201.201338,124.161437 201.041214,125.040991 C200.772574,126.3841 200.665065,127.754453 200.720967,129.123024 C200.721476,129.338571 200.762799,129.552072 200.842751,129.752243 C200.917175,129.914622 201.036704,130.054449 201.106617,130.221338 C201.212345,130.517681 201.189453,130.844721 201.04347,131.123445 C200.927743,131.381609 200.770837,131.619253 200.578885,131.827088 C198.476976,132.454052 196.228476,132.248823 194.038612,132.381884 C192.020149,132.503668 189.979133,132.918637 187.989988,132.573581 C187.764461,131.671475 188.14109,130.726518 188.463594,129.846964 C189.399529,127.291747 190.434696,124.630533 190.267807,121.953532 C190.250314,121.641285 190.214923,121.330299 190.161809,121.022107 C189.834796,119.125428 190.191128,117.16109 190.76171,115.323048 C191.115787,114.177373 191.1,112.957274 191.01881,111.764238 C190.978625,111.376838 190.973341,110.986611 191.003024,110.598265 C191.035649,110.201715 191.182968,109.82323 191.427014,109.508971 C191.427014,109.493185 191.447311,109.477398 191.458587,109.461611 C191.469864,109.445824 191.557819,109.448079 191.627732,109.461611 L191.627732,109.461611 C191.663765,109.476901 191.704463,109.476901 191.740496,109.461611 L191.765304,109.445824 C191.784877,109.431888 191.811133,109.431888 191.830706,109.445824 C191.882577,109.477398 191.911896,109.585651 192.024659,109.605948 C192.19128,109.631155 192.359187,109.646967 192.527584,109.653309 C192.730128,109.659327 192.931357,109.688073 193.127485,109.739009 L193.154548,109.739009 C193.447834,109.78848 193.748872,109.762876 194.029591,109.664585 C194.21641,109.617916 194.396708,109.548221 194.566344,109.4571 C194.61596,109.402974 194.927187,109.353358 194.990335,109.315019 C195.195564,109.190979 195.150458,108.60912 195.193309,108.370062 C195.217001,108.130302 195.273928,107.895004 195.362454,107.670929 C195.571044,107.335124 195.932689,107.124727 196.327708,107.109368 C196.716039,107.100119 197.104168,107.134922 197.484659,107.21311 C198.325874,107.332639 199.187385,107.312342 200.012813,107.506295 C200.427782,107.603271 200.88109,107.749864 201.26223,107.560421 C201.365973,107.585229 201.38176,107.67544 201.38176,107.785948 C201.372041,107.890933 201.350865,107.99454 201.318612,108.094919 C201.174275,108.717373 201.663668,109.290211 202.114721,109.741264 C202.305291,109.953888 202.53018,110.133036 202.780025,110.271252 C203.005551,110.374994 203.231078,110.417844 203.456605,110.530607 C203.63926,110.628073 203.794393,110.770019 203.907658,110.943321 C204.037665,111.142028 204.125197,111.365464 204.164758,111.599603 C204.213173,112.035968 204.188015,112.477364 204.090335,112.905403 L204.090335,112.905403 Z" id="Path" fill="#3F3D56"></path>
                <path d="M204.090335,112.905403 C203.805952,114.642008 203.343437,116.344699 202.710112,117.986518 C202.391734,118.727917 202.12056,119.488708 201.898216,120.264337 C201.72456,120.96347 201.758389,121.712218 201.598265,122.413606 C201.399802,123.286394 201.201338,124.161437 201.041214,125.040991 C200.993854,125.068055 200.944238,125.092862 200.894622,125.115415 C200.614033,125.24941 200.31667,125.344991 200.010558,125.399579 C199.460744,125.466101 198.903978,125.447846 198.359703,125.345452 L195.141437,124.914696 C193.855936,124.741041 192.486989,124.531301 191.533011,123.660768 C191.003024,123.182652 190.655713,122.551177 190.274572,121.942255 C190.257079,121.630009 190.221689,121.319023 190.168575,121.01083 C189.841561,119.114151 190.197893,117.149814 190.768476,115.311772 C191.122553,114.166097 191.106766,112.945998 191.025576,111.752962 C190.98539,111.365562 190.980107,110.975334 191.009789,110.586989 C191.042415,110.190439 191.189734,109.811953 191.433779,109.497695 C191.499651,109.478379 191.566695,109.463313 191.634498,109.45259 L191.634498,109.45259 C191.679883,109.443402 191.72585,109.437374 191.772069,109.434548 L191.837472,109.434548 C191.913441,109.434826 191.989121,109.443908 192.062999,109.461611 C192.21665,109.510531 192.367265,109.568518 192.514052,109.635266 L192.541115,109.635266 C192.734471,109.698957 192.937562,109.72797 193.141016,109.720967 C193.438711,109.720967 193.745428,109.673606 194.043123,109.653309 C194.410865,109.595883 194.787245,109.663377 195.112119,109.845006 C195.321787,110.013511 195.520643,110.195043 195.707509,110.388525 C195.933172,110.56576 196.187051,110.703755 196.458513,110.796729 C198.399828,111.537735 200.553597,111.492426 202.462032,110.670434 C202.645352,110.566205 202.853345,110.513234 203.064188,110.517076 C203.219931,110.547563 203.367484,110.61058 203.4972,110.702007 C203.632515,110.780942 203.765576,110.857621 203.903147,110.927534 C204.033155,111.126242 204.120686,111.349677 204.160248,111.583817 C204.211932,112.025126 204.188291,112.472009 204.090335,112.905403 L204.090335,112.905403 Z" id="Path" fill="#000000" opacity="0.1"></path>
                <path d="M206.054672,111.412416 C205.156618,111.138113 204.293749,110.759662 203.483668,110.284783 C203.353596,110.193996 203.206183,110.131039 203.050657,110.099851 C202.839254,110.097338 202.630876,110.15021 202.446245,110.253209 C200.538568,111.075068 198.385546,111.120377 196.444981,110.379504 C196.173911,110.285643 195.920172,110.147725 195.693978,109.971301 C195.506531,109.778416 195.307713,109.596919 195.098587,109.427782 C194.356605,108.94741 193.330458,109.511227 192.50052,109.202255 C192.353314,109.136511 192.202756,109.078546 192.049467,109.0286 C191.393185,108.863965 190.725626,109.517993 190.08062,109.319529 C189.84064,109.971795 189.66318,110.645388 189.550632,111.331227 C189.458907,112.118841 189.409971,112.910852 189.40404,113.703767 C189.40404,114.179628 189.381487,114.655489 189.40404,115.131351 C189.564743,115.157645 189.707074,115.250079 189.796456,115.386196 C189.856391,115.545255 189.84319,115.722643 189.760372,115.871078 C189.289021,117.082156 188.810905,118.306766 188.095985,119.391549 C188.599841,119.691774 189.067499,120.048949 189.48974,120.456035 C190.279083,121.290483 190.666989,122.460967 191.51948,123.232268 C192.480223,124.100545 193.84917,124.31254 195.127906,124.483941 L198.346171,124.914696 C198.891216,125.016707 199.448553,125.035716 199.999281,124.971078 C200.304677,124.915365 200.601245,124.819037 200.88109,124.684659 C201.063902,124.60822 201.230689,124.498049 201.372739,124.359901 C201.491662,124.224896 201.589723,124.072863 201.663668,123.908848 C201.918513,123.399157 202.150805,122.878191 202.365056,122.350458 C202.43948,122.163271 202.552243,121.944511 202.755217,121.928724 C203.950508,120.850706 205.078141,119.745626 206.273432,118.667608 C206.75378,118.269522 207.18461,117.815219 207.556679,117.314449 C208.149814,116.43715 207.610805,115.194498 207.556679,114.134523 C207.550133,113.863407 207.51613,113.593653 207.455192,113.329393 C207.261239,112.560347 206.805675,111.640198 206.054672,111.412416 Z" id="Path" fill="#3366FF"></path>
                <path d="M186.90746,106.899628 C186.727038,107.260471 186.294027,107.434126 185.960248,107.661908 L184.816828,108.446741 C184.66246,108.585845 184.457995,108.6559 184.250756,108.640694 C184.062778,108.571277 183.910734,108.428991 183.829021,108.246022 C183.829021,108.194151 183.829021,108.13777 183.829021,108.083643 C183.820332,107.90109 183.844783,107.718472 183.90119,107.544634 C184.013145,107.289604 184.186744,107.066405 184.406369,106.895118 C184.830953,106.493059 185.335962,106.185596 185.888079,105.993011 C185.974147,105.959532 186.067719,105.950174 186.158711,105.965948 C186.193775,105.975102 186.227237,105.989552 186.257943,106.008798 C186.338645,106.09682 186.406935,106.195462 186.460917,106.301983 C186.551128,106.486914 186.999926,106.714696 186.90746,106.899628 Z" id="Path" fill="#000000" opacity="0.1"></path>
                <path d="M189.600248,109.276679 C189.216853,109.258637 188.903371,108.981239 188.623717,108.717373 L187.768971,107.923519 C187.711772,107.875148 187.661664,107.818967 187.620124,107.756629 C187.573937,107.668929 187.539078,107.575717 187.516382,107.479232 C187.335162,107.02367 187.051128,106.616143 186.686444,106.288451 C186.622871,106.207659 186.537604,106.146642 186.44062,106.11254 C186.348926,106.095622 186.254317,106.105005 186.167732,106.139603 C185.615468,106.331876 185.110397,106.639378 184.686022,107.04171 C184.466531,107.213131 184.292961,107.436293 184.180843,107.691227 C184.124141,107.864997 184.099682,108.047669 184.108674,108.230235 C184.11397,108.826123 184.247823,109.413847 184.50109,109.953259 C184.53943,110.036704 184.58228,110.120149 184.627385,110.201338 C184.928328,110.698677 185.283855,111.160862 185.687361,111.579306 L186.224114,112.179207 C186.751846,112.770087 187.279579,113.360967 187.852416,113.904486 C188.057757,114.123503 188.306661,114.297121 188.583123,114.414176 C188.866061,114.529642 189.189794,114.477427 189.422082,114.27886 C189.530119,114.153798 189.611468,114.007983 189.66114,113.850359 C190.008451,112.948253 190.33772,112.010062 190.358017,111.038042 C190.362876,110.648769 190.346312,110.259523 190.308401,109.872069 C190.274572,109.461611 189.983643,109.301487 189.600248,109.276679 Z" id="Path" fill="#3366FF"></path>
                <path d="M203.267162,140.850409 C203.254073,143.119033 203.092854,145.384382 202.784535,147.631995 C202.73943,147.995093 202.689814,148.358191 202.665006,148.721289 C202.590582,149.774498 202.712367,150.832218 202.613135,151.878662 C202.561264,152.444734 202.44399,153.006295 202.344758,153.558835 C201.904006,156.024973 201.775197,158.536756 201.961363,161.035043 C202.27259,165.191499 201.318612,169.350211 201.751623,173.49539 C201.804105,174.301445 201.75943,175.110887 201.618563,175.90627 C201.537855,176.399805 201.421019,176.886748 201.268996,177.363172 C200.939727,178.492309 200.608955,179.619942 200.276679,180.746072 C200.23759,180.917356 200.160517,181.077669 200.051152,181.215167 C199.81841,181.41644 199.510226,181.507663 199.205428,181.465502 C197.904139,181.424907 196.679529,180.863346 195.49777,180.315316 C195.361874,180.261714 195.236051,180.185458 195.125651,180.089789 C194.879827,179.834944 194.900124,179.433507 194.791871,179.097472 C194.683618,178.761437 194.390434,178.4457 194.223544,178.100644 C194.086327,177.774246 194.003294,177.427642 193.97772,177.074498 C193.827369,175.919802 193.72513,174.760595 193.671004,173.596877 C193.585304,171.959554 194.667831,170.453036 195.024164,168.860818 C195.700743,165.730508 195.127906,162.374672 196.329963,159.404486 C196.708848,158.466295 196.158563,157.329641 196.104436,156.319281 C196.084954,155.667468 196.000336,155.019236 195.851846,154.384263 C195.62632,153.536283 195.150458,152.737918 195.116629,151.858364 C195.091822,151.222379 195.297051,150.602181 195.403048,149.975217 C195.543675,149.052529 195.53072,148.112934 195.364709,147.194473 C195.24518,146.436704 195.062503,145.678934 194.879827,144.939207 L194.839232,145.022652 C194.28974,146.096624 193.817201,147.208259 193.42518,148.34917 C193.244758,148.90171 193.08689,149.465527 192.861363,150.00228 C192.676431,150.453333 192.448649,150.866047 192.225378,151.290037 C191.424559,152.785234 190.72754,154.333746 190.139257,155.92461 C189.859603,156.704932 189.613779,157.503296 189.370211,158.285874 L187.699058,163.698513 C187.248005,165.121586 186.754102,166.497299 186.312069,167.918116 C185.687361,169.947856 185.062652,171.959554 184.336456,173.944188 C183.659876,175.827336 182.854746,177.778141 183.096059,179.767286 C182.474226,180.059564 181.791225,180.198021 181.104659,180.170979 C179.942301,180.068161 178.801961,179.791438 177.72176,179.350062 C177.291004,179.189938 176.844461,179.009517 176.553532,178.65544 C176.052862,178.044263 176.176902,177.148922 176.328005,176.370855 C176.384928,176.020148 176.475558,175.675751 176.598637,175.342454 C176.770037,174.927485 177.04969,174.559876 177.225601,174.149418 C177.579678,173.36233 177.60223,172.471499 177.742057,171.616753 C177.881884,170.762007 178.19311,169.859901 178.923817,169.395316 C179.047856,167.893309 179.665799,166.411599 180.006344,164.94342 C180.263445,163.831574 180.349145,162.688154 180.552119,161.56052 C180.755093,160.432887 181.082107,159.305254 181.763197,158.391871 C181.70946,157.450057 181.922053,156.512148 182.376629,155.685551 C182.486447,155.50403 182.576423,155.311223 182.645006,155.110458 C182.687063,154.914593 182.711218,154.715309 182.717175,154.515068 C182.791746,153.731383 183.126832,152.995304 183.668897,152.424436 C183.443371,151.601264 183.756853,150.742007 184.038761,149.943643 C184.39382,148.924883 184.554471,147.848522 184.512367,146.770483 C184.477398,146.469455 184.491872,146.164735 184.555217,145.868377 C184.618364,145.64285 184.742404,145.451152 184.814572,145.234647 C184.878905,144.969472 184.912952,144.697856 184.916059,144.425006 C185.004015,143.204907 185.497918,142.054721 186.043693,140.965428 C186.368451,140.329442 186.093309,139.465675 186.160967,138.757522 C186.27824,137.580273 186.406791,136.362429 186.990905,135.336283 C187.099157,135.14233 187.216431,134.957398 187.313408,134.756679 C187.430927,134.470101 187.494392,134.164248 187.500595,133.854572 C187.520892,133.338116 187.593061,132.909616 187.408129,132.429244 C188.614696,131.425651 190.261041,131.143742 191.830706,131.076084 C193.400372,131.008426 194.988079,131.150508 196.523916,130.816729 C196.974969,130.715242 197.426022,130.575415 197.901884,130.507757 C198.982156,130.349888 200.078216,130.595713 201.144957,130.839281 C201.070533,131.515861 201.318612,132.165378 201.59601,132.794597 C202.67903,135.343333 203.246989,138.081189 203.267162,140.850409 L203.267162,140.850409 Z" id="Path" fill="#33313F"></path>
                <path d="M197.95601,141.366865 L195.364709,147.194473 C195.24518,146.436704 195.062503,145.678934 194.879827,144.939207 L194.839232,145.022652 L194.839232,144.900867 L196.251029,141.795366 L197.95601,141.366865 Z" id="Path" fill="#000000" opacity="0.1"></path>
                <path d="M205.720892,129.192937 C205.5714,129.304785 205.392919,129.371324 205.206691,129.384634 C204.921028,129.394776 204.63574,129.355873 204.363222,129.269616 L202.333482,128.762181 C202.269838,128.746513 202.207894,128.724606 202.14855,128.696778 C202.182379,128.342701 202.250037,127.932243 202.441735,127.794672 C202.728154,127.602974 203.585155,127.860074 203.909913,127.90518 C204.469219,127.981859 205.037546,128.072069 205.583321,128.178067 C205.667929,128.509965 205.714089,128.850492 205.720892,129.192937 Z" id="Path" fill="#000000" opacity="0.1"></path>
                <path d="M207.43715,115.774102 C207.48,115.961289 207.540892,116.146221 207.576976,116.335663 C207.637651,116.800458 207.621651,117.272059 207.529616,117.731673 L207.344684,119.021685 L207.159752,120.318463 L206.444833,125.309368 L206.268922,126.545254 L206.020843,128.270533 C206.009125,128.414092 205.972494,128.554513 205.91259,128.685502 C205.762506,128.934517 205.497214,129.091319 205.206691,129.102726 C204.921084,129.111777 204.635978,129.072899 204.363222,128.987708 L202.333482,128.478017 C202.244518,128.462196 202.159947,128.427599 202.085403,128.37653 C201.95916,128.253115 201.909175,128.071272 201.954597,127.900669 C201.983916,127.729269 202.05834,127.569145 202.083147,127.397745 C202.132763,127.063965 201.992937,126.721165 202.042553,126.389641 C202.091208,126.178526 202.167015,125.974606 202.268079,125.782974 C202.944659,124.287732 202.552243,122.542156 202.78228,120.918364 C202.98931,119.640393 203.529117,118.439441 204.347435,117.436233 C204.852439,116.803008 205.432538,116.233512 206.074969,115.740273 C206.327559,115.544064 206.728996,115.140372 207.046989,115.063693 C207.455192,114.977993 207.369492,115.489938 207.43715,115.774102 Z" id="Path" fill="#3366FF"></path>
                <path d="M192.07653,96.3472367 C191.927683,96.8208426 192.159975,97.3418092 192.053978,97.8244362 C191.938959,98.3566791 191.43829,98.7265428 191.296208,99.2610409 C191.070682,100.075192 191.760793,100.817175 192.265973,101.493755 C194.137844,104.006121 193.89202,107.483742 193.251524,110.548649 C192.736174,113.007622 192.023457,115.421054 191.120297,117.765502 C190.838389,118.493953 190.527162,119.23368 189.972367,119.779455 C191.009789,119.48176 192.112615,119.181809 193.152292,119.470483 C194.469368,119.835836 195.606022,121.114572 196.94114,120.823643 C197.744015,120.645477 198.307831,119.932813 199.029517,119.538141 C200.382677,118.80969 202.013234,119.267509 203.522007,119.502057 C203.847121,119.578759 204.187332,119.561553 204.503048,119.452441 C204.744408,119.322696 204.949178,119.134215 205.098439,118.904411 C205.771775,118.040538 206.175037,116.997076 206.257646,115.904907 C206.329838,114.804789 205.92663,113.726557 205.15031,112.943742 C204.830062,112.641537 204.446667,112.397968 204.200843,112.041636 C203.961763,111.625476 203.833627,111.154865 203.828724,110.674944 C203.650558,108.194151 204.254969,105.661487 203.632515,103.261884 C203.406989,102.407138 203.03938,101.588476 202.940149,100.713432 C202.816109,99.6241388 203.111549,98.458166 202.678538,97.4613383 C202.337993,96.6697398 201.586989,96.1081784 200.777348,95.8195043 C199.967708,95.5308302 199.101685,95.4496406 198.242429,95.3684511 C197.006543,95.2647088 192.592986,94.7347212 192.07653,96.3472367 Z" id="Path" fill="#33313F"></path>
                <g id="Group" opacity="0.1" transform="translate(189.893432, 95.623296)" fill="#000000">
                    <path d="M3.3580917,14.9253532 C2.8452772,17.3741578 2.13634152,19.7777514 1.23814126,22.1128872 C1.39375465,21.8039157 1.5245601,21.4791574 1.64859975,21.1566543 C2.55278458,18.812555 3.26552608,16.3990388 3.77982652,13.9398017 C4.42257745,10.8726394 4.66840149,7.39952912 2.79653036,4.88490706 C2.34547708,4.2850062 1.76587361,3.63548947 1.786171,2.93184634 C1.61946666,3.14466284 1.48985032,3.38407186 1.40277571,3.64 C1.17724907,4.45415118 1.86736059,5.19613383 2.37254027,5.87271375 C4.2444114,8.38282528 3.99858736,11.8604461 3.3580917,14.9253532 Z" id="Path"></path>
                    <path d="M2.18760843,1.97335812 C2.36860714,1.74858201 2.50349056,1.49031091 2.58453532,1.21333333 C2.61940279,0.878304302 2.61030457,0.540153903 2.55747212,0.207484511 C2.3837426,0.338227171 2.25331108,0.518159821 2.18309789,0.72394052 C2.05003717,1.12312268 2.20339529,1.55613383 2.18760843,1.97335812 Z" id="Path"></path>
                    <path d="M15.6289963,22.288798 C15.4796681,22.5179656 15.2748693,22.7056979 15.0336059,22.8345725 C14.7183337,22.9459505 14.3774657,22.9631898 14.0525651,22.8841884 C12.5437918,22.6586617 10.8951921,22.1940768 9.56007435,22.9225279 C8.83613383,23.3149442 8.27457249,24.0276084 7.46944238,24.2080297 C6.13657993,24.5057249 4.99992565,23.2269888 3.68285006,22.8548699 C2.74916976,22.5955143 1.76587361,22.8097646 0.825427509,23.0803965 C0.638558594,23.4789103 0.386233881,23.8432946 0.0789343247,24.1584139 C1.11635688,23.8607187 2.21918216,23.5607683 3.25885998,23.8494424 C4.57593556,24.2147955 5.71258984,25.4935316 7.04770756,25.2026022 C7.8505824,25.0244362 8.41439901,24.311772 9.13608426,23.9171004 C10.4892441,23.1886493 12.1198017,23.6464684 13.628575,23.8810161 C13.9536884,23.9577185 14.2938999,23.9405124 14.6096159,23.8314002 C14.8509759,23.7016548 15.0557451,23.5131741 15.2050062,23.2833705 C15.6137205,22.7442504 15.929308,22.1405179 16.1386865,21.4971995 C15.9879736,21.7729356 15.8176381,22.0374833 15.6289963,22.288798 L15.6289963,22.288798 Z" id="Path"></path>
                </g>
            </g>
        </g>
    </g>
</svg>